<?xml version="1.0" encoding="UTF-8" standalone="no"?>
<svg width="13px" height="13px" viewBox="0 0 13 13" version="1.1" xmlns="http://www.w3.org/2000/svg" xmlns:xlink="http://www.w3.org/1999/xlink" xmlns:sketch="http://www.bohemiancoding.com/sketch/ns">
    <g id="Page-1" stroke="none" stroke-width="1" fill="none" fill-rule="evenodd" sketch:type="MSPage">
        <g id="Список-кинотеатров" sketch:type="MSArtboardGroup" transform="translate(-333.000000, -565.000000)" fill="currentColor">
            <g id="8" sketch:type="MSLayerGroup" transform="translate(0.000000, 518.000000)">
                <g id="icon_link" transform="translate(333.000000, 47.000000)" sketch:type="MSShapeGroup">
                    <path d="M8.76710205,11.6879742 L1.30763142,11.6879742 L1.30763142,4.22850358 L6.91784969,4.22850358 L8.22548112,2.92087216 L0.653815712,2.92087216 C0.292735088,2.92087216 0,3.21360725 0,3.57468787 L0,12.3417899 C0,12.7028705 0.292735088,12.9956056 0.653815712,12.9956056 L9.42091776,12.9956056 C9.78199839,12.9956056 10.0747335,12.7028705 10.0747335,12.3417899 L10.0747335,4.77012452 L8.76710205,6.07775594 L8.76710205,11.6879742 L8.76710205,11.6879742 Z" id="Shape"></path>
                    <path d="M11.8360797,0.428710938 L7.75917608,0.428710938 C7.35618382,0.428710938 7.02836109,0.756575422 7.02836109,1.15952593 C7.02836109,1.56247643 7.35618382,1.89034092 7.75917608,1.89034092 L10.071767,1.89034092 L6.21410791,5.74795828 C6.07600476,5.88597791 6,6.06947512 6,6.26474888 C6,6.46002265 6.075963,6.64347809 6.21402439,6.78137244 C6.35208578,6.91955911 6.53554122,6.99560563 6.73081499,6.99560563 C6.92600523,6.99560563 7.1095442,6.91960087 7.24764735,6.78149772 L11.1052647,2.9238386 L11.1052647,5.23642955 C11.1052647,5.63938006 11.4331292,5.96724454 11.8360797,5.96724454 C12.2390302,5.96724454 12.5668947,5.63938006 12.5668947,5.23642955 L12.5668947,1.15952593 C12.5668947,0.756575422 12.2390302,0.428710938 11.8360797,0.428710938 L11.8360797,0.428710938 Z" id="Shape"></path>
                </g>
            </g>
        </g>
    </g>
</svg>
