<?xml version="1.0" encoding="UTF-8" standalone="no"?>
<svg width="16px" height="13px" viewBox="0 0 16 13" version="1.1" xmlns="http://www.w3.org/2000/svg" xmlns:xlink="http://www.w3.org/1999/xlink" xmlns:sketch="http://www.bohemiancoding.com/sketch/ns">
    <g id="index" stroke="none" stroke-width="1" fill="none" fill-rule="evenodd" sketch:type="MSPage">
        <g id="sign_up_1_320" sketch:type="MSArtboardGroup" transform="translate(-17.000000, -286.000000)" fill="#e73f60">
            <g id="sign_in" sketch:type="MSLayerGroup" transform="translate(0.000000, 60.000000)">
                <g id="remember_me" transform="translate(16.000000, 223.000000)" sketch:type="MSShapeGroup">
                    <path d="M14.5549733,3.1600361 L6.55494995,11.1554262 L3.44516689,8.04773516 L1,10.4919818 L6.55499668,16.0441997 L17,5.60432945 L14.5549733,3.1600361 Z" id="check"></path>
                </g>
            </g>
        </g>
    </g>
</svg>
