<?xml version="1.0" encoding="UTF-8" standalone="no"?>
<svg width="17px" height="31px" viewBox="0 0 17 31" version="1.1" xmlns="http://www.w3.org/2000/svg" xmlns:xlink="http://www.w3.org/1999/xlink" xmlns:sketch="http://www.bohemiancoding.com/sketch/ns">
    <!-- Generator: Sketch 3.4.2 (15857) - http://www.bohemiancoding.com/sketch -->
    <title>Shape</title>
    <desc>Created with Sketch.</desc>
    <defs></defs>
    <g id="index" stroke="none" stroke-width="1" fill="none" fill-rule="evenodd" sketch:type="MSPage">
        <g id="online_watch_320" sketch:type="MSArtboardGroup" transform="translate(-10.000000, -104.000000)" fill="#FFFFFF">
            <g id="movie" sketch:type="MSLayerGroup" transform="translate(-84.000000, 60.000000)">
                <g id="cover" sketch:type="MSShapeGroup">
                    <path d="M110.175227,74.923414 L94.255,59.461237 L110.175227,44 L111,44.8487404 L95.9553006,59.461237 L111,74.0740469 L110.175227,74.923414 Z" id="Shape"></path>
                </g>
            </g>
        </g>
    </g>
</svg>