<?xml version="1.0" encoding="UTF-8" standalone="no"?>
<svg width="12px" height="13px" viewBox="0 0 12 13" version="1.1" xmlns="http://www.w3.org/2000/svg" xmlns:xlink="http://www.w3.org/1999/xlink" xmlns:sketch="http://www.bohemiancoding.com/sketch/ns">
    <!-- Generator: Sketch 3.4.2 (15857) - http://www.bohemiancoding.com/sketch -->
    <title>Shape</title>
    <desc>Created with Sketch.</desc>
    <defs></defs>
    <g id="index" stroke="none" stroke-width="1" fill="none" fill-rule="evenodd" sketch:type="MSPage">
        <g id="people_view_news_320" sketch:type="MSArtboardGroup" transform="translate(-152.000000, -146.000000)" fill="#125688">
            <g id="content" sketch:type="MSLayerGroup" transform="translate(0.000000, 80.000000)">
                <g id="insta" transform="translate(152.000000, 64.000000)" sketch:type="MSShapeGroup">
                    <path d="M11.9957577,3.25086416 C11.9211974,2.53563773 11.3285572,2.00038854 10.6090085,2.00026847 C7.53534776,1.99978821 4.46180714,1.99990828 1.38826652,2.00098886 C1.30434117,2.00110892 1.22509836,2.00747236 1.14273386,2.02320086 C0.462686429,2.15299099 0.00559946675,2.71549491 0.00559946675,3.40874947 L0.00559946675,8.00495278 C0.00559946675,9.53397891 -0.00076397139,11.063005 7.64827048e-05,12.5919111 C0.000196547575,12.6697131 0.00247778012,12.7483556 0.012803359,12.8254373 C0.102251688,13.4902365 0.690689619,14.0061552 1.3626927,14.0061552 C4.4534026,14.0066355 7.54351217,14.0063953 10.6342221,14.0059151 C10.6871707,14.0059151 10.7401193,14.0029135 10.7927077,13.99655 C11.4711943,13.9165868 11.9997198,13.3233463 11.9998399,12.6401772 C12.0002001,9.54946728 11.9998399,6.45863731 11.9998399,3.36780735 C11.9997198,3.32890633 11.9997198,3.28964512 11.9957577,3.25086416 L11.9957577,3.25086416 Z M8.30736488,3.85094839 C8.30880566,3.58488463 8.51147516,3.38725786 8.77669846,3.38689766 C9.23306503,3.38629734 9.68955167,3.38629734 10.1459182,3.38689766 C10.4135428,3.38725786 10.615612,3.58716587 10.6164525,3.85491053 C10.6177732,4.31295801 10.6177732,4.77088543 10.6164525,5.22881284 C10.615612,5.49367595 10.4130626,5.69430435 10.1490399,5.6951448 C9.91923577,5.69586519 9.68943161,5.69526486 9.45974751,5.69526486 C9.23306503,5.69526486 9.00650262,5.69562506 8.77982015,5.69526486 C8.51159523,5.69478461 8.30856553,5.49763809 8.30724482,5.22953323 C8.30496358,4.77004497 8.30472345,4.31055671 8.30736488,3.85094839 L8.30736488,3.85094839 Z M5.99731677,5.69538493 C7.27300602,5.6951448 8.30544384,6.72746256 8.3062843,8.0038722 C8.30712475,9.2804019 7.27528725,10.3128397 5.99863748,10.3125996 C4.72234791,10.3125996 3.68894957,9.28028184 3.68870944,8.00507285 C3.68846931,6.73022405 4.7227081,5.69562506 5.99731677,5.69538493 L5.99731677,5.69538493 Z M10.5713081,7.13412227 C10.5713081,8.8036243 10.5941204,10.4731263 10.5938803,12.1427484 C10.5937602,12.4224996 10.4069393,12.6220474 10.1267079,12.6220474 C7.3660563,12.6225276 4.58439337,12.6225276 1.8237418,12.6220474 C1.54387059,12.6220474 1.32631304,12.4220193 1.32631304,12.1410675 L1.32631304,7.1371239 C1.32631304,7.12031481 1.32631304,7.16281778 1.32631304,7.04275291 L2.42202505,7.04275291 C2.19270115,8.00327187 2.29211486,8.87350206 2.73467398,9.7151568 C3.06341159,10.3403346 3.53970893,10.8398044 4.15083913,11.1941159 C5.36553542,11.8985365 6.88471623,11.8542325 8.04910535,11.0716497 C8.6986563,10.6349738 9.16738955,10.0335688 9.44786109,9.30237377 C9.72821256,8.57105865 9.76591293,7.883207 9.57248842,7.04275291 L10.5713081,7.04275291 L10.5713081,7.13412227 L10.5713081,7.13412227 Z" id="Shape"></path>
                </g>
            </g>
        </g>
    </g>
</svg>