<?xml version="1.0" encoding="utf-8"?>
<!-- Generator: Adobe Illustrator 21.0.2, SVG Export Plug-In . SVG Version: 6.00 Build 0)  -->
<svg version="1.1" id="Layer_1" xmlns="http://www.w3.org/2000/svg" xmlns:xlink="http://www.w3.org/1999/xlink" x="0px" y="0px"
	 viewBox="0 0 1000 1000" enable-background="new 0 0 1000 1000" xml:space="preserve">
<path fill-rule="evenodd" clip-rule="evenodd" fill="#6BBD47" d="M880.6,479.3v-9.6H812v9.6h29v90.7h10.7v-90.7H880.6L880.6,479.3z
	 M960.6,469.7h-11.3l-26,81.1l-26-81.1H886l32.9,100.2h8.7L960.6,469.7z"/>
<g>
	<polygon fill-rule="evenodd" clip-rule="evenodd" fill="#FFFFFF" points="431.6,357.5 431.6,447.9 420.9,447.9 420.9,357.5 
		392,357.5 392,348 460.4,348 460.4,357.5 	"/>
	<polygon fill-rule="evenodd" clip-rule="evenodd" fill="#FFFFFF" points="479.1,447.9 479.1,348 541.1,348 541.1,357.5 
		489.8,357.5 489.8,392.7 533.5,392.7 533.5,402.3 489.8,402.3 489.8,438.3 541.1,438.3 541.1,447.9 	"/>
	<polygon fill-rule="evenodd" clip-rule="evenodd" fill="#FFFFFF" points="626.9,447.9 573.9,367.8 573.9,447.9 563.2,447.9 
		563.2,348 573.3,348 626.4,427.8 626.4,348 637,348 637,447.9 	"/>
	<path fill-rule="evenodd" clip-rule="evenodd" fill="#FFFFFF" d="M732,411.4c0,11.8-2.5,19.2-8.6,25.8
		c-6.9,7.4-16.1,11.5-26.4,11.5c-9.8,0-18.8-3.6-25.5-10.4c-9.4-9.4-9.4-20.8-9.4-40.4c0-19.1,0-31,9.4-40.4
		c6.9-6.9,15.6-10.4,25.8-10.4c13.2,0,20.3,4.8,29.6,13.6l-7.2,7.2c-6.6-6.6-12.3-11.2-22.3-11.2c-6.9,0-13,2.5-17.7,7.2
		c-7.3,7.4-7,19.5-7,34.1v3.8c0,18.4,1.4,24.8,7,30.4c4.5,4.5,10.7,7,17.3,7c7.4,0,14.3-3.1,18.8-8.6c3.9-4.6,5.5-10.1,5.5-18.2
		v-7.4h-24.3v-9.4H732V411.4z"/>
	<path fill-rule="evenodd" clip-rule="evenodd" fill="#FFFFFF" d="M813.8,447.9L791,403.5h-24v44.3h-10.7V348h38.3
		c17.8,0,29.6,10.9,29.6,27.8c0,9.1-3.4,16.4-9.8,21.5c-3.2,2.5-5.8,3.6-11.9,5.3l23.7,45.3H813.8L813.8,447.9z M793.7,394.1
		L793.7,394.1c12.5,0,19.9-6.7,19.9-18.2c0-11.5-7.4-18.4-19.9-18.4H767v36.6H793.7z"/>
	<rect x="848.4" y="348" fill-rule="evenodd" clip-rule="evenodd" fill="#FFFFFF" width="10.7" height="99.9"/>
	<polygon fill-rule="evenodd" clip-rule="evenodd" fill="#FFFFFF" points="485.6,569.9 432.5,489.8 432.5,569.9 421.9,569.9 
		421.9,470 432,470 485,549.8 485,470 495.7,470 495.7,569.9 	"/>
	<polygon fill-rule="evenodd" clip-rule="evenodd" fill="#FFFFFF" points="524.5,569.9 524.5,470 586.5,470 586.5,479.5 
		535.2,479.5 535.2,514.7 579,514.7 579,524.3 535.2,524.3 535.2,560.3 586.5,560.3 586.5,569.9 	"/>
	<polygon fill-rule="evenodd" clip-rule="evenodd" fill="#FFFFFF" points="686.3,569.9 676.3,569.9 654.1,489.9 632,569.9 
		622,569.9 596.5,470 607.9,470 627.3,550.5 649.4,470 658.9,470 680.9,550.5 700.4,470 711.8,470 	"/>
	<path fill-rule="evenodd" clip-rule="evenodd" fill="#FFFFFF" d="M767.5,480.6c-3.8-1.5-8.3-2.3-12.8-2.3
		c-13.6,0-21.6,6.9-21.6,18.7c0,9.4,5.9,15,18,16.8l10.9,1.7c9.1,1.4,13.9,3.2,18.2,7c5.6,4.8,8.4,11.5,8.4,19.8
		c0,17.7-13.5,28.3-35.8,28.3c-6.9,0-13.5-1.3-18.9-3.5c-5.2-2.1-8-4.1-14-9.7l7.3-7.3c5.2,4.9,7.6,6.5,11.9,8.3
		c4.2,1.7,9.1,2.7,14.7,2.7c15.3,0,24.1-6.9,24.1-18.7c0-5.3-1.5-9.5-4.8-12.3c-2.9-2.7-5.5-3.6-13-4.8l-11.6-1.8
		c-17.3-2.7-26-11.5-26-26.1c0-17.7,12.3-28.3,32.8-28.3c5.7,0,11.4,1,16,2.8c4.6,1.7,7.3,3.4,12.9,8.1l-6.9,6.9
		C773.1,483.3,771.1,482,767.5,480.6z"/>
</g>
<polygon fill-rule="evenodd" clip-rule="evenodd" fill="#6BBD47" points="156,582.6 223.6,582.6 156,531.3 "/>
<polygon fill-rule="evenodd" clip-rule="evenodd" fill="#6BBD47" points="99.7,458.7 156,458.7 223.6,510 223.6,458.7 279.9,458.7 
	279.9,402.4 99.7,402.4 "/>
<path fill-rule="evenodd" clip-rule="evenodd" fill="#FFFFFF" d="M442.1,634.7l-2.8-2.7c-0.5,0.5-0.9,0.9-1.3,1.3
	c-0.4,0.3-0.7,0.6-1,0.8c-0.3,0.2-0.7,0.4-1.1,0.6c-0.5,0.2-0.9,0.3-1.5,0.4c-0.5,0.1-1.1,0.1-1.7,0.1c-2.8,0-4.9-0.9-6.3-2.7
	c-1.4-1.8-2.1-4.5-2.1-8.1c0-3.6,0.7-6.3,2.2-8.1c1.4-1.8,3.6-2.7,6.4-2.7c0.6,0,1.2,0.1,1.7,0.2c0.5,0.1,1,0.3,1.5,0.5
	c0.4,0.1,0.7,0.3,1,0.5c0.3,0.2,0.6,0.5,1,0.8c0.3,0.3,0.8,0.7,1.2,1.2l2.8-2.7c-0.6-0.6-1.2-1.2-1.6-1.6c-0.5-0.4-0.9-0.8-1.3-1
	c-0.4-0.3-0.9-0.5-1.4-0.7c-0.7-0.3-1.4-0.5-2.2-0.7c-0.8-0.1-1.6-0.2-2.6-0.2c-2.7,0-5,0.6-6.9,1.8c-1.9,1.2-3.4,2.8-4.4,5
	c-1,2.2-1.5,4.8-1.5,7.8c0,3,0.5,5.6,1.5,7.8c1,2.2,2.5,3.8,4.4,5c1.9,1.2,4.2,1.8,6.9,1.8c0.9,0,1.8-0.1,2.6-0.2
	c0.8-0.1,1.5-0.4,2.2-0.6c0.5-0.2,1-0.5,1.4-0.7c0.4-0.3,0.9-0.6,1.3-1C440.9,635.8,441.5,635.3,442.1,634.7L442.1,634.7z
	 M475.3,638.5v-28.4h-4.1l-9.5,19.1l-9.7-19.1h-4.1v28.4h4.1v-20.2l8,15.7h3.2l7.9-15.7v20.2H475.3L475.3,638.5z M505.3,624.2
	c0-1.8-0.1-3.3-0.4-4.7c-0.2-1.4-0.6-2.6-1.1-3.7c-0.5-1-1.2-2-2-2.8c-1.1-1-2.3-1.8-3.7-2.4c-1.4-0.6-2.9-0.8-4.5-0.8
	c-1.6,0-3.1,0.3-4.5,0.8c-1.4,0.5-2.6,1.3-3.6,2.4c-0.8,0.8-1.5,1.8-2,2.8c-0.5,1.1-0.9,2.3-1.1,3.7c-0.2,1.4-0.4,3-0.4,4.8
	c0,1.8,0.1,3.4,0.4,4.8c0.3,1.4,0.6,2.6,1.1,3.7c0.5,1.1,1.2,2,2,2.8c1.1,1.1,2.3,1.8,3.6,2.4c1.4,0.5,2.9,0.8,4.5,0.8
	c1.6,0,3.1-0.3,4.5-0.8c1.4-0.6,2.6-1.3,3.6-2.4c0.8-0.8,1.5-1.8,2-2.9c0.5-1.1,0.9-2.3,1.1-3.7C505.2,627.7,505.3,626,505.3,624.2
	L505.3,624.2z M501.2,624.5c0,1.5-0.1,2.8-0.2,3.9c-0.2,1.1-0.4,2-0.7,2.8c-0.3,0.8-0.8,1.4-1.3,2c-0.6,0.7-1.4,1.2-2.3,1.5
	c-0.9,0.4-1.9,0.5-2.9,0.5c-1,0-2-0.2-2.9-0.5c-0.9-0.4-1.6-0.9-2.3-1.5c-0.6-0.6-1-1.2-1.3-2c-0.3-0.8-0.6-1.7-0.7-2.8
	c-0.2-1.1-0.2-2.4-0.2-3.9c0-1.5,0.1-2.9,0.2-4c0.1-1.1,0.4-2.1,0.7-2.8c0.3-0.8,0.8-1.4,1.3-2c0.6-0.7,1.4-1.2,2.3-1.5
	c0.9-0.4,1.8-0.5,2.8-0.5c1,0,2,0.2,2.9,0.5c0.9,0.4,1.7,0.9,2.3,1.5c0.6,0.5,1,1.2,1.3,2c0.3,0.8,0.6,1.7,0.7,2.9
	C501.1,621.5,501.2,622.9,501.2,624.5L501.2,624.5z M530.7,613.7v-3.6h-23.2v3.6h9.8v24.8h4.2v-24.8H530.7L530.7,613.7z M557,624.4
	c0-3.3-0.4-6.1-1.1-8.3c-0.8-2.2-1.9-3.8-3.5-4.8c-1.6-1-3.6-1.6-6-1.5c-0.9,0-1.7,0.1-2.5,0.2c-0.8,0.2-1.5,0.4-2.1,0.7
	c-0.4,0.2-0.8,0.4-1.1,0.7c-0.3,0.2-0.7,0.5-1,0.8c-0.3,0.3-0.7,0.8-1.2,1.3v-3.4h-4.2v41.1h4.2v-16.1c0.5,0.5,0.9,1,1.2,1.3
	c0.3,0.3,0.7,0.6,1,0.8c0.3,0.2,0.7,0.4,1.1,0.6c0.7,0.3,1.4,0.5,2.1,0.7c0.8,0.1,1.6,0.2,2.4,0.2c3.6,0,6.3-1.2,8-3.5
	C556.1,633,557,629.3,557,624.4L557,624.4z M552.8,624.4c0,2.5-0.2,4.6-0.7,6.2c-0.5,1.6-1.3,2.8-2.3,3.5c-1,0.8-2.4,1.1-4.1,1.1
	c-1.7,0-3-0.4-4.1-1.1c-1.1-0.8-1.8-1.9-2.3-3.5c-0.5-1.6-0.8-3.7-0.7-6.2c0-2.5,0.2-4.6,0.7-6.2c0.5-1.6,1.3-2.8,2.3-3.5
	c1.1-0.8,2.4-1.1,4.1-1.1c1.7,0,3.1,0.4,4.1,1.1c1,0.8,1.8,1.9,2.3,3.5C552.6,619.7,552.8,621.8,552.8,624.4L552.8,624.4z
	 M586.6,638.5v-28.4h-4.2L567.9,632v-21.9h-4.1v28.4h4.1l14.6-22v22H586.6L586.6,638.5z M634.4,638.5v-28.4h-4.2L615.6,632v-21.9
	h-4.1v28.4h4.1l14.6-22v22H634.4L634.4,638.5z M679.2,610.1h-4.5l-7.7,22.8l-7.8-22.8h-4.5l10.2,27.9l-2,5.5
	c-0.3,0.9-0.7,1.7-1.1,2.2c-0.4,0.5-0.9,0.9-1.4,1.1c-0.6,0.2-1.3,0.3-2.2,0.3h-1.3v3.7h1.8c1.9,0,3.5-0.4,4.7-1.3
	c1.2-0.9,2.2-2.2,2.8-4L679.2,610.1L679.2,610.1z M702.7,638.5v-28.4h-4.2v13.8c-1,0.2-2.2,0.4-3.5,0.6c-1.3,0.2-2.7,0.3-4.2,0.3
	c-1.1,0-2-0.2-2.7-0.5c-0.7-0.3-1.3-0.9-1.7-1.6c-0.4-0.7-0.6-1.7-0.6-3v-9.6h-4.2v10.3c0,1.9,0.4,3.4,1,4.6
	c0.7,1.2,1.6,2.1,2.9,2.6c1.2,0.6,2.7,0.9,4.4,0.9c1.1,0,2.2-0.1,3.2-0.2c1-0.1,2-0.3,2.9-0.4c0.9-0.2,1.7-0.3,2.4-0.5v11.1H702.7
	L702.7,638.5z M731.2,638.5v-19.3c0-3.2-1-5.5-2.9-7.1c-1.9-1.6-4.8-2.4-8.6-2.4c-1.3,0-2.6,0.1-3.6,0.3c-1,0.2-2,0.5-2.8,0.9
	c-0.5,0.2-0.9,0.5-1.2,0.7c-0.4,0.3-0.7,0.6-1.1,0.9c-0.4,0.4-0.8,0.8-1.3,1.4l2.8,2.6c0.3-0.5,0.6-0.8,0.9-1.1
	c0.3-0.3,0.5-0.5,0.8-0.7c0.3-0.2,0.6-0.4,0.9-0.5c0.6-0.3,1.2-0.5,1.9-0.7c0.7-0.1,1.5-0.2,2.5-0.2c2.6,0,4.5,0.5,5.7,1.5
	c1.2,1,1.8,2.6,1.8,4.7v2.7h-8.6c-2.1,0-3.8,0.3-5.3,1c-1.5,0.7-2.6,1.6-3.4,2.8c-0.8,1.2-1.2,2.7-1.2,4.4c0,2.7,0.9,4.8,2.6,6.2
	c1.7,1.4,4.2,2.1,7.5,2.2c1.1,0,2,0,2.8-0.2c0.8-0.1,1.5-0.3,2.2-0.6c0.4-0.2,0.7-0.3,1-0.5c0.3-0.2,0.6-0.4,1-0.7
	c0.3-0.3,0.7-0.6,1.2-1.1v2.7H731.2L731.2,638.5z M727,628.5c0,1.6-0.2,2.9-0.8,3.9c-0.5,1-1.3,1.7-2.4,2.2
	c-1.1,0.5-2.5,0.7-4.3,0.7c-2.4,0-4.1-0.4-5.2-1.1c-1.1-0.8-1.6-2-1.6-3.7c0-1.7,0.5-2.9,1.6-3.8c1.1-0.8,2.6-1.3,4.8-1.3h8V628.5
	L727,628.5z M759.5,634.7l-2.8-2.7c-0.5,0.5-0.9,0.9-1.3,1.3c-0.4,0.3-0.7,0.6-1,0.8c-0.3,0.2-0.7,0.4-1,0.6
	c-0.5,0.2-0.9,0.3-1.5,0.4c-0.5,0.1-1.1,0.1-1.7,0.1c-2.8,0-4.9-0.9-6.3-2.7c-1.4-1.8-2.1-4.5-2.1-8.1c0-3.6,0.7-6.3,2.2-8.1
	c1.4-1.8,3.6-2.7,6.4-2.7c0.6,0,1.2,0.1,1.7,0.2c0.5,0.1,1,0.3,1.5,0.5c0.4,0.1,0.7,0.3,1,0.5c0.3,0.2,0.6,0.5,1,0.8
	c0.3,0.3,0.8,0.7,1.2,1.2l2.8-2.7c-0.6-0.6-1.2-1.2-1.6-1.6c-0.5-0.4-0.9-0.8-1.3-1c-0.4-0.3-0.9-0.5-1.4-0.7
	c-0.7-0.3-1.4-0.5-2.2-0.7c-0.8-0.1-1.6-0.2-2.6-0.2c-2.7,0-5,0.6-6.9,1.8c-1.9,1.2-3.4,2.8-4.4,5c-1,2.2-1.5,4.8-1.5,7.8
	c0,3,0.5,5.6,1.5,7.8c1,2.2,2.5,3.8,4.4,5c1.9,1.2,4.2,1.8,6.9,1.8c0.9,0,1.8-0.1,2.6-0.2c0.8-0.1,1.5-0.4,2.2-0.6
	c0.5-0.2,1-0.5,1.4-0.7c0.4-0.3,0.9-0.6,1.3-1C758.4,635.8,758.9,635.3,759.5,634.7L759.5,634.7z M784,613.7v-3.6h-23.2v3.6h9.8
	v24.8h4.2v-24.8H784L784,613.7z M809.7,630.7c0-1.7-0.5-3.2-1.3-4.3c-0.9-1.1-2.1-2-3.6-2.6c1.5-0.5,2.6-1.3,3.3-2.4
	c0.8-1,1.2-2.4,1.2-3.9c0-1.5-0.4-2.8-1-3.9c-0.7-1.1-1.7-2-2.9-2.6c-1.3-0.6-2.7-0.9-4.4-0.9h-13.2v28.4h13.5c1.8,0,3.3-0.3,4.6-1
	c1.3-0.6,2.2-1.5,2.9-2.7C809.3,633.7,809.6,632.3,809.7,630.7L809.7,630.7z M805.1,617.9c0,1.4-0.4,2.4-1.3,3.2
	c-0.8,0.7-2.1,1.1-3.7,1.1h-8.3v-8.5h8.3c1.6,0,2.9,0.4,3.7,1.1C804.6,615.5,805.1,616.5,805.1,617.9L805.1,617.9z M805.6,630.3
	c0,1-0.2,1.8-0.6,2.5c-0.4,0.7-1,1.2-1.8,1.6c-0.8,0.4-1.7,0.6-2.8,0.6h-8.7v-9.4h8.7c1.1,0,2,0.2,2.8,0.6c0.8,0.4,1.3,0.9,1.8,1.6
	C805.3,628.5,805.6,629.3,805.6,630.3L805.6,630.3z M836.6,610.1h-4.5l-7.7,22.8l-7.8-22.8H812l10.2,27.9l-2,5.5
	c-0.3,0.9-0.7,1.7-1.1,2.2c-0.4,0.5-0.9,0.9-1.4,1.1c-0.6,0.2-1.3,0.3-2.2,0.3h-1.3v3.7h1.8c1.9,0,3.5-0.4,4.7-1.3
	c1.2-0.9,2.2-2.2,2.8-4L836.6,610.1L836.6,610.1z M860.2,597.9h-3.7c-0.1,1.4-0.6,2.5-1.4,3.2c-0.8,0.7-1.9,1.1-3.3,1.1
	c-1.4,0-2.5-0.4-3.3-1.1c-0.8-0.7-1.3-1.8-1.4-3.2h-3.7c0.1,1.7,0.5,3.1,1.3,4.2c0.7,1.1,1.7,1.9,2.9,2.4c1.2,0.5,2.6,0.7,4.2,0.7
	c1.6,0,3-0.2,4.2-0.7c1.2-0.5,2.2-1.3,2.9-2.4C859.6,601,860.1,599.6,860.2,597.9L860.2,597.9z M863.2,638.5v-28.4H859L844.4,632
	v-21.9h-4.1v28.4h4.1l14.6-22v22H863.2z"/>
<path fill-rule="evenodd" clip-rule="evenodd" fill="#FFFFFF" d="M100,348.3v8.2h-4.7H46.8v45.9h-8.2v-54.1h56.8H100L100,348.3z
	 M336.6,348.3v54.1h-8.2v-45.9l0,0h-48.2v-8.2H336.6L336.6,348.3z M336.6,582.5v54.3h-56.4v-8.2h48.2v-46.1H336.6L336.6,582.5z
	 M100,636.8H38.6v-54.3h8.2v46.1H100V636.8z"/>
</svg>
