<?xml version="1.0" encoding="utf-8"?>
<!-- Generator: Adobe Illustrator 21.0.2, SVG Export Plug-In . SVG Version: 6.00 Build 0)  -->
<svg version="1.1" id="Layer_1" xmlns="http://www.w3.org/2000/svg" xmlns:xlink="http://www.w3.org/1999/xlink" x="0px" y="0px"
	 viewBox="0 0 1000 1000" enable-background="new 0 0 1000 1000" xml:space="preserve">
<g>
	<path fill-rule="evenodd" clip-rule="evenodd" fill="#FFFFFF" d="M389.8,321.4v354.5H23.5V321.4H389.8L389.8,321.4z M379.7,331.5
		L379.7,331.5h-346v334.4h346V331.5z"/>
</g>
<polygon fill-rule="evenodd" clip-rule="evenodd" fill="#6BBD47" points="167.8,609.4 250.9,609.4 167.8,546.3 "/>
<polygon fill-rule="evenodd" clip-rule="evenodd" fill="#6BBD47" points="98.6,457.1 167.8,457.1 250.9,520.2 250.9,457.1 
	320.1,457.1 320.1,387.9 98.6,387.9 "/>
<g>
	<polygon fill-rule="evenodd" clip-rule="evenodd" fill="#FFFFFF" points="504.8,331.4 504.8,425.3 493.7,425.3 493.7,331.4 
		463.7,331.4 463.7,321.4 534.8,321.4 534.8,331.4 	"/>
	<polygon fill-rule="evenodd" clip-rule="evenodd" fill="#FFFFFF" points="554.2,425.3 554.2,321.4 618.7,321.4 618.7,331.4 
		565.3,331.4 565.3,368 610.8,368 610.8,377.9 565.3,377.9 565.3,415.4 618.7,415.4 618.7,425.3 	"/>
	<polygon fill-rule="evenodd" clip-rule="evenodd" fill="#FFFFFF" points="707.9,425.3 652.8,342 652.8,425.3 641.7,425.3 
		641.7,321.4 652.2,321.4 707.3,404.4 707.3,321.4 718.4,321.4 718.4,425.3 	"/>
	<path fill-rule="evenodd" clip-rule="evenodd" fill="#FFFFFF" d="M817.1,387.3c0,12.3-2.6,20-8.9,26.8c-7.1,7.7-16.8,12-27.4,12
		c-10.2,0-19.5-3.8-26.5-10.8c-9.8-9.8-9.8-21.6-9.8-42c0-19.8,0-32.2,9.8-42c7.1-7.1,16.2-10.8,26.8-10.8c13.7,0,21.1,5,30.8,14.1
		l-7.4,7.4c-6.9-6.9-12.8-11.7-23.2-11.7c-7.1,0-13.6,2.6-18.4,7.4c-7.6,7.7-7.3,20.3-7.3,35.4v3.9c0,19.1,1.5,25.8,7.3,31.6
		c4.7,4.7,11.1,7.3,17.9,7.3c7.7,0,14.9-3.2,19.5-8.9c4.1-4.8,5.7-10.5,5.7-18.9v-7.7h-25.2v-9.8h36.3V387.3z"/>
	<path fill-rule="evenodd" clip-rule="evenodd" fill="#FFFFFF" d="M902.1,425.3l-23.6-46.1h-24.9v46.1h-11.1V321.4h39.8
		c18.5,0,30.8,11.4,30.8,28.9c0,9.5-3.5,17.1-10.2,22.3c-3.4,2.6-6,3.8-12.4,5.5l24.6,47.1H902.1L902.1,425.3z M881.2,369.4
		L881.2,369.4c13,0,20.7-7,20.7-19c0-12-7.7-19.1-20.7-19.1h-27.7v38.1H881.2z"/>
	<rect x="938.1" y="321.4" fill-rule="evenodd" clip-rule="evenodd" fill="#FFFFFF" width="11.1" height="103.8"/>
	<polygon fill-rule="evenodd" clip-rule="evenodd" fill="#FFFFFF" points="560.9,552.1 505.8,468.8 505.8,552.1 494.7,552.1 
		494.7,448.2 505.2,448.2 560.3,531.2 560.3,448.2 571.4,448.2 571.4,552.1 	"/>
	<polygon fill-rule="evenodd" clip-rule="evenodd" fill="#FFFFFF" points="601.5,552.1 601.5,448.2 665.9,448.2 665.9,458.2 
		612.5,458.2 612.5,494.8 658,494.8 658,504.7 612.5,504.7 612.5,542.1 665.9,542.1 665.9,552.1 	"/>
	<polygon fill-rule="evenodd" clip-rule="evenodd" fill="#FFFFFF" points="769.6,552.1 759.2,552.1 736.2,468.9 713.1,552.1 
		702.8,552.1 676.2,448.2 688.1,448.2 708.3,531.9 731.2,448.2 741.1,448.2 764,531.9 784.3,448.2 796.1,448.2 	"/>
	<path fill-rule="evenodd" clip-rule="evenodd" fill="#FFFFFF" d="M854,459.3c-3.9-1.6-8.6-2.3-13.3-2.3c-14.1,0-22.5,7.1-22.5,19.4
		c0,9.8,6.1,15.6,18.7,17.5l11.4,1.7c9.5,1.5,14.4,3.4,19,7.3c5.8,5,8.7,12,8.7,20.6c0,18.4-14,29.5-37.2,29.5
		c-7.1,0-14-1.3-19.7-3.6c-5.4-2.2-8.3-4.2-14.6-10.1l7.6-7.6c5.4,5.1,7.9,6.7,12.4,8.6c4.4,1.8,9.5,2.8,15.3,2.8
		c15.9,0,25.1-7.1,25.1-19.4c0-5.5-1.6-9.9-5-12.8c-3.1-2.8-5.7-3.8-13.6-5l-12.1-1.9c-17.9-2.8-27-12-27-27.1
		c0-18.4,12.8-29.5,34.1-29.5c6,0,11.8,1,16.6,2.9c4.8,1.8,7.6,3.5,13.4,8.5l-7.1,7.1C859.8,462.1,857.8,460.8,854,459.3z"/>
</g>
<g>
	<g>
		<path fill-rule="evenodd" clip-rule="evenodd" fill="#FFFFFF" d="M513.5,618.5v-2.6c-1.3,1.3-2,1.8-3.1,2.2
			c-1.3,0.6-2.7,0.7-4.8,0.7c-6.3,0-9.7-2.8-9.7-8.1c0-5,3.6-7.9,9.5-7.9h8.2v-2.6c0-4.2-2.2-6-7.2-6c-1.8,0-3.1,0.3-4.2,0.8
			c-0.9,0.4-1.5,0.9-2.5,2.3l-2.7-2.5c1.4-1.7,2.1-2.3,3.4-2.9c1.6-0.8,3.5-1.1,6.1-1.1c7.3,0,11.1,3.1,11.1,9.1v18.6H513.5
			L513.5,618.5z M505.9,605.9L505.9,605.9c-4.1,0-6.1,1.6-6.1,4.8c0,3.3,2,4.7,6.6,4.7c5.1,0,7.2-1.9,7.2-6.6v-2.9H505.9z"/>
		<polygon fill-rule="evenodd" clip-rule="evenodd" fill="#FFFFFF" points="544,618.5 535.1,605.3 530,611.1 530,618.5 526,618.5 
			526,591.2 530,591.2 530,605.9 542.8,591.2 547.7,591.2 537.8,602.4 549,618.5 		"/>
		<polygon fill-rule="evenodd" clip-rule="evenodd" fill="#FFFFFF" points="563.1,594.6 563.1,618.5 559.1,618.5 559.1,594.6 
			549.7,594.6 549.7,591.2 572.1,591.2 572.1,594.6 		"/>
		<path fill-rule="evenodd" clip-rule="evenodd" fill="#FFFFFF" d="M583,625.1c-1.3,3.5-3.6,5.1-7.3,5.1H574v-3.6h1.2
			c2.6,0,3.5-0.7,4.5-3.4l1.9-5.3l-9.8-26.8h4.3l7.5,22l7.5-22h4.3L583,625.1z"/>
		<path fill-rule="evenodd" clip-rule="evenodd" fill="#FFFFFF" d="M614.5,618.5v-2.6c-1.3,1.3-2,1.8-3.1,2.2
			c-1.3,0.6-2.7,0.7-4.8,0.7c-6.3,0-9.7-2.8-9.7-8.1c0-5,3.6-7.9,9.5-7.9h8.2v-2.6c0-4.2-2.2-6-7.2-6c-1.8,0-3.1,0.3-4.2,0.8
			c-0.9,0.4-1.5,0.9-2.5,2.3l-2.7-2.5c1.4-1.7,2.1-2.3,3.4-2.9c1.6-0.8,3.5-1.1,6.1-1.1c7.3,0,11.1,3.1,11.1,9.1v18.6H614.5
			L614.5,618.5z M606.8,605.9L606.8,605.9c-4.1,0-6.1,1.6-6.1,4.8c0,3.3,2,4.7,6.6,4.7c5.1,0,7.2-1.9,7.2-6.6v-2.9H606.8z"/>
		<path fill-rule="evenodd" clip-rule="evenodd" fill="#FFFFFF" d="M644,618.5v-23.9h-9.8l-0.3,12.7c-0.2,8.2-3.7,11.2-8.6,11.2H623
			v-3.5h1.3c2.4,0,5.5-1.1,5.7-8.9l0.4-15H648v27.4H644z"/>
		<path fill-rule="evenodd" clip-rule="evenodd" fill="#FFFFFF" d="M668.9,618.5h-12.2v-27.4h3.9V602h8.2c5.2,0,8.7,3.3,8.7,8.3
			C677.6,615.3,674.2,618.5,668.9,618.5L668.9,618.5z M668.5,605.5L668.5,605.5h-7.8v9.6h7.8c3.3,0,5.1-1.7,5.1-4.8
			C673.6,607.3,671.8,605.5,668.5,605.5z"/>
		<polygon fill-rule="evenodd" clip-rule="evenodd" fill="#FFFFFF" points="700.7,618.5 700.7,606.1 687.4,606.1 687.4,618.5 
			683.5,618.5 683.5,591.2 687.4,591.2 687.4,602.7 700.7,602.7 700.7,591.2 704.7,591.2 704.7,618.5 		"/>
		<path fill-rule="evenodd" clip-rule="evenodd" fill="#FFFFFF" d="M725.5,618.5h-12.2v-27.4h3.9V602h8.2c5.2,0,8.7,3.3,8.7,8.3
			C734.2,615.3,730.7,618.5,725.5,618.5L725.5,618.5z M725.1,605.5L725.1,605.5h-7.8v9.6h7.8c3.3,0,5.1-1.7,5.1-4.8
			C730.2,607.3,728.4,605.5,725.1,605.5L725.1,605.5z M738.6,618.5L738.6,618.5v-27.4h4v27.4H738.6z"/>
		<path fill-rule="evenodd" clip-rule="evenodd" fill="#FFFFFF" d="M754.3,605.9c0.1,2.5,0.3,3.6,0.8,5c1.3,3.1,3.7,4.5,7.5,4.5
			c1.3,0,2.5-0.3,3.5-0.7c1.2-0.5,1.9-1,3.4-2.4l2.7,2.4c-2,1.9-2.9,2.6-4.6,3.3c-1.5,0.6-3.3,0.9-5.3,0.9
			c-7.9,0-12.1-4.9-12.1-14.2c0-8.6,4.3-13.8,11.2-13.8c7,0,11.2,5.1,11.2,13.2v1.8H754.3L754.3,605.9z M768.3,599.3L768.3,599.3
			c-0.9-3.2-3.5-5.1-6.7-5.1c-2.9,0-5.3,1.6-6.4,4.1c-0.5,1.2-0.7,2.1-0.8,4.6h14.5C768.7,600.8,768.6,600.3,768.3,599.3z"/>
		<polygon fill-rule="evenodd" clip-rule="evenodd" fill="#FFFFFF" points="809.6,618.5 809.6,606.1 796.3,606.1 796.3,618.5 
			792.4,618.5 792.4,591.2 796.3,591.2 796.3,602.7 809.6,602.7 809.6,591.2 813.6,591.2 813.6,618.5 		"/>
		<path fill-rule="evenodd" clip-rule="evenodd" fill="#FFFFFF" d="M839.7,615.8c-2,2-4.7,3.1-7.8,3.1s-5.8-1.1-7.8-3.1
			c-2.3-2.4-3.3-5.6-3.3-10.9c0-5.3,1-8.5,3.3-10.9c2-2,4.7-3.1,7.8-3.1c3.1,0,5.8,1.1,7.8,3.1c2.3,2.3,3.3,5.6,3.3,10.7
			C843.1,610.1,842.1,613.3,839.7,615.8L839.7,615.8z M836.9,596.4L836.9,596.4c-1.2-1.3-3.1-2-5-2c-1.9,0-3.7,0.7-5,2
			c-1.6,1.6-2.2,4-2.2,8.5c0,4.5,0.6,6.8,2.2,8.5c1.2,1.3,3,2,5,2c1.9,0,3.8-0.7,5-2c1.6-1.6,2.2-4,2.2-8.3
			C839.1,600.4,838.5,598,836.9,596.4z"/>
		<path fill-rule="evenodd" clip-rule="evenodd" fill="#FFFFFF" d="M863.3,618.5h-13v-27.4H863c4.8,0,8.1,2.8,8.1,7.2
			c0,2.9-1.6,5-4.3,6c2.9,1.1,4.8,3.3,4.8,6.6C871.5,615.6,868.4,618.5,863.3,618.5L863.3,618.5z M862.3,594.6L862.3,594.6h-8v8.2h8
			c3.2,0,4.8-1.5,4.8-4.1C867.1,596.1,865.4,594.6,862.3,594.6L862.3,594.6z M862.6,606.1L862.6,606.1h-8.3v9h8.3
			c3.1,0,4.9-1.8,4.9-4.5C867.5,607.9,865.7,606.1,862.6,606.1z"/>
		<path fill-rule="evenodd" clip-rule="evenodd" fill="#FFFFFF" d="M896.4,615.8c-2,2-4.7,3.1-7.8,3.1s-5.8-1.1-7.8-3.1
			c-2.3-2.4-3.3-5.6-3.3-10.9c0-5.3,1-8.5,3.3-10.9c2-2,4.7-3.1,7.8-3.1c3.1,0,5.8,1.1,7.8,3.1c2.3,2.3,3.3,5.6,3.3,10.7
			C899.7,610.1,898.8,613.3,896.4,615.8L896.4,615.8z M893.5,596.4L893.5,596.4c-1.2-1.3-3.1-2-5-2c-1.9,0-3.7,0.7-4.9,2
			c-1.6,1.6-2.2,4-2.2,8.5c0,4.5,0.6,6.8,2.2,8.5c1.2,1.3,3,2,4.9,2c1.9,0,3.8-0.7,5-2c1.6-1.6,2.2-4,2.2-8.3
			C895.7,600.4,895.2,598,893.5,596.4z"/>
		<path fill-rule="evenodd" clip-rule="evenodd" fill="#FFFFFF" d="M922.3,618c-1.3,0.6-2.8,0.8-4.6,0.8c-7.7,0-12.3-5.3-12.3-14
			c0-8.7,4.6-14,12.3-14c1.8,0,3.3,0.3,4.6,0.8c1.5,0.7,2.4,1.3,4.2,3.2l-2.7,2.6c-1.4-1.5-2.1-2-3.1-2.4c-0.9-0.4-1.9-0.6-3.1-0.6
			c-5.4,0-8.2,3.6-8.2,10.4c0,6.9,2.8,10.4,8.2,10.4c1.2,0,2.1-0.2,3-0.6c1.1-0.5,1.8-1.1,3.2-2.6l2.7,2.6
			C924.7,616.7,923.8,617.4,922.3,618z"/>
		<polygon fill-rule="evenodd" clip-rule="evenodd" fill="#FFFFFF" points="941.7,594.6 941.7,618.5 937.7,618.5 937.7,594.6 
			928.3,594.6 928.3,591.2 950.7,591.2 950.7,594.6 		"/>
		<polygon fill-rule="evenodd" clip-rule="evenodd" fill="#FFFFFF" points="972.9,618.5 972.9,597.4 958.9,618.5 954.9,618.5 
			954.9,591.2 958.9,591.2 958.9,612.3 972.9,591.2 976.9,591.2 976.9,618.5 		"/>
		<path fill-rule="evenodd" clip-rule="evenodd" fill="#FFFFFF" d="M508.9,666.9h-13v-27.4h12.7c4.8,0,8.1,2.8,8.1,7.2
			c0,2.9-1.6,5-4.3,6c2.9,1.1,4.8,3.3,4.8,6.6C517,664,514,666.9,508.9,666.9L508.9,666.9z M507.8,643L507.8,643h-8v8.2h8
			c3.2,0,4.8-1.5,4.8-4.1C512.6,644.4,510.9,643,507.8,643L507.8,643z M508.1,654.4L508.1,654.4h-8.3v9h8.3c3.1,0,5-1.8,5-4.5
			C513.1,656.2,511.2,654.4,508.1,654.4z"/>
		<path fill-rule="evenodd" clip-rule="evenodd" fill="#FFFFFF" d="M554,666.9V643h-9.8l-0.3,12.7c-0.2,8.2-3.7,11.2-8.6,11.2H533
			v-3.4h1.3c2.4,0,5.4-1.1,5.7-8.9l0.4-15H558v27.4H554z"/>
		<path fill-rule="evenodd" clip-rule="evenodd" fill="#FFFFFF" d="M595.2,664.1c-1.9,2-4.7,3.1-7.8,3.1c-3,0-5.6-1-7.5-2.8
			c-2.3-2.2-3.5-5.3-3.6-9.8h-5.6v12.3h-3.9v-27.4h3.9v11.6h5.6c0.2-4.2,1.4-7.1,3.6-9.1c1.9-1.8,4.6-2.8,7.6-2.8
			c3.6,0,6.4,1.3,8.3,3.7c1.9,2.3,2.8,5.6,2.8,10.2C598.6,658.5,597.6,661.7,595.2,664.1L595.2,664.1z M582.3,644.9L582.3,644.9
			c-1.6,1.7-2.1,3.9-2.1,8.3c0,4.4,0.5,6.6,2.1,8.3c1.3,1.4,3.1,2.2,5.1,2.2c2,0,3.8-0.8,5.1-2.2c1.5-1.7,2.1-4,2.1-8.2
			c0-4.5-0.6-6.7-2.1-8.4c-1.2-1.4-3.1-2.1-5.1-2.1C585.4,642.7,583.6,643.5,582.3,644.9z"/>
		<path fill-rule="evenodd" clip-rule="evenodd" fill="#FFFFFF" d="M623.4,664.2c-1.9,1.9-4.6,3-7.7,3c-5.1,0-8.5-2.8-9.9-7.4
			c-0.9-3-1.1-8.1-1.1-12c0-8.3,0.2-13.6,4.1-17.2c4.2-3.8,11.5-3.3,15.7-3.8v3.7c-3.5,0.4-10.3,0-13.5,2.9
			c-3.1,2.9-2.9,8.4-3.1,10.6h0.2c1.3-2.7,5-4.3,8-4.3c7.1,0,10.5,5.1,10.5,13.6C626.6,658.8,625.7,661.9,623.4,664.2L623.4,664.2z
			 M610.8,645.4L610.8,645.4c-1.4,1.6-2,3.8-2,8.1c0,4.3,0.5,6.5,2,8.1c1.2,1.4,3.1,2.1,5,2.1c1.9,0,3.7-0.7,4.9-2.1
			c1.4-1.6,2-3.8,2-8c0-4.4-0.5-6.6-2-8.2c-1.2-1.3-3.1-2.1-4.9-2.1C613.9,643.3,612,644,610.8,645.4z"/>
		<path fill-rule="evenodd" clip-rule="evenodd" fill="#FFFFFF" d="M651.4,664.1c-2,2-4.7,3.1-7.8,3.1c-3.1,0-5.8-1.1-7.8-3.1
			c-2.3-2.4-3.3-5.6-3.3-10.9c0-5.3,1-8.5,3.3-10.9c2-2,4.7-3.1,7.8-3.1c3.1,0,5.8,1.1,7.8,3.1c2.3,2.3,3.3,5.6,3.3,10.7
			C654.7,658.5,653.8,661.6,651.4,664.1L651.4,664.1z M648.5,644.8L648.5,644.8c-1.2-1.3-3.1-2-5-2c-1.9,0-3.7,0.7-4.9,2
			c-1.6,1.6-2.2,4-2.2,8.4c0,4.5,0.6,6.8,2.2,8.5c1.2,1.3,3,2,4.9,2c1.9,0,3.8-0.7,5-2c1.6-1.6,2.2-3.9,2.2-8.3
			C650.7,648.7,650.1,646.4,648.5,644.8z"/>
		<path fill-rule="evenodd" clip-rule="evenodd" fill="#FFFFFF" d="M664.4,654.3c0.1,2.5,0.3,3.6,0.8,5c1.3,3.1,3.7,4.5,7.4,4.5
			c1.3,0,2.5-0.3,3.5-0.7c1.2-0.5,1.9-1,3.4-2.4l2.7,2.4c-2,1.9-2.9,2.6-4.6,3.3c-1.5,0.6-3.3,0.9-5.3,0.9
			c-7.9,0-12.1-4.9-12.1-14.2c0-8.6,4.3-13.8,11.2-13.8c7,0,11.2,5.1,11.2,13.2v1.8H664.4L664.4,654.3z M678.3,647.6L678.3,647.6
			c-0.9-3.2-3.5-5.1-6.7-5.1c-2.9,0-5.3,1.6-6.4,4.1c-0.6,1.2-0.7,2.1-0.8,4.6h14.5C678.7,649.1,678.7,648.6,678.3,647.6z"/>
		<path fill-rule="evenodd" clip-rule="evenodd" fill="#FFFFFF" d="M715.5,666.9h-13v-27.4h12.7c4.8,0,8.1,2.8,8.1,7.2
			c0,2.9-1.6,5-4.3,6c2.9,1.1,4.8,3.3,4.8,6.6C723.6,664,720.6,666.9,715.5,666.9L715.5,666.9z M714.4,643L714.4,643h-8v8.2h8
			c3.2,0,4.8-1.5,4.8-4.1C719.2,644.4,717.5,643,714.4,643L714.4,643z M714.7,654.4L714.7,654.4h-8.3v9h8.3c3.1,0,5-1.8,5-4.5
			C719.7,656.2,717.8,654.4,714.7,654.4z"/>
		<path fill-rule="evenodd" clip-rule="evenodd" fill="#FFFFFF" d="M738.1,640.1c1.2-0.6,2.7-0.9,4.4-0.9c7.1,0,10.2,4.4,10.2,14.1
			c0,9.5-3.2,14-10.2,14c-1.7,0-3.1-0.3-4.4-0.9c-1.2-0.6-1.8-1.1-3.2-2.7v15.5h-4v-39.6h4v3.2C736.2,641.2,736.9,640.7,738.1,640.1
			L738.1,640.1z M741.8,642.7L741.8,642.7c-4.8,0-6.8,3.2-6.8,10.4c0,7.3,2.1,10.5,6.9,10.5c4.8,0,6.8-3.1,6.8-10.4
			C748.7,645.8,746.7,642.7,741.8,642.7z"/>
		<path fill-rule="evenodd" clip-rule="evenodd" fill="#FFFFFF" d="M762.4,654.3c0.1,2.5,0.3,3.6,0.8,5c1.3,3.1,3.7,4.5,7.5,4.5
			c1.3,0,2.5-0.3,3.5-0.7c1.2-0.5,1.9-1,3.4-2.4l2.7,2.4c-2,1.9-2.9,2.6-4.6,3.3c-1.5,0.6-3.3,0.9-5.3,0.9
			c-7.9,0-12.1-4.9-12.1-14.2c0-8.6,4.3-13.8,11.2-13.8c7,0,11.2,5.1,11.2,13.2v1.8H762.4L762.4,654.3z M776.3,647.6L776.3,647.6
			c-0.9-3.2-3.5-5.1-6.7-5.1c-2.9,0-5.3,1.6-6.4,4.1c-0.6,1.2-0.7,2.1-0.8,4.6h14.5C776.7,649.1,776.7,648.6,776.3,647.6z"/>
		<polygon fill-rule="evenodd" clip-rule="evenodd" fill="#FFFFFF" points="810.3,666.9 810.3,647.4 802.7,662.5 799.7,662.5 
			791.9,647.4 791.9,666.9 788,666.9 788,639.5 791.9,639.5 801.2,657.9 810.4,639.5 814.3,639.5 814.3,666.9 		"/>
		<path fill-rule="evenodd" clip-rule="evenodd" fill="#FFFFFF" d="M838.2,666.9v-10.7c-0.3,0-6.6,0-6.6,0l-5.9,10.7H821l6.6-11.2
			c-3.9-0.8-6.4-3.8-6.4-7.9c0-4.9,3.4-8.2,8.6-8.2h12.5v27.4H838.2L838.2,666.9z M830.3,643L830.3,643c-3.4,0-5.2,1.8-5.2,4.9
			c0,3.1,1.8,4.8,5.2,4.8h7.9V643H830.3z"/>
	</g>
</g>
</svg>
