<?xml version="1.0" encoding="UTF-8" standalone="no"?>
<svg width="12px" height="12px" viewBox="0 0 12 12" version="1.1" xmlns="http://www.w3.org/2000/svg" xmlns:xlink="http://www.w3.org/1999/xlink" xmlns:sketch="http://www.bohemiancoding.com/sketch/ns">
    <!-- Generator: Sketch 3.4.2 (15857) - http://www.bohemiancoding.com/sketch -->
    <title>icon_star copy 4</title>
    <desc>Created with Sketch.</desc>
    <defs></defs>
    <g id="index" stroke="none" stroke-width="1" fill="none" fill-rule="evenodd" sketch:type="MSPage">
        <g id="index_320" sketch:type="MSArtboardGroup" transform="translate(-46.000000, -620.000000)" fill="#E35437">
            <g id="watch_online" sketch:type="MSLayerGroup" transform="translate(16.000000, 436.000000)">
                <g id="1" transform="translate(0.000000, 28.000000)" sketch:type="MSShapeGroup">
                    <g id="rating" transform="translate(30.000000, 155.000000)">
                        <path d="M6,10.0753696 L9.708,12.2839506 L8.72698824,8.1186289 L12,5.3174321 L7.68541176,4.95179085 L6,1.02469136 L4.31461176,4.95179085 L0,5.3174321 L3.27301176,8.1186289 L2.292,12.2839506 L6,10.0753696 Z" id="icon_star-copy-4"></path>
                    </g>
                </g>
            </g>
        </g>
    </g>
</svg>