<?xml version="1.0" encoding="UTF-8" standalone="no"?>
<svg width="80px" height="81px" viewBox="0 0 80 81" version="1.1" xmlns="http://www.w3.org/2000/svg" xmlns:xlink="http://www.w3.org/1999/xlink" xmlns:sketch="http://www.bohemiancoding.com/sketch/ns">
    <!-- Generator: Sketch 3.4.2 (15857) - http://www.bohemiancoding.com/sketch -->
    <title>placeholder</title>
    <desc>Created with Sketch.</desc>
    <defs></defs>
    <g id="index" stroke="none" stroke-width="1" fill="none" fill-rule="evenodd" sketch:type="MSPage">
        <g id="index_1920" sketch:type="MSArtboardGroup" transform="translate(-639.000000, -2872.000000)">
            <g id="faces" sketch:type="MSLayerGroup" transform="translate(0.000000, 2797.000000)">
                <g id="2" transform="translate(626.000000, 75.500000)" sketch:type="MSShapeGroup">
                    <g id="placeholder" transform="translate(13.000000, 0.000000)">
                        <circle id="bg" fill="#D5E9F0" cx="40" cy="40" r="40"></circle>
                        <g id="icon_profile" transform="translate(23.750000, 20.000000)" fill="#F1F7F9">
                            <path d="M16.130026,21.4455523 C22.0587704,21.4452234 24.1918955,15.4799168 24.7504464,10.5798225 C25.438357,4.54320356 22.5978781,0 16.130026,0 C9.66322133,0 6.82117125,4.54287462 7.50960556,10.5797567 C8.06868021,15.4797853 10.2011507,21.4460128 16.130026,21.4455523 L16.130026,21.4455523 Z" id="Shape"></path>
                            <path d="M31.5509938,29.9666575 C31.1509346,27.6990687 30.6417446,24.3746884 28.6716284,22.8969302 C27.5322683,22.0424974 26.0568743,21.7621819 24.7525413,21.2469434 C24.1177232,20.9962975 23.5490251,20.747362 23.0152856,20.4640203 C21.2138083,22.4491884 18.8647783,23.4876914 16.1292404,23.4878229 C13.3944881,23.4878229 11.04572,22.44932 9.24443907,20.4640203 C8.71069954,20.7474278 8.14200148,20.996429 7.50718334,21.2469434 C6.20285041,21.7621819 4.72745634,22.0424316 3.58822718,22.8969302 C1.61798004,24.3746884 1.1088555,27.6990687 0.708861815,29.9666575 C0.378588794,31.8385416 0.156791967,33.7486475 0.092046671,35.6501354 C0.0419001628,37.1228939 0.765554865,37.3293314 1.99165663,37.7739811 C3.52701702,38.3304019 5.11213112,38.7434742 6.70785062,39.0820764 C9.78976598,39.7360582 12.9665407,40.2387315 16.1296987,40.2612305 C19.2928566,40.2386658 22.4696314,39.7360582 25.5515467,39.0820764 C27.1472662,38.7436058 28.7325113,38.3305334 30.2677407,37.7739811 C31.4943007,37.3294629 32.21789,37.1230254 32.1677435,35.6501354 C32.1029327,33.7486475 31.8812013,31.8385416 31.5509938,29.9666575 Z" id="Shape"></path>
                        </g>
                    </g>
                </g>
            </g>
        </g>
    </g>
</svg>