<?xml version="1.0" encoding="UTF-8" standalone="no"?>
<svg width="25px" height="21px" viewBox="0 0 25 21" version="1.1" xmlns="http://www.w3.org/2000/svg" xmlns:xlink="http://www.w3.org/1999/xlink" xmlns:sketch="http://www.bohemiancoding.com/sketch/ns">
    <!-- Generator: Sketch 3.4.2 (15857) - http://www.bohemiancoding.com/sketch -->
    <title>Shape</title>
    <desc>Created with Sketch.</desc>
    <defs></defs>
    <g id="index" stroke="none" stroke-width="1" fill="none" fill-rule="evenodd" sketch:type="MSPage">
        <g id="category_news_320" sketch:type="MSArtboardGroup" transform="translate(-16.000000, -2386.000000)" fill="#969696">
            <g id="discussing_now" sketch:type="MSLayerGroup" transform="translate(0.000000, 2241.000000)">
                <g id="1" transform="translate(16.000000, 60.000000)" sketch:type="MSShapeGroup">
                    <path d="M22.4738546,85 L1.78243197,85 C0.799448846,85 0,85.7772419 0,86.7321162 L0,100.855896 C0,101.81077 0.799448846,102.588012 1.78243197,102.588012 L12.9788495,102.588012 L17.159628,105.623837 C17.5018946,105.873005 17.8557354,106 18.2079228,106 C18.8602136,106 19.5629349,105.516133 19.5612814,104.454358 L19.5612814,102.588012 L22.4738546,102.588012 C23.456011,102.588012 24.2546331,101.81077 24.2546331,100.855896 L24.2546331,86.7321162 C24.2546331,85.7772419 23.4551843,85 22.4738546,85 L22.4738546,85 Z M22.6028247,100.855896 C22.6028247,100.924216 22.546607,100.98048 22.4755081,100.98048 L17.909473,100.98048 L17.909473,104.159375 L13.530279,100.979676 L1.78243197,100.979676 C1.7113331,100.979676 1.6551154,100.923413 1.6551154,100.855092 L1.6551154,86.7313124 C1.6551154,86.6629923 1.7113331,86.6067287 1.78243197,86.6067287 L1.78243197,86.6075324 L22.4746814,86.6075324 C22.5457802,86.6075324 22.6019979,86.6637961 22.6019979,86.7321162 L22.6028247,100.855896 L22.6028247,100.855896 Z M4.55115398,92.3842003 L8.13420599,92.3842003 L8.13420599,95.8669193 L4.55115398,95.8669193 L4.55115398,92.3842003 L4.55115398,92.3842003 Z M10.3382708,92.3842003 L13.9213228,92.3842003 L13.9213228,95.8669193 L10.3382708,95.8669193 L10.3382708,92.3842003 L10.3382708,92.3842003 Z M16.1253875,92.3842003 L19.7084395,92.3842003 L19.7084395,95.8669193 L16.1253875,95.8669193 L16.1253875,92.3842003 L16.1253875,92.3842003 Z" id="Shape"></path>
                </g>
            </g>
        </g>
    </g>
</svg>