<?xml version="1.0" encoding="UTF-8" standalone="no"?>
<svg width="17px" height="31px" viewBox="0 0 17 31" version="1.1" xmlns="http://www.w3.org/2000/svg" xmlns:xlink="http://www.w3.org/1999/xlink" xmlns:sketch="http://www.bohemiancoding.com/sketch/ns">
    <!-- Generator: Sketch 3.4.2 (15857) - http://www.bohemiancoding.com/sketch -->
    <title>Shape</title>
    <desc>Created with Sketch.</desc>
    <defs></defs>
    <g id="index" stroke="none" stroke-width="1" fill="none" fill-rule="evenodd" sketch:type="MSPage">
        <g id="online_watch_320" sketch:type="MSArtboardGroup" transform="translate(-293.000000, -104.000000)" fill="#FFFFFF">
            <g id="movie" sketch:type="MSLayerGroup" transform="translate(-84.000000, 60.000000)">
                <g id="cover" sketch:type="MSShapeGroup">
                    <path d="M393.175227,74.923414 L377.255,59.461237 L393.175227,44 L394,44.8487404 L378.955301,59.461237 L394,74.0740469 L393.175227,74.923414 Z" id="Shape" transform="translate(385.627500, 59.461707) scale(-1, 1) translate(-385.627500, -59.461707) "></path>
                </g>
            </g>
        </g>
    </g>
</svg>