<?xml version="1.0" encoding="UTF-8" standalone="no"?>
<svg width="170px" height="82px" viewBox="0 0 170 82" version="1.1" xmlns="http://www.w3.org/2000/svg" xmlns:xlink="http://www.w3.org/1999/xlink" xmlns:sketch="http://www.bohemiancoding.com/sketch/ns">
    <!-- Generator: Sketch 3.4.2 (15857) - http://www.bohemiancoding.com/sketch -->
    <title>logo</title>
    <desc>Created with Sketch.</desc>
    <defs>
        <linearGradient x1="0.000833324653%" y1="49.9996974%" x2="100.000799%" y2="49.9996974%" id="linearGradient-1">
            <stop stop-color="#5A2012" offset="0%"></stop>
            <stop stop-color="#8C3B28" offset="21.47%"></stop>
            <stop stop-color="#5A2012" offset="38.65%"></stop>
            <stop stop-color="#8C3B28" offset="53.37%"></stop>
            <stop stop-color="#5A2012" offset="69.94%"></stop>
            <stop stop-color="#8C3B28" offset="85.28%"></stop>
            <stop stop-color="#5A2012" offset="100%"></stop>
        </linearGradient>
        <linearGradient x1="0.000425622342%" y1="49.999906%" x2="100.000264%" y2="49.999906%" id="linearGradient-2">
            <stop stop-color="#5A2012" offset="0%"></stop>
            <stop stop-color="#8C3B28" offset="21.47%"></stop>
            <stop stop-color="#5A2012" offset="38.65%"></stop>
            <stop stop-color="#8C3B28" offset="53.37%"></stop>
            <stop stop-color="#5A2012" offset="69.94%"></stop>
            <stop stop-color="#8C3B28" offset="85.28%"></stop>
            <stop stop-color="#5A2012" offset="100%"></stop>
        </linearGradient>
        <linearGradient x1="-0.000601915478%" y1="50.0002268%" x2="99.9994469%" y2="50.0002268%" id="linearGradient-3">
            <stop stop-color="#5A2012" offset="0%"></stop>
            <stop stop-color="#8C3B28" offset="21.47%"></stop>
            <stop stop-color="#5A2012" offset="38.65%"></stop>
            <stop stop-color="#8C3B28" offset="53.37%"></stop>
            <stop stop-color="#5A2012" offset="69.94%"></stop>
            <stop stop-color="#8C3B28" offset="85.28%"></stop>
            <stop stop-color="#5A2012" offset="100%"></stop>
        </linearGradient>
        <linearGradient x1="0.000259301539%" y1="49.9998182%" x2="100.000331%" y2="49.9998182%" id="linearGradient-4">
            <stop stop-color="#5A2012" offset="0%"></stop>
            <stop stop-color="#8C3B28" offset="21.47%"></stop>
            <stop stop-color="#5A2012" offset="38.65%"></stop>
            <stop stop-color="#8C3B28" offset="53.37%"></stop>
            <stop stop-color="#5A2012" offset="69.94%"></stop>
            <stop stop-color="#8C3B28" offset="85.28%"></stop>
            <stop stop-color="#5A2012" offset="100%"></stop>
        </linearGradient>
        <linearGradient x1="0.00131978349%" y1="49.9996792%" x2="100.002135%" y2="49.9996792%" id="linearGradient-5">
            <stop stop-color="#5A2012" offset="0%"></stop>
            <stop stop-color="#8C3B28" offset="21.47%"></stop>
            <stop stop-color="#5A2012" offset="38.65%"></stop>
            <stop stop-color="#8C3B28" offset="53.37%"></stop>
            <stop stop-color="#5A2012" offset="69.94%"></stop>
            <stop stop-color="#8C3B28" offset="85.28%"></stop>
            <stop stop-color="#5A2012" offset="100%"></stop>
        </linearGradient>
        <linearGradient x1="-5.73400558e-05%" y1="50.0000197%" x2="99.9999261%" y2="50.0000197%" id="linearGradient-6">
            <stop stop-color="#5A2012" offset="0%"></stop>
            <stop stop-color="#8C3B28" offset="21.47%"></stop>
            <stop stop-color="#5A2012" offset="38.65%"></stop>
            <stop stop-color="#8C3B28" offset="53.37%"></stop>
            <stop stop-color="#5A2012" offset="69.94%"></stop>
            <stop stop-color="#8C3B28" offset="85.28%"></stop>
            <stop stop-color="#5A2012" offset="100%"></stop>
        </linearGradient>
    </defs>
    <g id="index" stroke="none" stroke-width="1" fill="none" fill-rule="evenodd" sketch:type="MSPage">
        <g id="index_1920" sketch:type="MSArtboardGroup" transform="translate(-460.000000, -113.000000)">
            <g id="header" sketch:type="MSLayerGroup" transform="translate(-2.000000, 113.000000)">
                <g id="logo" transform="translate(462.000000, 0.000000)" sketch:type="MSShapeGroup">
                    <g id="Group">
                        <g id="Page-1">
                            <g id="Group">
                                <g id="Shape" transform="translate(0.944444, 2.827586)" fill="#6B3F13" opacity="0.8">
                                    <g id="Group" transform="translate(0.000000, 7.917241)">
                                        <path d="M53.5821111,6.12304368 C51.6988889,6.88064828 47.2688778,8.09405977 42.7045667,8.68973793 C40.7046111,8.95081839 38.7437556,8.89502069 36.8229444,8.70331034 C38.0082222,7.00958621 39.0603333,5.91531034 41.7506778,3.11731954 L38.1583889,0.105374713 C38.1583889,0.105374713 35.8690556,0.89445977 31.2140778,7.90649655 C27.1569333,7.28178851 23.3000111,6.86858391 19.6563444,8.60547586 C14.3028556,11.1580322 14.4301667,16.4497655 15.7231111,18.5544322 C17.4386,21.3463908 21.1922,21.1267816 21.1922,21.1267816 L23.1203778,16.351931 C23.1203778,16.351931 19.9342,16.0442897 20.9066,14.1251126 C21.8912778,12.1818069 24.6879667,12.1887816 28.3444778,12.6076414 C23.7420111,21.0334713 21.8077889,30.2329287 15.5177889,44.2213747 C15.3260667,44.6481517 15.1258444,45.0587172 14.9197667,45.4581609 C13.8049444,42.8599862 13.2558444,39.3978897 13.6600667,35.0652736 L8.20646667,37.457977 C7.49416667,41.130069 8.23423333,46.7754391 10.7908444,51.1640414 C5.76753333,56.237108 0.0258777778,57.2316644 0.0258777778,57.2316644 L3.0073,62.3923862 C3.0073,62.3923862 8.71212222,61.8411954 14.7531667,55.6182437 C16.1090111,56.5741563 17.6820778,57.2484414 19.4872889,57.5195126 C25.1452667,58.3689195 31.3447889,55.2022115 35.6964111,46.1906943 C40.0438778,37.1786115 40.3910556,28.3684184 35.2289111,25.8861747 C33.2045889,24.9142391 30.9645556,25.0254575 28.7273556,26.0624276 C30.1916222,21.3233931 31.6740222,16.9702299 33.9012111,13.3256598 C33.9057444,13.3184966 33.9099,13.3118989 33.9142444,13.3047356 C36.8788556,13.6317931 40.0465222,13.8108736 43.0942444,13.3194391 C50.1341333,12.1850115 53.7932889,10.5548138 53.7932889,10.5548138 L53.5821111,6.12304368 L53.5821111,6.12304368 L53.5821111,6.12304368 Z M32.1555,32.1019632 C33.5047333,33.0397793 32.9501556,38.8093747 30.6213444,43.6358759 C28.2925333,48.4633195 24.6364,51.1883586 22.9996778,51.3106989 C21.6228667,51.414 20.2222556,51.084869 18.9351667,50.3234943 C19.2900889,49.7756966 19.6414222,49.2033931 19.9884111,48.6048874 C22.8317556,43.7033609 26.3422556,33.783623 26.3422556,33.783623 C26.3422556,33.783623 29.6011556,30.3268046 32.1555,32.1019632 L32.1555,32.1019632 L32.1555,32.1019632 Z" id="Shape"></path>
                                    </g>
                                    <g id="Group" transform="translate(23.611111, 28.841379)">
                                        <path d="M38.6024667,25.5462989 C39.1528889,26.3621517 39.8566889,26.9987356 40.7095222,27.4081701 C44.9370444,29.4440322 51.2606667,25.0959586 54.8302889,17.7042713 C58.3970778,10.3125839 57.8566667,2.67376552 53.6223444,0.637903448 C49.385,-1.39701609 43.0642111,2.94992644 39.4985556,10.3406713 C37.8735444,13.7090805 37.1013667,17.1280092 37.1416,20.0447586 C37.1416,20.0447586 37.0703889,21.3141563 37.5352444,23.0357793 C37.9334222,24.5091402 38.6024667,25.5462989 38.6024667,25.5462989 L38.6024667,25.5462989 L38.6024667,25.5462989 Z M33.6601889,22.6350161 C34.1356222,21.8713793 34.5821556,21.0632552 34.9920444,20.2138483 C38.5588333,12.8221609 38.0182333,5.18353103 33.7841,3.14785747 C32.0372556,2.30881839 28.6586,2.97933333 27.0655111,5.19352184 L28.0800333,2.97386667 L22.2841667,3.70036782 L16.9622222,18.2428322 C15.3655444,22.7545287 14.2711222,26.3365149 11.492,30.9038207 C7.10373333,38.1145425 0.128255556,39.6167448 0.128255556,39.6167448 L3.16162222,44.0575632 C3.16162222,44.0575632 10.8225778,41.8002069 15.7591889,34.0829701 C17.0791444,32.0201517 18.0436111,30.0747724 18.8320333,28.1604966 C19.3688556,28.9224368 20.0475333,29.5232046 20.8718444,29.9181241 C23.5461333,31.2063724 27.0602222,29.9379172 30.1846333,26.960846 C31.5316,25.6077517 31.0637222,26.1074805 32.0489667,24.9824782 C32.8366333,24.0831172 33.6601889,22.6350161 33.6601889,22.6350161 L33.6601889,22.6350161 L33.6601889,22.6350161 Z M23.9346778,23.8201517 C22.7176667,23.2365379 23.2813111,19.5544552 25.1921111,15.5928184 C27.1015889,11.6343862 29.6345889,8.89690575 30.8497111,9.48127356 C32.0652111,10.0658299 31.5017556,13.7471586 29.5919,17.7065333 C27.6816667,21.6666621 25.1477222,24.4048966 23.9346778,23.8201517 L23.9346778,23.8201517 L23.9346778,23.8201517 Z M49.3644111,15.0797057 C47.4539889,19.0390805 44.9200444,21.7771264 43.7073778,21.1925701 C42.4901778,20.6095218 43.0543889,16.9276276 44.9648111,12.9659908 C46.8742889,9.00718161 49.4065333,6.27007816 50.6222222,6.85388046 C51.8373444,7.43843678 51.2740778,11.1205195 49.3644111,15.0797057 L49.3644111,15.0797057 L49.3644111,15.0797057 Z" id="Shape"></path>
                                    </g>
                                    <g id="Group" transform="translate(96.900000, 0.000000)">
                                        <path d="M19.5919333,5.25063908 C14.5623889,10.7093885 13.4570111,15.3238207 13.4570111,15.3238207 L12.7279,16.8243264 C12.7279,16.8243264 11.2337889,17.234892 7.4817,17.5751448 C3.3711,17.9480092 1.92232222,17.1998299 1.92232222,17.1998299 L0.0296555556,22.073646 C0.0296555556,22.073646 4.65006667,24.0293931 10.8461889,22.0280276 L5.66534444,34.8645149 C4.19484444,38.0760874 3.49425556,41.3097149 3.5326,44.0875356 C3.5326,44.0875356 3.41473333,45.0106483 3.81895556,46.7793977 C4.18653333,48.3871632 4.99365556,49.5892644 4.99365556,49.5892644 C5.54407778,50.4051172 6.24787778,51.0417011 7.1009,51.4511356 C11.3280444,53.4868092 17.6516667,49.1389241 21.2214778,41.7470483 C24.7882667,34.3555494 24.2478556,26.716731 20.0135333,24.680869 C18.5725,23.9888644 16.8902556,24.0356138 15.1575778,24.6884092 L16.6305333,20.843646 C16.9969778,20.8061333 17.3955333,20.6745563 17.7538556,20.5377011 C28.3102889,16.5083908 33.6486667,10.7157977 33.9031,5.51718621 C34.3077,-2.75689655 25.0461,-0.668629885 19.5919333,5.25063908 L19.5919333,5.25063908 L19.5919333,5.25063908 Z M17.0130333,30.897223 C18.2281556,31.4815908 17.6648889,35.1636736 15.7552222,39.1230483 C13.8448,43.082423 11.3108556,45.820469 10.0981889,45.2359126 C8.88117778,44.6526759 9.4452,40.9709701 11.3556222,37.0093333 C13.2651,33.0505241 15.7973444,30.3134207 17.0130333,30.897223 L17.0130333,30.897223 L17.0130333,30.897223 Z M24.3179333,12.085669 C22.4080778,13.7166207 19.0626667,14.9928046 19.0626667,14.9928046 L19.4733111,13.9995678 C19.6459556,13.6387678 22.4526556,7.59546207 25.8641778,6.24802299 C28.4156889,5.24045977 28.9970889,8.09047816 24.3179333,12.085669 L24.3179333,12.085669 L24.3179333,12.085669 Z" id="Shape"></path>
                                    </g>
                                    <g id="Group" transform="translate(120.322222, 17.908046)">
                                        <path d="M39.5412444,20.8031172 C38.3242333,20.220069 38.8884444,16.5381747 40.7988667,12.5765379 L45.7067667,0.110087356 L39.2751,0.88691954 L32.7463444,17.8724184 L33.5906778,16.0591816 C31.7968,20.8815356 29.1463111,22.7566023 27.9336444,22.172046 C26.7164444,21.5889977 27.2806556,17.9071034 29.1910778,13.9454667 L34.0989778,1.47901609 L27.6673111,2.25584828 L21.1385556,19.2413471 C20.5165444,20.0490943 14.0178222,25.7421563 9.10633333,25.5315954 C5.3482,25.370423 6.53253333,21.0692874 6.47076667,21.3477103 C6.47076667,21.3477103 16.2844889,20.1580506 19.9602667,14.2103172 C24.7470889,6.46423908 19.4725556,3.69113103 15.5155222,3.72374253 C10.8131333,3.76238621 5.99023333,6.64237701 2.42457778,14.0329333 C0.799377778,17.401154 0.0273888889,20.8202713 0.0674333333,23.7368322 C0.0674333333,23.7368322 -0.0504333333,24.6601333 0.353788889,26.4285057 C0.721366667,28.0366483 1.52848889,29.2383724 1.52848889,29.2383724 C2.07891111,30.0542253 2.7965,30.6636644 3.63573333,31.1006207 C10.3879444,34.6166299 20.0819111,27.5880046 21.2399889,26.1114391 L21.7751111,27.1885609 C22.3253444,28.0044138 23.0293333,28.6411862 23.8821667,29.0506207 C26.7789667,30.4455632 30.6600667,28.8430759 33.9648667,25.3176414 L33.9104667,25.3983218 C34.4607,26.2141747 35.1646889,26.8507586 36.0175222,27.2601931 C38.7352556,28.5689885 42.3490778,26.402492 44.5689,22.8851632 L42.1080556,19.4504 C41.0844667,20.5571172 40.1475778,21.0954897 39.5412444,20.8031172 L39.5412444,20.8031172 L39.5412444,20.8031172 Z M13.2316667,9.80946207 C15.7714667,9.2004 17.4454,11.0701885 13.6136,13.5009701 C12.5497778,14.3647034 7.57406667,16.0265701 7.57406667,16.0265701 C9.48354444,12.0681379 11.9196444,10.1240782 13.2316667,9.80946207 L13.2316667,9.80946207 L13.2316667,9.80946207 Z" id="Shape"></path>
                                    </g>
                                    <g id="Group" transform="translate(153.377778, 9.236782)">
                                        <path d="M7.6653,0.502556322 C7.07766667,2.53295172 5.14306667,3.2636 4.41811111,2.91411034 C3.96043333,2.69487816 3.78892222,1.97912184 3.87146667,0.960625287 L0.0162444444,1.45187126 C0.00661111111,1.71276322 0.0175666667,2.33087356 0.235733333,3.28603218 C0.505844444,4.46702069 1.13314444,5.79749425 2.54055556,6.61202759 C5.46531111,8.30462069 10.4070222,5.01142529 11.5135333,0.0377011494 L7.6653,0.502556322 L7.6653,0.502556322 L7.6653,0.502556322 Z" id="Shape"></path>
                                    </g>
                                    <g id="Group" transform="translate(66.677778, 25.259770)">
                                        <path d="M25.1696333,31.7922483 L34.5383333,7.7342023 L25.1696333,31.7922483 L25.1696333,31.7922483 Z M34.5383333,7.7342023 L37.5399667,0.0263908046 L31.7301222,0.754965517 L31.1319111,2.31654713 C30.8381889,2.08204598 30.5204778,1.88091034 30.1785889,1.71653333 C25.9406778,-0.318574713 19.6206444,4.02817931 16.0549889,11.4191126 C12.4880111,18.8147586 13.0248333,26.4526345 17.2665222,28.4869885 C18.3864444,29.0261149 19.6535111,29.1158437 20.9774333,28.8213977 L19.4948444,32.6912322 C19.4948444,32.6912322 18.2802889,32.9500506 17.9053444,33.0309195 C4.82025556,35.8479494 -0.842822222,42.3246299 0.134866667,48.1624644 C1.50317778,56.3334345 10.8971889,54.7373563 16.4238889,48.8859494 C20.4415556,44.6325057 22.3986333,39.2910069 22.3986333,39.2910069 L23.2994444,36.7712506 C23.2994444,36.7712506 28.3524111,32.109692 62.9646,36.4274161 C91.5759778,39.9965839 102.335656,25.2886115 102.335656,25.2886115 L101.8997,18.1159678 C101.8997,18.1159678 91.7824333,33.1532598 64.4836444,31.9257103 C49.8203889,31.2663172 39.8436556,28.651931 25.3126222,31.6065701 L34.5383333,7.7342023 L34.5383333,7.7342023 Z M20.2634333,22.2710115 C19.0460444,21.6881517 19.6102556,18.0062575 21.5206778,14.0440552 C23.4301556,10.0858115 25.9625889,7.34814253 27.1782778,7.93232184 C27.8998333,8.27936092 27.9942778,9.71784828 27.5526556,11.6579494 L25.5349444,16.924046 C23.6819444,20.4639954 21.3963889,22.8176782 20.2634333,22.2710115 L20.2634333,22.2710115 L20.2634333,22.2710115 Z M17.2606667,38.7096552 C17.0880222,39.0702667 14.5340556,45.7620322 8.4184,47.8440782 C4.93585556,49.0299678 5.03067778,44.3214713 10.2768778,41.1034897 C12.7571778,39.5818713 15.4038889,38.1901333 17.6541222,37.6830529 L17.2606667,38.7096552 L17.2606667,38.7096552 L17.2606667,38.7096552 Z" id="Shape"></path>
                                    </g>
                                </g>
                                <g id="Shape" transform="translate(0.000000, 1.696552)">
                                    <path d="M54.2099778,14.0129517 C54.0609444,14.072708 53.5768222,12.3280874 53.5768222,12.3280874 C53.5768222,12.3280874 47.5357778,16.0310943 43.3322444,16.579646 C41.3324778,16.8405379 39.3716222,16.7849287 37.4506222,16.5932184 C38.6360889,14.8994943 39.6882,13.8054069 42.3785444,11.0072276 L41.7453889,9.32236322 L38.7862556,7.99547126 C38.7862556,7.99547126 36.4969222,8.78455632 31.8419444,15.7965931 C27.7848,15.1718851 23.9278778,14.7586805 20.2842111,16.4955724 C14.9307222,19.0481287 15.0580333,24.3398621 16.3507889,26.4445287 C18.0664667,29.2361103 21.8200667,29.0168782 21.8200667,29.0168782 L23.7480556,24.2420276 L23.1149,22.5571632 C23.1149,22.5571632 20.9377667,23.1929931 21.5342778,22.0153977 C22.5191444,20.072092 25.3158333,20.0790667 28.9723444,20.4979264 C24.3698778,28.9235678 22.4356556,38.1230253 16.1456556,52.1114713 C15.9539333,52.5380598 15.7537111,52.9488138 15.5474444,53.348446 C14.4328111,50.7500828 13.8837111,47.2879862 14.2879333,42.9555586 L13.6545889,41.2705057 L8.83414444,45.3482621 C8.12184444,49.0205425 8.86191111,54.6657241 11.4183333,59.0545149 C7.29791111,63.2159678 0.0204,63.4368966 0.0204,63.4368966 L0.653555556,65.1219494 L3.63497778,70.2826713 C3.63497778,70.2826713 9.3398,69.7314805 15.3808444,63.5085287 C16.7366889,64.4642529 18.3097556,65.1387264 20.1149667,65.4097977 C25.7729444,66.2592046 31.9724667,63.0924966 36.3240889,54.0806023 C40.6715556,45.068708 41.0187333,36.2583264 35.8565889,33.7764598 C33.8322667,32.8041471 31.5922333,32.9157425 29.3550333,33.9525241 C30.8191111,29.2134897 32.3017,24.8605149 34.5288889,21.2157563 C34.5332333,21.2085931 34.5375778,21.2019954 34.5419222,21.1950207 C37.5063444,21.5220782 40.6742,21.7011586 43.7217333,21.2097241 C50.7618111,20.075108 54.4209667,18.4450989 54.4209667,18.4450989 L54.2099778,14.0129517 L54.2099778,14.0129517 L54.2099778,14.0129517 Z M32.7833667,39.9918713 C34.1327889,40.9293103 33.5782111,46.6992828 31.2494,51.5257839 C28.9205889,56.3530391 25.2644556,59.0780782 23.6277333,59.2004184 C22.2509222,59.303531 20.8503111,58.9744 19.5632222,58.2132138 C19.9181444,57.6656046 20.2692889,57.0931126 20.6164667,56.4947954 C23.4598111,51.592892 26.9701222,41.673531 26.9701222,41.673531 C26.9701222,41.673531 30.2288333,38.2165241 32.7833667,39.9918713 L32.7833667,39.9918713 L32.7833667,39.9918713 Z" fill="url(#linearGradient-1)"></path>
                                    <path d="M62.8414444,54.3601563 C63.3918667,55.1760092 64.0956667,55.8127816 64.9485,56.2222161 C69.1758333,58.2578897 75.4996444,53.9100046 79.0692667,46.5181287 C82.6360556,39.1266299 82.0956444,31.4878115 77.8613222,29.4517609 C73.6237889,27.4168414 67.3031889,31.7639724 63.7373444,39.1545287 C62.1125222,42.5229379 61.3403444,45.9420552 61.3803889,48.8586161 C61.3803889,48.8586161 61.3091778,50.1282023 61.7742222,51.8498253 C62.1724,53.3231862 62.8414444,54.3601563 62.8414444,54.3601563 L62.8414444,54.3601563 L62.8414444,54.3601563 Z M57.8991667,51.4490621 C58.3744111,50.6856138 58.8211333,49.8773011 59.2310222,49.0278943 C62.7978111,41.6362069 62.2572111,33.9977655 58.0230778,31.962092 C56.2762333,31.1230529 52.8973889,31.7933793 51.3044889,34.0075678 L52.3190111,31.7881011 L51.6858556,30.1032368 L46.5231444,32.5144138 L41.2012,47.0568782 C39.6045222,51.5687632 38.5101,55.1507494 35.7307889,59.7178667 C32.1496444,65.6022621 23.7340778,66.7457379 23.7340778,66.7457379 L24.3672333,68.4306023 L27.4006,72.8714207 C27.4006,72.8714207 35.0615556,70.6140644 39.9981667,62.8968276 C41.3181222,60.8340092 42.2825889,58.8886299 43.0710111,56.9741655 C43.6078333,57.7362943 44.2865111,58.3368736 45.1106333,58.7321701 C47.7851111,60.0202299 51.2992,58.7519632 54.4236111,55.774892 C55.7705778,54.4216092 55.3027,54.9215264 56.2879444,53.7963356 C57.0756111,52.8969747 57.8991667,51.4490621 57.8991667,51.4490621 L57.8991667,51.4490621 L57.8991667,51.4490621 Z M48.1736556,52.6340092 C46.9566444,52.0507724 47.5202889,48.3686897 49.4310889,44.4068644 C51.3403778,40.4484322 53.8733778,37.7109517 55.0886889,38.2953195 C56.304,38.8796874 55.7407333,42.5613931 53.8308778,46.5205793 C51.9206444,50.480708 49.3865111,53.218754 48.1736556,52.6340092 L48.1736556,52.6340092 L48.1736556,52.6340092 Z M73.6032,43.8939402 C71.6929667,47.8533149 69.1588333,50.5911724 67.9463556,50.0068046 C66.7291556,49.4235678 67.2933667,45.7418621 69.2037889,41.7800368 C71.1132667,37.8212276 73.6455111,35.0841241 74.8612,35.6681149 C76.0763222,36.2522943 75.5130556,39.9345655 73.6032,43.8939402 L73.6032,43.8939402 L73.6032,43.8939402 Z" fill="url(#linearGradient-2)"></path>
                                    <path d="M117.1198,5.22311724 C112.090256,10.6818667 110.984878,15.2964874 110.984878,15.2964874 L110.255767,16.7969931 C110.255767,16.7969931 108.761656,17.2075586 105.009567,17.5478115 C100.898967,17.9206759 99.4501889,17.1724966 99.4501889,17.1724966 L96.9243667,20.3614483 L97.5577111,22.0463126 C97.5577111,22.0463126 102.178122,24.0020598 108.374244,22.0006943 L103.1934,34.8373701 C101.7229,38.0489425 101.022311,41.2821931 101.060656,44.0602023 C101.060656,44.0602023 100.9426,44.9835034 101.347011,46.7518759 C101.714589,48.3600184 102.521711,49.5617425 102.521711,49.5617425 C103.072133,50.3775954 103.775933,51.0145563 104.628767,51.4239908 C108.8561,53.4596644 115.179722,49.1117793 118.749533,41.7199034 C122.316322,34.3282161 121.775722,26.6893977 117.541589,24.6535356 C116.100556,23.961531 114.418311,24.0082805 112.685444,24.6612644 L114.158589,20.8165011 C114.525033,20.779177 114.923589,20.6474115 115.281911,20.5105563 C125.838344,16.481246 131.176533,10.6888414 131.430967,5.49004138 C131.835567,-2.78422989 122.573778,-0.695963218 117.1198,5.22311724 L117.1198,5.22311724 L117.1198,5.22311724 Z M114.541089,30.8698897 C115.756211,31.454446 115.192944,35.1365287 113.283089,39.0959034 C111.372856,43.0550897 108.838911,45.7929471 107.626244,45.2085793 C106.409044,44.625531 106.973256,40.9436368 108.883678,36.9818115 C110.792967,33.0231908 113.325211,30.2857103 114.541089,30.8698897 L114.541089,30.8698897 L114.541089,30.8698897 Z M121.8458,12.0583356 C119.935944,13.6890989 116.590533,14.9654713 116.590533,14.9654713 L117.000989,13.9722345 C117.173822,13.6114345 119.980333,7.56812874 123.392044,6.22068966 C125.943556,5.21312644 126.524956,8.06295632 121.8458,12.0583356 L121.8458,12.0583356 L121.8458,12.0583356 Z" fill="url(#linearGradient-3)"></path>
                                    <path d="M160.491333,38.6838299 C159.274322,38.1007816 159.838533,34.4188874 161.748956,30.4572506 L166.656667,17.9909885 L166.023511,16.3061241 L160.225,18.7678207 L153.696433,35.753131 L154.540578,33.9402713 C152.7467,38.7626253 150.096211,40.6375034 148.883733,40.0531356 C147.666533,39.4698989 148.230744,35.7881931 150.141167,31.8263678 L155.049067,19.3601057 L154.415722,17.6750529 L148.6174,20.1369379 L142.088644,37.1224368 C141.466633,37.9298069 134.967911,43.622869 130.056422,43.412308 C126.298289,43.2513241 127.482622,38.950377 127.420856,39.2286115 C127.420856,39.2286115 137.234578,38.0391402 140.910356,32.0914069 C145.697178,24.3451402 140.422644,21.5722207 136.465611,21.6046437 C131.763222,21.6432874 126.940322,24.5232782 123.374478,31.9138345 C121.749467,35.2822437 120.977478,38.7011724 121.017522,41.6179218 C121.017522,41.6179218 120.899467,42.540846 121.303878,44.3095954 C121.671456,45.9173609 122.478578,47.1194621 122.478578,47.1194621 C123.029,47.9353149 123.746589,48.544377 124.585633,48.9813333 C131.337844,52.4977195 141.031811,45.4689057 142.190078,43.9923402 L142.725011,45.0694621 C143.275433,45.8853149 143.979422,46.5220874 144.832256,46.9315218 C147.729056,48.3264644 151.609967,46.723977 154.914956,43.198731 L154.860367,43.279223 C155.410789,44.0950759 156.114778,44.7318483 156.967611,45.1412828 C159.685344,46.4500782 163.299167,44.2833931 165.518989,40.7662529 L164.885644,39.0812 L163.057956,37.3316782 C162.034367,38.4378299 161.097667,38.9762023 160.491333,38.6838299 L160.491333,38.6838299 L160.491333,38.6838299 Z M134.181756,27.6901747 C136.721556,27.0811126 138.395489,28.9509011 134.563689,31.3816828 C133.499867,32.2456046 128.524156,33.9074713 128.524156,33.9074713 C130.433633,29.9486621 132.869733,28.0047908 134.181756,27.6901747 L134.181756,27.6901747 L134.181756,27.6901747 Z" fill="url(#linearGradient-4)"></path>
                                    <path d="M161.670944,9.7120046 C161.083311,11.7424 159.148711,12.4732368 158.423756,12.1235586 C157.966078,11.9043264 157.794567,11.1885701 157.877111,10.1700736 L157.243767,8.4852092 L154.0217,10.6613195 C154.012067,10.9222115 154.023022,11.5403218 154.241189,12.4954805 C154.5113,13.676469 155.1386,15.0069425 156.545822,15.8214759 C159.470767,17.514069 164.412289,14.2208736 165.518989,9.24714943 L164.885644,7.56228506 L161.670944,9.7120046 L161.670944,9.7120046 L161.670944,9.7120046 Z" fill="url(#linearGradient-5)"></path>
                                    <path d="M92.4752778,57.0246851 L101.843978,32.9668276 L92.4752778,57.0246851 L92.4752778,57.0246851 Z M101.843978,32.9668276 L104.845611,25.2588276 L104.212456,23.5737747 L99.0357667,25.9874023 L98.4373667,27.5489839 C98.1438333,27.3144828 97.8261222,27.1133471 97.4842333,26.9489701 C93.2463222,24.9138621 86.9262889,29.2604276 83.3606333,36.6515494 C79.7936556,44.0473839 80.3304778,51.6852598 84.5719778,53.7194253 C85.6920889,54.2585517 86.9591556,54.3482805 88.2828889,54.053646 L86.8003,57.923669 C86.8003,57.923669 85.5857444,58.1826759 85.2108,58.2633563 C72.1257111,61.0803862 66.4626333,67.5572552 67.4403222,73.3947126 C68.8086333,81.5658713 78.2026444,79.9697931 83.7293444,74.1183862 C87.7470111,69.865131 89.7040889,64.5232552 89.7040889,64.5232552 L90.6049,62.0034989 C90.6049,62.0034989 95.6578667,57.3419402 130.269867,61.6600414 C158.881433,65.2292092 169.641111,50.5208598 169.641111,50.5208598 L169.205156,43.3484046 L168.572,41.6635402 C168.572,41.6635402 156.874111,58.2865425 131.7891,57.1583356 C117.125844,56.4989425 107.149111,53.8843678 92.6178889,56.8390069 L101.843978,32.9668276 L101.843978,32.9668276 Z M87.5692667,47.5034483 C86.3518778,46.9204 86.9160889,43.2385057 88.8265111,39.276492 C90.7359889,35.3182483 93.2684222,32.5805793 94.4841111,33.1647586 C95.2056667,33.5116092 95.3001111,34.9500966 94.8584889,36.8900092 L92.8407778,42.1561057 C90.9874,45.6962437 88.7020333,48.0497379 87.5692667,47.5034483 L87.5692667,47.5034483 L87.5692667,47.5034483 Z M84.5663111,63.9417149 C84.3936667,64.3025149 81.8397,70.994092 75.7240444,73.0763264 C72.2415,74.2622161 72.3363222,69.5537195 77.5823333,66.3357379 C80.0628222,64.814308 82.7095333,63.4225701 84.9597667,62.9153011 L84.5663111,63.9417149 L84.5663111,63.9417149 L84.5663111,63.9417149 Z" fill="url(#linearGradient-6)"></path>
                                </g>
                                <g id="Shape">
                                    <path d="M53.5770111,14.0244506 C51.6936,14.7820552 47.2635889,15.9952782 42.6992778,16.5909563 C40.6995111,16.8520368 38.7384667,16.7962391 36.8176556,16.6045287 C38.0029333,14.9108046 39.0552333,13.8167172 41.7455778,11.0185379 L38.1532889,8.0065931 C38.1532889,8.0065931 35.8637667,8.79567816 31.2089778,15.8077149 C27.1516444,15.1828184 23.2949111,14.7698023 19.6512444,16.5066943 C14.2975667,19.0592506 14.4250667,24.3509839 15.7178222,26.4554621 C17.4333111,29.2472322 21.1871,29.0278115 21.1871,29.0278115 L23.1150889,24.2531494 C23.1150889,24.2531494 19.9291,23.9456966 20.9013111,22.0265195 C21.8861778,20.0832138 24.6826778,20.0901885 28.3391889,20.5088598 C23.7367222,28.9346897 21.8025,38.1341471 15.5126889,52.1225931 C15.3209667,52.5493701 15.1207444,52.9601241 14.9144778,53.3595678 C13.7998444,50.7612046 13.2505556,47.299108 13.6547778,42.966492 L8.20136667,45.3591954 C7.48906667,49.0312874 8.22894444,54.6766575 10.7855556,59.0654483 C5.76243333,64.1383264 0.0207777778,65.1328828 0.0207777778,65.1328828 L3.00201111,70.2937931 C3.00201111,70.2937931 8.70683333,69.7424138 14.7480667,63.5194621 C16.1039111,64.4753747 17.6769778,65.1496598 19.482,65.420731 C25.1401667,66.2701379 31.3396889,63.1034299 35.6913111,54.0919126 C40.0385889,45.0798299 40.3857667,36.2696368 35.2238111,33.7875816 C33.1994889,32.8154575 30.9592667,32.9266759 28.7220667,33.963646 C30.1863333,29.2246115 31.6689222,24.8716368 33.8961111,21.2268782 C33.9004556,21.2197149 33.9046111,21.2131172 33.9089556,21.2061425 C36.8735667,21.5332 40.0414222,21.7122805 43.0889556,21.220846 C50.1288444,20.0864184 53.7881889,18.4562207 53.7881889,18.4562207 L53.5770111,14.0244506 L53.5770111,14.0244506 L53.5770111,14.0244506 Z M32.1502111,40.0033701 C33.4996333,40.9411862 32.9448667,46.7107816 30.6162444,51.5374713 C28.2874333,56.3647264 24.6311111,59.0897655 22.9945778,59.2121057 C21.6177667,59.3154069 20.2171556,58.9862759 18.9300667,58.2249011 C19.2849889,57.6771034 19.6361333,57.1048 19.9831222,56.5064828 C22.8266556,51.6047678 26.3369667,41.6850299 26.3369667,41.6850299 C26.3369667,41.6850299 29.5958667,38.2284 32.1502111,40.0033701 L32.1502111,40.0033701 L32.1502111,40.0033701 Z" fill="#E35437"></path>
                                    <path d="M62.2082889,54.3718437 C62.7587111,55.1876966 63.4625111,55.8242805 64.3155333,56.2337149 C68.5428667,58.269577 74.8664889,53.921692 78.4361111,46.5298161 C82.0029,39.1381287 81.4624889,31.4993103 77.2281667,29.4634483 C72.9908222,27.4285287 66.6700333,31.7752828 63.1043778,39.1660276 C61.4793667,42.5344368 60.7071889,45.9533655 60.7474222,48.8701149 C60.7474222,48.8701149 60.6762111,50.1397011 61.1412556,51.8611356 C61.5392444,53.3346851 62.2082889,54.3718437 62.2082889,54.3718437 L62.2082889,54.3718437 L62.2082889,54.3718437 Z M57.2662,51.4605609 C57.7414444,50.6969241 58.1879778,49.8888 58.5980556,49.0393931 C62.1646556,41.6477057 61.6242444,34.0090759 57.3901111,31.9734023 C55.6432667,31.1343632 52.2644222,31.8048782 50.6715222,34.0190667 L51.6860444,31.7996 L45.8899889,32.5259126 L40.5682333,47.068377 C38.9713667,51.5800736 37.8769444,55.1620598 35.0978222,59.7293655 C30.7095556,66.9400874 23.7342667,68.4422897 23.7342667,68.4422897 L26.7676333,72.883108 C26.7676333,72.883108 34.4284,70.6257517 39.3652,62.9085149 C40.6851556,60.8456966 41.6496222,58.9005057 42.4380444,56.9860414 C42.9748667,57.7479816 43.6535444,58.3487494 44.4776667,58.743669 C47.1521444,60.0319172 50.6660444,58.7636506 53.7904556,55.7863908 C55.1376111,54.4332966 54.6695444,54.9330253 55.6547889,53.808023 C56.4422667,52.9086621 57.2662,51.4605609 57.2662,51.4605609 L57.2662,51.4605609 L57.2662,51.4605609 Z M47.5405,52.6456966 C46.3236778,52.0620828 46.8873222,48.38 48.7981222,44.4183632 C50.7074111,40.4601195 53.2404111,37.7224506 54.4557222,38.3068184 C55.6710333,38.8911862 55.1075778,42.5727034 53.1977222,46.5320782 C51.2873,50.4922069 48.7533556,53.2304414 47.5405,52.6456966 L47.5405,52.6456966 L47.5405,52.6456966 Z M72.9700444,43.9054391 C71.0598111,47.8646253 68.5256778,50.6026713 67.3130111,50.0181149 C66.096,49.4350667 66.6602111,45.7531724 68.5706333,41.7915356 C70.4799222,37.8327264 73.0121667,35.095623 74.2280444,35.6794253 C75.4431667,36.2639816 74.8800889,39.9460644 72.9700444,43.9054391 L72.9700444,43.9054391 L72.9700444,43.9054391 Z" fill="#E35437"></path>
                                    <g id="Group" transform="translate(96.900000, 0.000000)">
                                        <path d="M11.3503333,36.9934989 C9.4401,40.9551356 8.8757,44.6368414 10.0929,45.2200782 C11.3055667,45.804823 13.8395111,43.0665885 15.7499333,39.1072138 C17.6596,35.1480276 18.2230556,31.4657563 17.0077444,30.8813885 C15.7920556,30.2973977 13.2598111,33.0346897 11.3503333,36.9934989 L11.3503333,36.9934989 L11.3503333,36.9934989 Z" id="Shape"></path>
                                        <path d="M19.5864556,5.2348046 C14.5569111,10.693554 13.4515333,15.3081747 13.4515333,15.3081747 L12.7224222,16.8086805 C12.7224222,16.8086805 11.2283111,17.219246 7.47622222,17.5594989 C3.36581111,17.9323632 1.91684444,17.1841839 1.91684444,17.1841839 L0.0241777778,22.058 C0.0241777778,22.058 4.64477778,24.0137471 10.8409,22.0123816 L5.65986667,34.848869 C4.18955556,38.0604414 3.48896667,41.294069 3.52731111,44.0720782 C3.52731111,44.0720782 3.40925556,44.9950023 3.81366667,46.7637517 C4.18105556,48.3715172 4.98817778,49.5736184 4.98817778,49.5736184 C5.5386,50.3894713 6.2424,51.0260552 7.09542222,51.4354897 C11.3227556,53.4711632 17.6463778,49.1232782 21.2161889,41.7314023 C24.7827889,34.3399034 24.2423778,26.7010851 20.0080556,24.665223 C18.5670222,23.9732184 16.8849667,24.0199678 15.1521,24.6729517 L16.6252444,20.8281885 C16.9915,20.7908644 17.3900556,20.6590989 17.7483778,20.5222437 C28.3048111,16.4929333 33.6431889,10.7003402 33.8976222,5.50172874 C34.3024111,-2.77254253 25.0406222,-0.684464368 19.5864556,5.2348046 L19.5864556,5.2348046 L19.5864556,5.2348046 Z M17.0077444,30.8813885 C18.2230556,31.4657563 17.6596,35.1480276 15.7499333,39.1072138 C13.8395111,43.0665885 11.3055667,45.8046345 10.0929,45.2200782 C8.87588889,44.6368414 9.4401,40.9551356 11.3503333,36.9934989 C13.2598111,33.0346897 15.7920556,30.2973977 17.0077444,30.8813885 L17.0077444,30.8813885 L17.0077444,30.8813885 Z M24.3128333,12.0698345 C22.4029778,13.7005977 19.0575667,14.9769701 19.0575667,14.9769701 L19.4680222,13.9837333 C19.6406667,13.6229333 22.4473667,7.57962759 25.8590778,6.23218851 C28.4102111,5.22462529 28.9916111,8.07464368 24.3128333,12.0698345 L24.3128333,12.0698345 L24.3128333,12.0698345 Z" id="Shape" fill="#E35437"></path>
                                    </g>
                                    <path d="M159.858367,38.6955172 C158.641356,38.1122805 159.205378,34.4305747 161.1158,30.4687494 L166.0237,18.0024874 L159.592033,18.7793195 L153.063467,35.7648184 L153.907611,33.9517701 C152.113733,38.7739356 149.463244,40.6490023 148.250578,40.064446 C147.033567,39.4813977 147.597778,35.7995034 149.5082,31.8378667 L154.415911,19.3714161 L147.984244,20.1482483 L141.455678,37.1335586 C140.833478,37.9413057 134.334756,43.6343678 129.423267,43.4238069 C125.665133,43.2626345 126.849656,38.9616874 126.7877,39.2399218 C126.7877,39.2399218 136.601611,38.0502621 140.2772,32.1025287 C145.064211,24.3564506 139.789678,21.5833425 135.832644,21.615954 C131.130067,21.6545977 126.307167,24.5345885 122.741511,31.9251448 C121.1165,35.293554 120.344322,38.7124828 120.384556,41.6290437 C120.384556,41.6290437 120.2665,42.5523448 120.670911,44.3207172 C121.0383,45.9288598 121.845611,47.1305839 121.845611,47.1305839 C122.395844,47.9466253 123.113433,48.5558759 123.952667,48.9928322 C130.704878,52.5088414 140.398844,45.4802161 141.557111,44.0036506 L142.092044,45.0807724 C142.642467,45.8968138 143.346267,46.5333977 144.199289,46.9428322 C147.0959,48.3377747 150.977,46.7352874 154.2818,43.2098529 L154.2274,43.2905333 C154.777822,44.1063862 155.481622,44.7431586 156.334644,45.1525931 C159.052378,46.4612 162.6662,44.2947034 164.885833,40.7773747 L162.425178,37.3426115 C161.4014,38.4493287 160.464511,38.9878897 159.858367,38.6955172 L159.858367,38.6955172 L159.858367,38.6955172 Z M133.548411,27.7016736 C136.088211,27.0926115 137.762333,28.9624 133.930344,31.3931816 C132.866522,32.2569149 127.890811,33.9187816 127.890811,33.9187816 C129.800667,29.9601609 132.236578,28.0162897 133.548411,27.7016736 L133.548411,27.7016736 L133.548411,27.7016736 Z" fill="#E35437"></path>
                                    <path d="M161.037789,9.72350345 C160.450156,11.7538989 158.515556,12.4845471 157.7906,12.1350575 C157.333111,11.9158253 157.161411,11.200069 157.243956,10.1815724 L153.388733,10.6726299 C153.3791,10.9335218 153.390056,11.5516322 153.608411,12.5067908 C153.878333,13.6877793 154.505633,15.0182529 155.913044,15.8327862 C158.8378,17.5253793 163.779511,14.2321839 164.886022,9.25845977 L161.037789,9.72350345 L161.037789,9.72350345 L161.037789,9.72350345 Z" fill="#E35437"></path>
                                    <path d="M91.8421222,57.0361839 L101.210822,32.9781379 L91.8421222,57.0361839 L91.8421222,57.0361839 Z M101.210633,32.9781379 L104.212456,25.2703264 L98.4026111,25.9989011 L97.8042111,27.5604828 C97.5104889,27.3259816 97.1929667,27.124846 96.8508889,26.960469 C92.6131667,24.9253609 86.2929444,29.2721149 82.7274778,36.6630483 C79.1603111,44.0586943 79.6971333,51.6965701 83.9388222,53.7311126 C85.0587444,54.2700506 86.326,54.3599678 87.6497333,54.0653333 L86.1669556,57.9351678 C86.1669556,57.9351678 84.9525889,58.1939862 84.5774556,58.2748552 C71.4925556,61.0918851 65.8292889,67.5685655 66.8069778,73.4064 C68.1754778,81.5773701 77.5693,79.981292 83.096,74.1298851 C87.1136667,69.8764414 89.0709333,64.5349425 89.0709333,64.5349425 L89.9715556,62.0151862 C89.9715556,62.0151862 95.0245222,57.3536276 129.636711,61.6713517 C158.248278,65.240708 169.007956,50.5325471 169.007956,50.5325471 L168.572,43.3599034 C168.572,43.3599034 158.454544,58.3971954 131.155944,57.169646 C116.492689,56.5104414 106.515767,53.8958667 91.9847333,56.8505057 L101.210633,32.9781379 L101.210633,32.9781379 Z M86.9361111,47.5149471 C85.7187222,46.9320874 86.2829333,43.2503816 88.1931667,39.2879908 C90.1026444,35.3297471 92.6352667,32.5920782 93.8507667,33.1762575 C94.5723222,33.5232966 94.6667667,34.9619724 94.2251444,36.9018851 L92.2074333,42.1679816 C90.3544333,45.707931 88.0688778,48.0616138 86.9361111,47.5149471 L86.9361111,47.5149471 L86.9361111,47.5149471 Z M83.9333444,63.9535908 C83.7605111,64.3142023 81.2065444,71.0059678 75.0910778,73.0880138 C71.6085333,74.2739034 71.7033556,69.5654069 76.9495556,66.3474253 C79.4298556,64.8258069 82.0767556,63.434069 84.3269889,62.9269885 L83.9333444,63.9535908 L83.9333444,63.9535908 L83.9333444,63.9535908 Z" fill="#E35437"></path>
                                </g>
                                <ellipse id="Oval" fill="#8C3B28" cx="10.3216444" cy="64.3622713" rx="1.25705556" ry="1.25450575"></ellipse>
                                <ellipse id="Oval" fill="#8C3B28" cx="15.0914667" cy="59.7125885" rx="1.25705556" ry="1.25450575"></ellipse>
                                <ellipse id="Oval" fill="#8C3B28" cx="19.1954556" cy="53.4027356" rx="1.25724444" ry="1.25469425"></ellipse>
                                <ellipse id="Oval" fill="#8C3B28" cx="24.4087889" cy="39.4546299" rx="1.25724444" ry="1.25469425"></ellipse>
                                <ellipse id="Oval" fill="#8C3B28" cx="26.5164111" cy="32.5913241" rx="1.25705556" ry="1.25450575"></ellipse>
                                <path d="M23.1147111,46.5398069 C23.1147111,47.2321885 22.5522,47.7937471 21.8580333,47.7937471 C21.1633,47.7937471 20.6007889,47.2321885 20.6007889,46.5398069 C20.6007889,45.8466713 21.1634889,45.2849241 21.8580333,45.2849241 C22.5523889,45.2847356 23.1147111,45.8466713 23.1147111,46.5398069 L23.1147111,46.5398069 L23.1147111,46.5398069 Z" id="Shape" fill="#8C3B28"></path>
                                <ellipse id="Oval" fill="#8C3B28" cx="20.5265556" cy="63.1443356" rx="1.25724444" ry="1.25469425"></ellipse>
                                <ellipse id="Oval" fill="#8C3B28" cx="27.5148778" cy="61.1516414" rx="1.25705556" ry="1.25450575"></ellipse>
                                <ellipse id="Oval" fill="#8C3B28" cx="32.2845111" cy="55.6165471" rx="1.25724444" ry="1.25469425"></ellipse>
                                <ellipse id="Oval" fill="#8C3B28" cx="35.6123556" cy="48.5321241" rx="1.25724444" ry="1.25469425"></ellipse>
                                <ellipse id="Oval" fill="#8C3B28" cx="35.9449889" cy="40.8936828" rx="1.25724444" ry="1.25469425"></ellipse>
                                <ellipse id="Oval" fill="#8C3B28" cx="31.1755444" cy="37.6834299" rx="1.25705556" ry="1.25450575"></ellipse>
                                <ellipse id="Oval" fill="#8C3B28" cx="11.0979778" cy="48.5321241" rx="1.25705556" ry="1.25450575"></ellipse>
                                <ellipse id="Oval" fill="#8C3B28" cx="11.9855667" cy="54.2885241" rx="1.25705556" ry="1.25450575"></ellipse>
                                <ellipse id="Oval" fill="#8C3B28" cx="5.10793333" cy="67.4614943" rx="1.25724444" ry="1.25469425"></ellipse>
                                <ellipse id="Oval" fill="#8C3B28" cx="29.1788" cy="26.0601655" rx="1.25705556" ry="1.25450575"></ellipse>
                                <ellipse id="Oval" fill="#8C3B28" cx="28.4022778" cy="70.2289471" rx="1.25705556" ry="1.25450575"></ellipse>
                                <path d="M34.4289667,67.0188828 C34.4289667,67.7118299 33.8662667,68.272823 33.1719111,68.272823 C32.4777444,68.272823 31.9150444,67.7116414 31.9150444,67.0188828 C31.9150444,66.3257471 32.4777444,65.7641885 33.1719111,65.7641885 C33.8662667,65.7641885 34.4289667,66.3259356 34.4289667,67.0188828 L34.4289667,67.0188828 L34.4289667,67.0188828 Z" id="Shape" fill="#8C3B28"></path>
                                <path d="M38.2008889,62.7013471 C38.2008889,63.3944828 37.6378111,63.9564184 36.9432667,63.9564184 C36.2491,63.9564184 35.6864,63.3944828 35.6864,62.7013471 C35.6864,62.0084 36.2491,61.4470299 36.9432667,61.4470299 C37.6378111,61.4470299 38.2008889,62.0084 38.2008889,62.7013471 L38.2008889,62.7013471 L38.2008889,62.7013471 Z" id="Shape" fill="#8C3B28"></path>
                                <ellipse id="Oval" fill="#8C3B28" cx="43.0441889" cy="49.9709885" rx="1.25724444" ry="1.25469425"></ellipse>
                                <path d="M46.5197444,43.1074943 C46.5197444,43.8008184 45.9570444,44.3625655 45.2628778,44.3625655 C44.5687111,44.3625655 44.0056333,43.8008184 44.0056333,43.1074943 C44.0056333,42.4151126 44.5687111,41.853177 45.2628778,41.853177 C45.9572333,41.8529885 46.5197444,42.4151126 46.5197444,43.1074943 L46.5197444,43.1074943 L46.5197444,43.1074943 Z" id="Shape" fill="#8C3B28"></path>
                                <ellipse id="Oval" fill="#8C3B28" cx="78.3182444" cy="38.901177" rx="1.25705556" ry="1.25450575"></ellipse>
                                <ellipse id="Oval" fill="#8C3B28" cx="76.6543222" cy="45.3216828" rx="1.25705556" ry="1.25450575"></ellipse>
                                <ellipse id="Oval" fill="#8C3B28" cx="72.8829667" cy="51.299577" rx="1.25724444" ry="1.25469425"></ellipse>
                                <ellipse id="Oval" fill="#8C3B28" cx="69.7880222" cy="35.8064782" rx="1.25705556" ry="1.25450575"></ellipse>
                                <ellipse id="Oval" fill="#8C3B28" cx="66.1519111" cy="41.6867264" rx="1.25705556" ry="1.25450575"></ellipse>
                                <ellipse id="Oval" fill="#8C3B28" cx="64.2730333" cy="48.3947034" rx="1.25724444" ry="1.25469425"></ellipse>
                                <ellipse id="Oval" fill="#8C3B28" cx="66.5601" cy="54.1774943" rx="1.25705556" ry="1.25450575"></ellipse>
                                <ellipse id="Oval" fill="#8C3B28" cx="75.7669222" cy="33.2556184" rx="1.25724444" ry="1.25469425"></ellipse>
                                <ellipse id="Oval" fill="#8C3B28" cx="97.9521111" cy="36.0232598" rx="1.25724444" ry="1.25469425"></ellipse>
                                <ellipse id="Oval" fill="#8C3B28" cx="100.613933" cy="29.4915356" rx="1.25705556" ry="1.25450575"></ellipse>
                                <ellipse id="Oval" fill="#8C3B28" cx="95.6221667" cy="42.443577" rx="1.25743333" ry="1.25488276"></ellipse>
                                <ellipse id="Oval" fill="#8C3B28" cx="92.8494667" cy="49.1962299" rx="1.25705556" ry="1.25450575"></ellipse>
                                <ellipse id="Oval" fill="#8C3B28" cx="90.4090222" cy="55.284777" rx="1.25705556" ry="1.25450575"></ellipse>
                                <ellipse id="Oval" fill="#8C3B28" cx="88.1905222" cy="60.5305149" rx="1.25724444" ry="1.25469425"></ellipse>
                                <ellipse id="Oval" fill="#8C3B28" cx="95.3949333" cy="58.7542253" rx="1.25686667" ry="1.25431724"></ellipse>
                                <path d="M82.5648444,61.7377057 C82.5648444,62.4308414 82.0019556,62.9922115 81.3079778,62.9922115 C80.6130556,62.9922115 80.0507333,62.4306529 80.0507333,61.7377057 C80.0507333,61.0443816 80.6132444,60.482823 81.3079778,60.482823 C82.0019556,60.482823 82.5648444,61.0443816 82.5648444,61.7377057 L82.5648444,61.7377057 L82.5648444,61.7377057 Z" id="Shape" fill="#8C3B28"></path>
                                <ellipse id="Oval" fill="#8C3B28" cx="74.9904" cy="64.5833885" rx="1.25686667" ry="1.25431724"></ellipse>
                                <ellipse id="Oval" fill="#8C3B28" cx="70.2207667" cy="69.6756828" rx="1.25705556" ry="1.25450575"></ellipse>
                                <ellipse id="Oval" fill="#8C3B28" cx="70.8862222" cy="75.7638529" rx="1.25686667" ry="1.25431724"></ellipse>
                                <ellipse id="Oval" fill="#8C3B28" cx="76.8760778" cy="75.9855356" rx="1.25705556" ry="1.25450575"></ellipse>
                                <ellipse id="Oval" fill="#8C3B28" cx="82.4224222" cy="72.1109885" rx="1.25724444" ry="1.25469425"></ellipse>
                                <path d="M87.0071333,66.4972874 C87.0071333,67.1906115 86.4444333,67.7521701 85.7504556,67.7521701 C85.0557222,67.7521701 84.4930222,67.1906115 84.4930222,66.4972874 C84.4930222,65.8047172 85.0557222,65.2433471 85.7504556,65.2433471 C86.4444333,65.2431586 87.0071333,65.8047172 87.0071333,66.4972874 L87.0071333,66.4972874 L87.0071333,66.4972874 Z" id="Shape" fill="#8C3B28"></path>
                                <ellipse id="Oval" fill="#8C3B28" cx="102.624278" cy="58.0550575" rx="1.25705556" ry="1.25450575"></ellipse>
                                <ellipse id="Oval" fill="#8C3B28" cx="89.4217" cy="32.9281839" rx="1.25724444" ry="1.25469425"></ellipse>
                                <path d="M84.8347222,37.9878667 C84.3806333,38.5113471 84.4376778,39.3040138 84.9626,39.7571816 C85.4879,40.2111034 86.2816111,40.1537977 86.7364556,39.6295632 C87.1905444,39.1058943 87.1333111,38.3136046 86.6080111,37.8598713 C86.0830889,37.4067034 85.2893778,37.4636322 84.8347222,37.9878667 L84.8347222,37.9878667 L84.8347222,37.9878667 Z" id="Shape" fill="#8C3B28"></path>
                                <ellipse id="Oval" fill="#8C3B28" cx="83.9065222" cy="45.5162207" rx="1.25724444" ry="1.25469425"></ellipse>
                                <ellipse id="Oval" fill="#8C3B28" cx="86.1937778" cy="51.299577" rx="1.25724444" ry="1.25469425"></ellipse>
                                <ellipse id="Oval" fill="#8C3B28" cx="95.4004111" cy="30.3773241" rx="1.25724444" ry="1.25469425"></ellipse>
                                <ellipse id="Oval" fill="#8C3B28" cx="40.3821778" cy="57.0557885" rx="1.25724444" ry="1.25469425"></ellipse>
                                <ellipse id="Oval" fill="#8C3B28" cx="47.9248889" cy="36.5763356" rx="1.25705556" ry="1.25450575"></ellipse>
                                <path d="M33.7638889,19.3071356 C33.7638889,20.0002713 33.201,20.5622069 32.5064556,20.5622069 C31.8122889,20.5622069 31.2495889,20.0002713 31.2495889,19.3071356 C31.2495889,18.6145655 31.8122889,18.0526299 32.5064556,18.0526299 C33.201,18.0526299 33.7638889,18.6145655 33.7638889,19.3071356 L33.7638889,19.3071356 L33.7638889,19.3071356 Z" id="Shape" fill="#8C3B28"></path>
                                <ellipse id="Oval" fill="#8C3B28" cx="37.1654" cy="13.5509241" rx="1.25705556" ry="1.25450575"></ellipse>
                                <path d="M40.1972556,19.6392828 C40.1972556,20.3324184 39.6345556,20.894354 38.9402,20.894354 C38.2458444,20.894354 37.6831444,20.3324184 37.6831444,19.6392828 C37.6831444,18.9467126 38.2458444,18.3849655 38.9402,18.3849655 C39.6345556,18.3849655 40.1972556,18.9467126 40.1972556,19.6392828 L40.1972556,19.6392828 L40.1972556,19.6392828 Z" id="Shape" fill="#8C3B28"></path>
                                <path d="M46.2979889,19.3071356 C46.2979889,20.0002713 45.7352889,20.5622069 45.0411222,20.5622069 C44.3465778,20.5622069 43.7835,20.0002713 43.7835,19.3071356 C43.7835,18.6145655 44.3465778,18.0526299 45.0411222,18.0526299 C45.7354778,18.0526299 46.2979889,18.6145655 46.2979889,19.3071356 L46.2979889,19.3071356 L46.2979889,19.3071356 Z" id="Shape" fill="#8C3B28"></path>
                                <ellipse id="Oval" fill="#8C3B28" cx="50.8090333" cy="18.0897655" rx="1.25724444" ry="1.25469425"></ellipse>
                                <path d="M26.4427444,18.7536828 C26.4427444,19.4466299 25.8798556,20.0085655 25.1856889,20.0085655 C24.4911444,20.0085655 23.9284444,19.4466299 23.9284444,18.7536828 C23.9284444,18.0611126 24.4911444,17.499177 25.1856889,17.499177 C25.8798556,17.499177 26.4427444,18.0611126 26.4427444,18.7536828 L26.4427444,18.7536828 L26.4427444,18.7536828 Z" id="Shape" fill="#8C3B28"></path>
                                <ellipse id="Oval" fill="#8C3B28" cx="19.5282778" cy="26.3923126" rx="1.25705556" ry="1.25450575"></ellipse>
                                <ellipse id="Oval" fill="#8C3B28" cx="19.0843889" cy="20.8572184" rx="1.25724444" ry="1.25469425"></ellipse>
                                <ellipse id="Oval" fill="#8C3B28" cx="58.2406778" cy="41.5581655" rx="1.25705556" ry="1.25450575"></ellipse>
                                <ellipse id="Oval" fill="#8C3B28" cx="56.5771333" cy="47.9784828" rx="1.25724444" ry="1.25469425"></ellipse>
                                <ellipse id="Oval" fill="#8C3B28" cx="52.8054" cy="53.956377" rx="1.25724444" ry="1.25469425"></ellipse>
                                <ellipse id="Oval" fill="#8C3B28" cx="46.4827222" cy="56.8341057" rx="1.25743333" ry="1.25488276"></ellipse>
                                <ellipse id="Oval" fill="#8C3B28" cx="55.6897333" cy="35.9122299" rx="1.25724444" ry="1.25469425"></ellipse>
                                <ellipse id="Oval" fill="#FFF9B0" cx="9.86925556" cy="63.7601839" rx="1.25724444" ry="1.25469425"></ellipse>
                                <ellipse id="Oval" fill="#FFF9B0" cx="14.6390778" cy="59.1105011" rx="1.25705556" ry="1.25450575"></ellipse>
                                <ellipse id="Oval" fill="#FFF9B0" cx="18.7432556" cy="52.8010253" rx="1.25724444" ry="1.25469425"></ellipse>
                                <ellipse id="Oval" fill="#FFF9B0" cx="23.9565889" cy="38.852731" rx="1.25724444" ry="1.25469425"></ellipse>
                                <ellipse id="Oval" fill="#FFF9B0" cx="26.0642111" cy="31.9892368" rx="1.25705556" ry="1.25450575"></ellipse>
                                <ellipse id="Oval" fill="#FFF9B0" cx="21.4054556" cy="45.9377195" rx="1.25705556" ry="1.25450575"></ellipse>
                                <ellipse id="Oval" fill="#FFF9B0" cx="20.0741667" cy="62.5422483" rx="1.25724444" ry="1.25469425"></ellipse>
                                <ellipse id="Oval" fill="#FFF9B0" cx="27.0624889" cy="60.5497425" rx="1.25724444" ry="1.25469425"></ellipse>
                                <ellipse id="Oval" fill="#FFF9B0" cx="31.8321222" cy="55.0146483" rx="1.25724444" ry="1.25469425"></ellipse>
                                <ellipse id="Oval" fill="#FFF9B0" cx="35.1599667" cy="47.9302253" rx="1.25724444" ry="1.25469425"></ellipse>
                                <ellipse id="Oval" fill="#FFF9B0" cx="35.4926" cy="40.2915954" rx="1.25705556" ry="1.25450575"></ellipse>
                                <ellipse id="Oval" fill="#FFF9B0" cx="30.7231556" cy="37.081531" rx="1.25705556" ry="1.25450575"></ellipse>
                                <ellipse id="Oval" fill="#FFF9B0" cx="10.6455889" cy="47.9302253" rx="1.25705556" ry="1.25450575"></ellipse>
                                <ellipse id="Oval" fill="#FFF9B0" cx="11.5331778" cy="53.6866253" rx="1.25724444" ry="1.25469425"></ellipse>
                                <ellipse id="Oval" fill="#FFF9B0" cx="4.65554444" cy="66.8595954" rx="1.25705556" ry="1.25450575"></ellipse>
                                <ellipse id="Oval" fill="#FFF9B0" cx="28.7264111" cy="25.4582667" rx="1.25705556" ry="1.25450575"></ellipse>
                                <path d="M29.2071333,69.6268598 C29.2071333,70.3199954 28.6442444,70.8817425 27.9500778,70.8817425 C27.2555333,70.8817425 26.6928333,70.3199954 26.6928333,69.6268598 C26.6928333,68.9342897 27.2555333,68.3725425 27.9500778,68.3725425 C28.6442444,68.3725425 29.2071333,68.9342897 29.2071333,69.6268598 L29.2071333,69.6268598 L29.2071333,69.6268598 Z" id="Shape" fill="#FFF9B0"></path>
                                <ellipse id="Oval" fill="#FFF9B0" cx="32.7197111" cy="66.4169839" rx="1.25705556" ry="1.25450575"></ellipse>
                                <ellipse id="Oval" fill="#FFF9B0" cx="36.4912556" cy="62.0994483" rx="1.25724444" ry="1.25469425"></ellipse>
                                <ellipse id="Oval" fill="#FFF9B0" cx="42.5918" cy="49.3690897" rx="1.25724444" ry="1.25469425"></ellipse>
                                <path d="M46.0675444,42.5055954 C46.0675444,43.198731 45.5048444,43.7604782 44.8106778,43.7604782 C44.1165111,43.7604782 43.5534333,43.198731 43.5534333,42.5055954 C43.5534333,41.8132138 44.1163222,41.2512782 44.8106778,41.2512782 C45.5050333,41.2512782 46.0675444,41.8132138 46.0675444,42.5055954 L46.0675444,42.5055954 L46.0675444,42.5055954 Z" id="Shape" fill="#FFF9B0"></path>
                                <ellipse id="Oval" fill="#FFF9B0" cx="77.8658556" cy="38.2994667" rx="1.25705556" ry="1.25450575"></ellipse>
                                <ellipse id="Oval" fill="#FFF9B0" cx="76.2019333" cy="44.7195954" rx="1.25724444" ry="1.25469425"></ellipse>
                                <ellipse id="Oval" fill="#FFF9B0" cx="72.4305778" cy="50.6974897" rx="1.25705556" ry="1.25450575"></ellipse>
                                <ellipse id="Oval" fill="#FFF9B0" cx="69.3356333" cy="35.2045793" rx="1.25705556" ry="1.25450575"></ellipse>
                                <ellipse id="Oval" fill="#FFF9B0" cx="65.6995222" cy="41.0846391" rx="1.25705556" ry="1.25450575"></ellipse>
                                <ellipse id="Oval" fill="#FFF9B0" cx="63.8206444" cy="47.7926161" rx="1.25724444" ry="1.25469425"></ellipse>
                                <ellipse id="Oval" fill="#FFF9B0" cx="66.1079" cy="53.5755954" rx="1.25705556" ry="1.25450575"></ellipse>
                                <ellipse id="Oval" fill="#FFF9B0" cx="75.3145333" cy="32.653908" rx="1.25724444" ry="1.25469425"></ellipse>
                                <ellipse id="Oval" fill="#8C3B28" cx="139.417189" cy="27.7382437" rx="1.25705556" ry="1.25450575"></ellipse>
                                <ellipse id="Oval" fill="#8C3B28" cx="130.260989" cy="36.2649241" rx="1.25705556" ry="1.25450575"></ellipse>
                                <ellipse id="Oval" fill="#8C3B28" cx="131.554878" cy="46.7711034" rx="1.25724444" ry="1.25469425"></ellipse>
                                <ellipse id="Oval" fill="#8C3B28" cx="129.515067" cy="27.8029011" rx="1.25705556" ry="1.25450575"></ellipse>
                                <ellipse id="Oval" fill="#8C3B28" cx="125.878956" cy="33.6831494" rx="1.25705556" ry="1.25450575"></ellipse>
                                <ellipse id="Oval" fill="#8C3B28" cx="124.000078" cy="39.8644414" rx="1.25724444" ry="1.25469425"></ellipse>
                                <ellipse id="Oval" fill="#8C3B28" cx="125.548589" cy="46.068731" rx="1.25705556" ry="1.25450575"></ellipse>
                                <ellipse id="Oval" fill="#8C3B28" cx="134.755222" cy="25.2520414" rx="1.25705556" ry="1.25450575"></ellipse>
                                <ellipse id="Oval" fill="#FFF9B0" cx="138.9648" cy="27.1363448" rx="1.25705556" ry="1.25450575"></ellipse>
                                <ellipse id="Oval" fill="#FFF9B0" cx="129.8086" cy="35.6630253" rx="1.25724444" ry="1.25469425"></ellipse>
                                <ellipse id="Oval" fill="#8C3B28" cx="136.275967" cy="33.4215034" rx="1.25705556" ry="1.25450575"></ellipse>
                                <ellipse id="Oval" fill="#FFF9B0" cx="136.140156" cy="32.6088552" rx="1.25724444" ry="1.25469425"></ellipse>
                                <ellipse id="Oval" fill="#FFF9B0" cx="130.997089" cy="46.1692046" rx="1.25705556" ry="1.25450575"></ellipse>
                                <ellipse id="Oval" fill="#FFF9B0" cx="129.062678" cy="27.2010023" rx="1.25686667" ry="1.25431724"></ellipse>
                                <ellipse id="Oval" fill="#FFF9B0" cx="125.426567" cy="33.0810621" rx="1.25705556" ry="1.25450575"></ellipse>
                                <ellipse id="Oval" fill="#FFF9B0" cx="123.547689" cy="39.262354" rx="1.25724444" ry="1.25469425"></ellipse>
                                <ellipse id="Oval" fill="#FFF9B0" cx="125.096389" cy="45.4666437" rx="1.25705556" ry="1.25450575"></ellipse>
                                <ellipse id="Oval" fill="#FFF9B0" cx="134.6196" cy="24.4393931" rx="1.25724444" ry="1.25469425"></ellipse>
                                <ellipse id="Oval" fill="#8C3B28" cx="117.7845" cy="33.8463954" rx="1.25705556" ry="1.25450575"></ellipse>
                                <ellipse id="Oval" fill="#8C3B28" cx="116.120767" cy="40.2667126" rx="1.25705556" ry="1.25450575"></ellipse>
                                <ellipse id="Oval" fill="#8C3B28" cx="112.349411" cy="46.2446069" rx="1.25724444" ry="1.25469425"></ellipse>
                                <ellipse id="Oval" fill="#8C3B28" cx="105.618167" cy="36.6317563" rx="1.25705556" ry="1.25450575"></ellipse>
                                <ellipse id="Oval" fill="#8C3B28" cx="103.739289" cy="43.3395448" rx="1.25724444" ry="1.25469425"></ellipse>
                                <ellipse id="Oval" fill="#8C3B28" cx="106.026544" cy="49.1227126" rx="1.25705556" ry="1.25450575"></ellipse>
                                <ellipse id="Oval" fill="#8C3B28" cx="115.127589" cy="28.0954621" rx="1.25705556" ry="1.25450575"></ellipse>
                                <ellipse id="Oval" fill="#FFF9B0" cx="117.332111" cy="33.244308" rx="1.25705556" ry="1.25450575"></ellipse>
                                <ellipse id="Oval" fill="#FFF9B0" cx="115.668378" cy="39.6648138" rx="1.25724444" ry="1.25469425"></ellipse>
                                <ellipse id="Oval" fill="#FFF9B0" cx="111.897022" cy="45.642708" rx="1.25705556" ry="1.25450575"></ellipse>
                                <g id="Oval" transform="translate(106.533333, 28.275862)">
                                    <ellipse fill="#8C3B28" cx="1.77121111" cy="1.94914943" rx="1.25686667" ry="1.25431724"></ellipse>
                                    <ellipse fill="#FFF9B0" cx="1.31882222" cy="1.34725057" rx="1.25705556" ry="1.25450575"></ellipse>
                                </g>
                                <g id="Oval" transform="translate(108.422222, 22.243678)">
                                    <ellipse fill="#8C3B28" cx="1.88737778" cy="1.97874483" rx="1.25686667" ry="1.25431724"></ellipse>
                                    <ellipse fill="#FFF9B0" cx="1.43517778" cy="1.37684598" rx="1.25705556" ry="1.25450575"></ellipse>
                                </g>
                                <ellipse id="Oval" fill="#FFF9B0" cx="105.165778" cy="36.0298575" rx="1.25705556" ry="1.25450575"></ellipse>
                                <ellipse id="Oval" fill="#FFF9B0" cx="103.2869" cy="42.737646" rx="1.25705556" ry="1.25450575"></ellipse>
                                <path d="M105.574156,49.775131 C106.268408,49.775131 106.831211,49.2134697 106.831211,48.5206253 C106.831211,47.8277809 106.268408,47.2661195 105.574156,47.2661195 C104.879903,47.2661195 104.3171,47.8277809 104.3171,48.5206253 C104.3171,49.2134697 104.879903,49.775131 105.574156,49.775131 Z" id="Oval" fill="#FFF9B0"></path>
                                <ellipse id="Oval" fill="#FFF9B0" cx="114.6752" cy="27.4935632" rx="1.25705556" ry="1.25450575"></ellipse>
                                <ellipse id="Oval" fill="#FFF9B0" cx="97.4997222" cy="35.4211724" rx="1.25724444" ry="1.25469425"></ellipse>
                                <ellipse id="Oval" fill="#FFF9B0" cx="100.161544" cy="28.8896368" rx="1.25724444" ry="1.25469425"></ellipse>
                                <ellipse id="Oval" fill="#FFF9B0" cx="95.1697778" cy="41.8416782" rx="1.25743333" ry="1.25488276"></ellipse>
                                <ellipse id="Oval" fill="#FFF9B0" cx="92.3970778" cy="48.594331" rx="1.25705556" ry="1.25450575"></ellipse>
                                <ellipse id="Oval" fill="#FFF9B0" cx="89.9564444" cy="54.6828782" rx="1.25705556" ry="1.25450575"></ellipse>
                                <ellipse id="Oval" fill="#FFF9B0" cx="87.7381333" cy="59.9286161" rx="1.25705556" ry="1.25450575"></ellipse>
                                <ellipse id="Oval" fill="#FFF9B0" cx="94.9425444" cy="58.1521379" rx="1.25705556" ry="1.25450575"></ellipse>
                                <ellipse id="Oval" fill="#FFF9B0" cx="80.8554" cy="61.1356184" rx="1.25705556" ry="1.25450575"></ellipse>
                                <ellipse id="Oval" fill="#FFF9B0" cx="74.5380111" cy="63.9814897" rx="1.25686667" ry="1.25431724"></ellipse>
                                <path d="M71.0256222,69.0737839 C71.0256222,69.766354 70.4627333,70.3282897 69.7689444,70.3282897 C69.0740222,70.3282897 68.5113222,69.766354 68.5113222,69.0737839 C68.5113222,68.3808368 69.0740222,67.8190897 69.7689444,67.8190897 C70.4625444,67.8189011 71.0256222,68.3808368 71.0256222,69.0737839 L71.0256222,69.0737839 L71.0256222,69.0737839 Z" id="Shape" fill="#FFF9B0"></path>
                                <ellipse id="Oval" fill="#FFF9B0" cx="70.4340222" cy="75.161954" rx="1.25686667" ry="1.25431724"></ellipse>
                                <ellipse id="Oval" fill="#FFF9B0" cx="76.4238778" cy="75.3834483" rx="1.25705556" ry="1.25450575"></ellipse>
                                <ellipse id="Oval" fill="#FFF9B0" cx="81.9700333" cy="71.5092782" rx="1.25724444" ry="1.25469425"></ellipse>
                                <path d="M86.5547444,65.8953885 C86.5547444,66.5887126 85.9920444,67.1500828 85.2980667,67.1500828 C84.6031444,67.1500828 84.0404444,66.5885241 84.0404444,65.8953885 C84.0404444,65.2026299 84.6031444,64.6412598 85.2980667,64.6412598 C85.9922333,64.6412598 86.5547444,65.2028184 86.5547444,65.8953885 L86.5547444,65.8953885 L86.5547444,65.8953885 Z" id="Shape" fill="#FFF9B0"></path>
                                <ellipse id="Oval" fill="#FFF9B0" cx="102.171889" cy="57.4531586" rx="1.25686667" ry="1.25431724"></ellipse>
                                <g id="Oval" transform="translate(108.422222, 56.174713)">
                                    <ellipse fill="#8C3B28" cx="1.79992222" cy="1.88034483" rx="1.25705556" ry="1.25450575"></ellipse>
                                    <ellipse fill="#FFF9B0" cx="1.34753333" cy="1.27844598" rx="1.25705556" ry="1.25450575"></ellipse>
                                </g>
                                <g id="Oval" transform="translate(115.411111, 56.551724)">
                                    <ellipse fill="#8C3B28" cx="1.88114444" cy="2.03001839" rx="1.25686667" ry="1.25431724"></ellipse>
                                    <ellipse fill="#FFF9B0" cx="1.42875556" cy="1.42811954" rx="1.25686667" ry="1.25431724"></ellipse>
                                </g>
                                <g id="Oval" transform="translate(123.533333, 57.305747)">
                                    <ellipse fill="#8C3B28" cx="1.88435556" cy="2.01324138" rx="1.25705556" ry="1.25450575"></ellipse>
                                    <ellipse fill="#FFF9B0" cx="1.43215556" cy="1.41115402" rx="1.25705556" ry="1.25450575"></ellipse>
                                </g>
                                <g id="Oval" transform="translate(131.655556, 57.871264)">
                                    <ellipse fill="#8C3B28" cx="1.88756667" cy="1.97422069" rx="1.25705556" ry="1.25450575"></ellipse>
                                    <ellipse fill="#FFF9B0" cx="1.43517778" cy="1.37213333" rx="1.25705556" ry="1.25450575"></ellipse>
                                </g>
                                <g id="Oval" transform="translate(138.833333, 57.871264)">
                                    <ellipse fill="#8C3B28" cx="1.7799" cy="1.86884598" rx="1.25705556" ry="1.25450575"></ellipse>
                                    <ellipse fill="#FFF9B0" cx="1.3277" cy="1.26694713" rx="1.25705556" ry="1.25450575"></ellipse>
                                </g>
                                <g id="Oval" transform="translate(145.633333, 56.928736)">
                                    <ellipse fill="#8C3B28" cx="1.73343333" cy="1.86356782" rx="1.25705556" ry="1.25450575"></ellipse>
                                    <ellipse fill="#FFF9B0" cx="1.28123333" cy="1.26166897" rx="1.25705556" ry="1.25450575"></ellipse>
                                </g>
                                <g id="Oval" transform="translate(152.244444, 55.043678)">
                                    <ellipse fill="#8C3B28" cx="1.87604444" cy="1.95838621" rx="1.25705556" ry="1.25450575"></ellipse>
                                    <ellipse fill="#FFF9B0" cx="1.42365556" cy="1.35629885" rx="1.25686667" ry="1.25431724"></ellipse>
                                </g>
                                <g id="Oval" transform="translate(158.666667, 52.404598)">
                                    <ellipse fill="#8C3B28" cx="1.78537778" cy="1.85923218" rx="1.25705556" ry="1.25450575"></ellipse>
                                    <ellipse fill="#FFF9B0" cx="1.33298889" cy="1.25733333" rx="1.25686667" ry="1.25431724"></ellipse>
                                </g>
                                <g id="Oval" transform="translate(163.955556, 48.634483)">
                                    <ellipse fill="#8C3B28" cx="1.77253333" cy="1.94368276" rx="1.25705556" ry="1.25450575"></ellipse>
                                    <ellipse fill="#FFF9B0" cx="1.32033333" cy="1.3415954" rx="1.25705556" ry="1.25450575"></ellipse>
                                </g>
                                <g id="Oval" transform="translate(136.000000, 41.848276)">
                                    <ellipse fill="#8C3B28" cx="1.86962222" cy="1.98986667" rx="1.25705556" ry="1.25450575"></ellipse>
                                    <ellipse fill="#FFF9B0" cx="1.41723333" cy="1.38796782" rx="1.25705556" ry="1.25450575"></ellipse>
                                </g>
                                <g id="Oval" transform="translate(148.466667, 21.678161)">
                                    <ellipse fill="#8C3B28" cx="1.7493" cy="1.94028966" rx="1.25705556" ry="1.25450575"></ellipse>
                                    <ellipse fill="#FFF9B0" cx="1.2971" cy="1.3383908" rx="1.25705556" ry="1.25450575"></ellipse>
                                </g>
                                <g id="Oval" transform="translate(146.011111, 27.144828)">
                                    <ellipse fill="#8C3B28" cx="1.77782222" cy="1.94971494" rx="1.25686667" ry="1.25431724"></ellipse>
                                    <ellipse fill="#FFF9B0" cx="1.32562222" cy="1.34781609" rx="1.25686667" ry="1.25431724"></ellipse>
                                </g>
                                <g id="Oval" transform="translate(143.933333, 32.611494)">
                                    <ellipse fill="#8C3B28" cx="1.74514444" cy="1.95932874" rx="1.25705556" ry="1.25450575"></ellipse>
                                    <ellipse fill="#FFF9B0" cx="1.29275556" cy="1.35742989" rx="1.25705556" ry="1.25450575"></ellipse>
                                </g>
                                <g id="Oval" transform="translate(142.044444, 38.266667)">
                                    <ellipse fill="#8C3B28" cx="1.84015556" cy="1.88562299" rx="1.25705556" ry="1.25450575"></ellipse>
                                    <ellipse fill="#FFF9B0" cx="1.38776667" cy="1.28372414" rx="1.25705556" ry="1.25450575"></ellipse>
                                </g>
                                <g id="Oval" transform="translate(160.555556, 19.793103)">
                                    <ellipse fill="#8C3B28" cx="1.79576667" cy="1.92973333" rx="1.25705556" ry="1.25450575"></ellipse>
                                    <ellipse fill="#FFF9B0" cx="1.34356667" cy="1.32783448" rx="1.25705556" ry="1.25450575"></ellipse>
                                </g>
                                <g id="Oval" transform="translate(158.100000, 25.259770)">
                                    <ellipse fill="#8C3B28" cx="1.82428889" cy="1.93915862" rx="1.25686667" ry="1.25431724"></ellipse>
                                    <ellipse fill="#FFF9B0" cx="1.37208889" cy="1.33725977" rx="1.25686667" ry="1.25431724"></ellipse>
                                </g>
                                <g id="Oval" transform="translate(156.022222, 30.726437)">
                                    <ellipse fill="#8C3B28" cx="1.79161111" cy="1.94877241" rx="1.25705556" ry="1.25450575"></ellipse>
                                    <ellipse fill="#FFF9B0" cx="1.33922222" cy="1.34687356" rx="1.25705556" ry="1.25450575"></ellipse>
                                </g>
                                <g id="Oval" transform="translate(155.077778, 36.004598)">
                                    <ellipse fill="#8C3B28" cx="1.78632222" cy="1.93614253" rx="1.25686667" ry="1.25431724"></ellipse>
                                    <ellipse fill="#FFF9B0" cx="1.33393333" cy="1.33424368" rx="1.25686667" ry="1.25431724"></ellipse>
                                </g>
                                <g id="Oval" transform="translate(150.355556, 40.151724)">
                                    <ellipse fill="#8C3B28" cx="1.86546667" cy="1.89617931" rx="1.25705556" ry="1.25450575"></ellipse>
                                    <ellipse fill="#FFF9B0" cx="1.41307778" cy="1.29409195" rx="1.25705556" ry="1.25450575"></ellipse>
                                </g>
                                <g id="Oval" transform="translate(145.066667, 42.225287)">
                                    <ellipse fill="#8C3B28" cx="1.87812222" cy="2.03416552" rx="1.25705556" ry="1.25450575"></ellipse>
                                    <ellipse fill="#FFF9B0" cx="1.42573333" cy="1.43226667" rx="1.25705556" ry="1.25450575"></ellipse>
                                </g>
                                <ellipse id="Oval" fill="#FFF9B0" cx="88.9693111" cy="32.3262851" rx="1.25705556" ry="1.25450575"></ellipse>
                                <path d="M84.3823333,37.3859678 C83.9282444,37.9094483 83.9852889,38.7021149 84.5100222,39.1550943 C85.0353222,39.6090161 85.8292222,39.5517103 86.2840667,39.0276644 C86.7381556,38.5038069 86.6807333,37.7117057 86.1556222,37.2577839 C85.6308889,36.8046161 84.8369889,36.8617333 84.3823333,37.3859678 L84.3823333,37.3859678 L84.3823333,37.3859678 Z" id="Shape" fill="#FFF9B0"></path>
                                <ellipse id="Oval" fill="#FFF9B0" cx="83.4541333" cy="44.9145103" rx="1.25724444" ry="1.25469425"></ellipse>
                                <ellipse id="Oval" fill="#FFF9B0" cx="85.7412" cy="50.6974897" rx="1.25724444" ry="1.25469425"></ellipse>
                                <ellipse id="Oval" fill="#FFF9B0" cx="94.9480222" cy="29.7754253" rx="1.25724444" ry="1.25469425"></ellipse>
                                <ellipse id="Oval" fill="#FFF9B0" cx="39.9297889" cy="56.4537011" rx="1.25724444" ry="1.25469425"></ellipse>
                                <ellipse id="Oval" fill="#FFF9B0" cx="47.4725" cy="35.9744368" rx="1.25705556" ry="1.25450575"></ellipse>
                                <path d="M33.3113111,18.7052368 C33.3113111,19.3981839 32.7484222,19.9601195 32.0540667,19.9601195 C31.3599,19.9601195 30.7972,19.3981839 30.7972,18.7052368 C30.7972,18.0126667 31.3599,17.450731 32.0540667,17.450731 C32.7484222,17.450731 33.3113111,18.0126667 33.3113111,18.7052368 L33.3113111,18.7052368 L33.3113111,18.7052368 Z" id="Shape" fill="#FFF9B0"></path>
                                <ellipse id="Oval" fill="#FFF9B0" cx="36.7130111" cy="12.9490253" rx="1.25705556" ry="1.25450575"></ellipse>
                                <path d="M39.7448667,19.0373839 C39.7448667,19.7305195 39.1821667,20.2926437 38.4878111,20.2926437 C37.7934556,20.2926437 37.2305667,19.730708 37.2305667,19.0373839 C37.2305667,18.3448138 37.7934556,17.7832552 38.4878111,17.7832552 C39.1823556,17.7830667 39.7448667,18.3448138 39.7448667,19.0373839 L39.7448667,19.0373839 L39.7448667,19.0373839 Z" id="Shape" fill="#FFF9B0"></path>
                                <path d="M45.8457889,18.7052368 C45.8457889,19.3981839 45.2830889,19.9601195 44.5887333,19.9601195 C43.8943778,19.9601195 43.3311111,19.3981839 43.3311111,18.7052368 C43.3311111,18.0126667 43.8943778,17.450731 44.5887333,17.450731 C45.2830889,17.450731 45.8457889,18.0126667 45.8457889,18.7052368 L45.8457889,18.7052368 L45.8457889,18.7052368 Z" id="Shape" fill="#FFF9B0"></path>
                                <ellipse id="Oval" fill="#FFF9B0" cx="50.3566444" cy="17.4878667" rx="1.25705556" ry="1.25450575"></ellipse>
                                <path d="M25.9903556,18.1517839 C25.9903556,18.8449195 25.4274667,19.4068552 24.7334889,19.4068552 C24.0389444,19.4068552 23.4762444,18.8449195 23.4762444,18.1517839 C23.4762444,17.4592138 24.0389444,16.8972782 24.7334889,16.8972782 C25.4272778,16.8972782 25.9903556,17.4592138 25.9903556,18.1517839 L25.9903556,18.1517839 L25.9903556,18.1517839 Z" id="Shape" fill="#FFF9B0"></path>
                                <ellipse id="Oval" fill="#FFF9B0" cx="19.0758889" cy="25.7902253" rx="1.25705556" ry="1.25450575"></ellipse>
                                <ellipse id="Oval" fill="#FFF9B0" cx="18.6321889" cy="20.2553195" rx="1.25724444" ry="1.25469425"></ellipse>
                                <ellipse id="Oval" fill="#FFF9B0" cx="57.7884778" cy="40.9562667" rx="1.25705556" ry="1.25450575"></ellipse>
                                <ellipse id="Oval" fill="#FFF9B0" cx="56.1247444" cy="47.3765839" rx="1.25724444" ry="1.25469425"></ellipse>
                                <ellipse id="Oval" fill="#FFF9B0" cx="52.3530111" cy="53.3544782" rx="1.25705556" ry="1.25450575"></ellipse>
                                <ellipse id="Oval" fill="#FFF9B0" cx="46.0303333" cy="56.2323954" rx="1.25743333" ry="1.25488276"></ellipse>
                                <ellipse id="Oval" fill="#FFF9B0" cx="55.2371556" cy="35.3101425" rx="1.25724444" ry="1.25469425"></ellipse>
                                <g id="Oval" transform="translate(110.311111, 16.777011)">
                                    <ellipse fill="#8C3B28" cx="1.89795556" cy="1.86394483" rx="1.25705556" ry="1.25450575"></ellipse>
                                    <ellipse fill="#FFF9B0" cx="1.44556667" cy="1.26204598" rx="1.25686667" ry="1.25431724"></ellipse>
                                </g>
                                <g id="Oval" transform="translate(104.077778, 18.285057)">
                                    <ellipse fill="#8C3B28" cx="1.79973333" cy="1.93557701" rx="1.25705556" ry="1.25450575"></ellipse>
                                    <ellipse fill="#FFF9B0" cx="1.34753333" cy="1.33348966" rx="1.25686667" ry="1.25431724"></ellipse>
                                </g>
                                <g id="Oval" transform="translate(98.600000, 18.285057)">
                                    <ellipse fill="#8C3B28" cx="1.79028889" cy="2.04076322" rx="1.25705556" ry="1.25450575"></ellipse>
                                    <ellipse fill="#FFF9B0" cx="1.3379" cy="1.43886437" rx="1.25705556" ry="1.25450575"></ellipse>
                                </g>
                                <g id="Oval" transform="translate(116.922222, 14.514943)">
                                    <ellipse fill="#8C3B28" cx="1.82938889" cy="2.01983908" rx="1.25686667" ry="1.25431724"></ellipse>
                                    <ellipse fill="#FFF9B0" cx="1.377" cy="1.41775172" rx="1.25705556" ry="1.25450575"></ellipse>
                                </g>
                                <g id="Oval" transform="translate(122.211111, 11.310345)">
                                    <ellipse fill="#8C3B28" cx="1.81673333" cy="1.95970575" rx="1.25686667" ry="1.25431724"></ellipse>
                                    <ellipse fill="#FFF9B0" cx="1.36453333" cy="1.3578069" rx="1.25686667" ry="1.25431724"></ellipse>
                                </g>
                                <g id="Oval" transform="translate(125.611111, 6.409195)">
                                    <ellipse fill="#8C3B28" cx="1.7935" cy="2.01663448" rx="1.25686667" ry="1.25431724"></ellipse>
                                    <ellipse fill="#FFF9B0" cx="1.3413" cy="1.41454713" rx="1.25705556" ry="1.25450575"></ellipse>
                                </g>
                                <g id="Oval" transform="translate(125.233333, 1.508046)">
                                    <ellipse fill="#8C3B28" cx="1.8547" cy="1.86281379" rx="1.25686667" ry="1.25431724"></ellipse>
                                    <ellipse fill="#FFF9B0" cx="1.4025" cy="1.26072644" rx="1.25705556" ry="1.25450575"></ellipse>
                                </g>
                                <g id="Oval" transform="translate(119.755556, 2.639080)">
                                    <ellipse fill="#8C3B28" cx="1.84525556" cy="1.89014713" rx="1.25686667" ry="1.25431724"></ellipse>
                                    <ellipse fill="#FFF9B0" cx="1.39286667" cy="1.28824828" rx="1.25705556" ry="1.25450575"></ellipse>
                                </g>
                                <g id="Oval" transform="translate(112.577778, 11.310345)">
                                    <ellipse fill="#8C3B28" cx="1.74174444" cy="1.95970575" rx="1.25686667" ry="1.25431724"></ellipse>
                                    <ellipse fill="#FFF9B0" cx="1.28935556" cy="1.3578069" rx="1.25686667" ry="1.25431724"></ellipse>
                                </g>
                                <g id="Oval" transform="translate(115.411111, 6.409195)">
                                    <ellipse fill="#8C3B28" cx="1.86301111" cy="2.01663448" rx="1.25686667" ry="1.25431724"></ellipse>
                                    <ellipse fill="#FFF9B0" cx="1.41081111" cy="1.41454713" rx="1.25705556" ry="1.25450575"></ellipse>
                                </g>
                                <g id="Oval" transform="translate(160.744444, 9.613793)">
                                    <ellipse fill="#8C3B28" cx="1.81805556" cy="1.99910345" rx="1.25705556" ry="1.25450575"></ellipse>
                                    <ellipse fill="#FFF9B0" cx="1.36566667" cy="1.3973931" rx="1.25705556" ry="1.25450575"></ellipse>
                                </g>
                                <g id="Oval" transform="translate(157.344444, 12.441379)">
                                    <ellipse fill="#8C3B28" cx="1.7357" cy="2.01493793" rx="1.25705556" ry="1.25450575"></ellipse>
                                    <ellipse fill="#FFF9B0" cx="1.28331111" cy="1.41303908" rx="1.25705556" ry="1.25450575"></ellipse>
                                </g>
                                <g id="Oval" transform="translate(153.944444, 10.367816)">
                                    <ellipse fill="#8C3B28" cx="1.75893333" cy="1.98232644" rx="1.25705556" ry="1.25450575"></ellipse>
                                    <ellipse fill="#FFF9B0" cx="1.30654444" cy="1.38042759" rx="1.25686667" ry="1.25431724"></ellipse>
                                </g>
                                <g id="Oval" transform="translate(157.911111, 40.528736)">
                                    <ellipse fill="#8C3B28" cx="1.80218889" cy="1.94028966" rx="1.25705556" ry="1.25450575"></ellipse>
                                    <ellipse fill="#FFF9B0" cx="1.3498" cy="1.3383908" rx="1.25686667" ry="1.25431724"></ellipse>
                                </g>
                            </g>
                        </g>
                    </g>
                </g>
            </g>
        </g>
    </g>
</svg>