<?xml version="1.0" encoding="utf-8"?>
<!-- Generator: Adobe Illustrator 21.0.2, SVG Export Plug-In . SVG Version: 6.00 Build 0)  -->
<svg version="1.1" id="Layer_1" xmlns="http://www.w3.org/2000/svg" xmlns:xlink="http://www.w3.org/1999/xlink" x="0px" y="0px"
	 viewBox="0 0 1000 1000" enable-background="new 0 0 1000 1000" xml:space="preserve">
<g>
	<path fill-rule="evenodd" clip-rule="evenodd" fill="#FFFFFF" d="M237.5,554.7c-0.1,20.3,8.9,41.9,20.2,63.2
		c-8.6,5.7-15.9,12.8-21.8,24.6c6.2,1.9,12.7,3.4,19.2,4.4c3.9-6.7,11.9-16.7,25.1-16.4c12.8,0.2,20.8,9.5,24.9,16
		c2.7-0.5,5.3-1,7.9-1.6c2.6-9-3.1-17.8-9-21.9c18-7.3,32.4-24,25.8-45.1c-6.1-19.7-33.4-27.8-48.9-14.9c-7.6,6.4-8.3,15-4.9,21.1
		c6.6,11.8,23.4,10,27.1-0.8c2-5.8-2.3-10.7-2.3-10.7c14.9,8,15.4,36.9-11,35c-13.5-1-32.3-17.1-26.2-39.2
		c6.1-22.1,28.5-20.9,28.5-20.9s-9.5-6-9.5-19.8c0-3,0.4-6.1,1-9c-0.4,0.2-0.8,0.4-1.3,0.6c-5.5,2.5-11.4,4.2-17.5,4.5
		c-2,3.4-4.2,6.8-6.4,10c-2.5,3.7-5.4,7.1-8.4,10.3c-3.5,3.7-7.6,7.6-12,10.1C237.8,554.5,237.6,554.6,237.5,554.7L237.5,554.7z
		 M249.9,352.8C194.5,363.7,150,405.2,135,459c21.5,20.3,23.6,19.8,54.5,24.9c-17.8,1.2-32.5,8.1-41.3,18.3c3.4-0.8,6.7-1.8,10-2.9
		l3.7-1.2l3.2,7.1l-2.6,1.5c1.7-0.5,3.4-1,5.2-1.5c15.5-4.3,33.3-8.5,49.2-4.1c4.6,1.3,8.8,3.2,12.7,5.7c-5-5.7-9.1-12.3-12.3-19.2
		c-4.8-10.1-7.9-20.9-9-32.1c-0.1-1.2-0.2-2.4-0.3-3.7c-1.1,0.1-2.3,0.3-3.4,0.6l0,0c-11.2,0.5-21.5,4.6-28.2,10.1
		c1.4-12.2,10.4-26.5,23.2-25.8l0,0.1c-5.8-1.5-15.6-5-21.5-10.4c-8.2-7.6-9.5-21.1-9.5-21.1s15.7-1.4,24.4,6.6c2,1.8,3.8,4,5.3,6.3
		c1.1-10.8,5.3-20.5,12.2-29.2c7.5-9.3,17-15.6,28.8-16.2c7.6-12.9,20-20.2,28.5-21.7C261.7,351.3,255.7,351.9,249.9,352.8
		L249.9,352.8z M157.3,586.2c4.4,0.7,14.9,1.3,34.3-3.3c14.2-3.3,22.9-14.8,26.4-27c1,0.4,2,0.7,2.6,0.9c3.4,1.1,6.7,1.5,9.9,0.8
		c-4.5,16.9-3.9,35.4,5.9,53.1l-16.7,17.9c0,0-8.4-24-21.3-22.4c-10.1,1.2-7.8,10.8-6.3,14.9C178.7,611.4,166.9,599.7,157.3,586.2
		L157.3,586.2z M290.5,498.4c-0.5-2.2-2.2-7.2-8.8-14c-2.5,6.1-4.8,12.3-7,18.6c-1.1,3.2-2.4,6.4-3.9,9.5c2.3-0.6,4.6-1.4,6.7-2.4
		c3.7-1.7,7.6-4.4,9.1-8.4C287.3,499.9,288.8,498.7,290.5,498.4L290.5,498.4z M263.9,470.4c-1.5,5.7-3.2,11.3-4.9,16.7
		c-2.5,7.7-5.3,15.3-8.6,22.7c0,0-0.1,0-0.1-0.1c-0.2-0.1-0.4-0.3-0.7-0.4c5.6-12.5,10.5-25.7,14-39.1L263.9,470.4L263.9,470.4z
		 M252.7,463.7c-2.8,13-6.9,25.7-12.1,38c-5.2-5.8-9.2-12.9-12.2-20c-3.8-9-6.4-18.4-7.2-28.2c0-0.4-0.1-0.9-0.1-1.3
		C230.8,453.6,241.5,457.6,252.7,463.7L252.7,463.7z M215,410.4c1.6-4.1,3.7-7.9,6.3-11.6c3.2-4.6,7.2-9,12.2-11.5
		c-0.4,1.6-0.6,3.3-0.9,5c-5.7,2.5-10.4,7-14.2,12.5c-1.2,1.8-2.3,3.6-3.3,5.5L215,410.4L215,410.4z M221.1,433.7
		c0.8-8.1,2.9-16.3,7.1-23.1c1.3-2,2.7-4,4.5-5.6c0.3,2.9,0.8,5.9,1.6,9c4.4,17.7,15.6,23,21.9,24.6c-0.1,1.7-0.3,3.4-0.4,5.1
		c-10.4,7.2-22.8,5.5-30.9-4C223.2,437.7,222,435.7,221.1,433.7L221.1,433.7z M140.4,536.1c0.4,1.4,0.8,2.8,1.3,4.2
		c0.4,1.1,0.9,2.2,1.5,3.3c-1-2.5-1.9-5-2.7-7.6L140.4,536.1L140.4,536.1z M204.6,516.8c3.2,1.9,6.4,4.7,9.4,8.3
		c1.4,1.6,2.5,3.6,3.3,5.7c2.8-0.9,5.5-0.3,8,1c1-1.5,2-3.2,2.9-4.8c-0.1-0.1-0.2-0.2-0.3-0.3C221.1,519.9,213,516.4,204.6,516.8
		L204.6,516.8z M224,543.5C224,543.5,224,543.5,224,543.5c2.4,0,5.4-0.5,7.2-2.2c0,0,0.1-0.1,0.1-0.1l-4.2,0.9
		c-0.7,0.1-2.5,0.6-3.2,1.1c0,0,0,0.1,0,0.1C223.9,543.4,224,543.4,224,543.5z"/>
	<path fill-rule="evenodd" clip-rule="evenodd" fill="#FFFFFF" d="M472.4,548.4c-11.3,11.9-20.8,17.5-28.7,16.6
		c-2.6-0.3-5-1.9-7.2-4.8c-2.2-3.3-3.6-7.4-4-12.3c-1.8,2.5-3.7,4.8-5.6,6.9c-1.9,2.1-3.9,4-6,5.7c-3.8,3.1-7,4.6-9.5,4.6
		c-3.6,0-5.3-2.3-5.3-6.8c0-3.8,1.3-7.8,4-12c6.3-9.5,13.3-16.1,21.1-19.8c3.4-1.5,6.5-2.3,9.4-2.3c0.8,0,1.6,0.1,2.5,0.4
		c0.9,0.2,1.8,0.6,2.6,1c0.8,0.4,1.5,0.9,2,1.5c0.5,0.6,0.8,1.3,0.8,2c0,0.3-0.2,0.6-0.5,0.8c-0.3,0.2-0.7,0.4-1.2,0.6
		c-0.4,0.1-0.8,0.3-1.2,0.5c-0.4,0.2-0.6,0.3-0.6,0.4c-3.6,6.4-5.3,12.6-5.3,18.5c0,7.3,2.8,11,8.5,11c6,0,13.4-4.8,22.4-14.3
		c0.7-0.9,1.3-1.3,2-1.3c0.5,0,0.7,0.3,0.7,1C473.2,547.2,472.9,547.9,472.4,548.4L472.4,548.4z M159.5,503.5
		c-36.9,21.1-75.7,20.3-102.5,0c18.5,9.8,48.2,1.9,52.8,12.3c2.3-5.7-7.4-12.1-24.2-8.8C108.4,494.9,114.2,518.5,159.5,503.5
		L159.5,503.5z M436.4,529.4c-8-0.2-14.9,5.4-20.6,16.7c-1.6,3.1-2.5,5.8-2.5,8.2c0,2.6,0.9,3.9,2.7,3.9c1.7,0,4-1.2,6.8-3.5
		c5-4.2,8.3-8.5,9.8-12.7C433.3,537.3,434.6,533.1,436.4,529.4L436.4,529.4z M482.6,561.4c-3.8-1.2-7-3.2-9.7-5.9c0,2,0.7,3.7,2.1,5
		c1.4,1.3,2.9,1.9,4.5,1.9C480.9,562.4,481.9,562.1,482.6,561.4L482.6,561.4z M501.9,559.3c-4.6,1.2-9.1,1.3-13.4,0.4
		c0.1-0.4,0.1-0.8,0.1-1.2c0-0.4,0-0.8,0-1.3c-0.1-2.3-1.3-5.4-3.8-9.4c-2.3-3.8-3.5-7.1-3.5-9.8c0-1.3,0.2-2.7,0.7-4.5
		c3.6-10.2,10.6-16.3,21.1-18.2c0.5-0.1,0.9-0.2,1.4-0.2c0.4,0,0.8-0.1,1.2-0.1c3.2,0,4.8,1.2,4.8,3.6c0,1.3-0.5,3-1.6,4.9
		c-0.5,1-0.7,1.6-0.7,2c0,0.7,0.3,1,1,0.9c0.7-0.3,1.4-1,2.3-2.2c2-2.9,3-5.9,3-8.9c0-4.1-2.2-6.5-6.5-7.1c-3.8-0.5-7.9,0-12.1,1.6
		c-12.8,4.7-19.6,12.2-20.5,22.4c-0.5,5.1,1.1,10.1,4.8,15.2c0.7,1,1.3,2,1.8,3c0.5,1.1,1,2.2,1.4,3.5c0.5,1.8,0.7,3.3,0.6,4.5
		c-4.3-1.7-7.9-4.3-10.7-7.6c-0.2-0.2-0.4-0.3-0.7-0.3c-1.1,0-1.6,0.6-1.7,1.9c-0.8,0.8-0.6,3.1,0.4,6.9c0.5,2,1.6,3.7,3.5,5.1
		c1.8,1.4,3.8,2.1,6.1,2.1c3,0,5.2-1.3,6.6-3.9c4.3,0.7,9,0.6,14-0.3c7.2-1.3,14.9-5.8,22.9-13.6c0.7-0.7,1-1.4,1-2.2
		c0-0.8-0.3-1.2-0.9-1.2c-0.7,0-1.2,0.3-1.6,0.9C517.1,552.9,510.1,557.2,501.9,559.3L501.9,559.3z M534.7,561.4c-0.7,0.7-1.7,1-3,1
		c-1.6,0-3.2-0.6-4.5-1.9c-1.4-1.3-2.1-3-2.1-5C527.7,558.2,530.9,560.2,534.7,561.4L534.7,561.4z M554,559.3
		c8.2-2,15.2-6.3,21.1-13c0.4-0.6,0.9-0.9,1.6-0.9c0.6,0,0.9,0.4,0.9,1.2c0,0.8-0.3,1.5-1,2.2c-8.1,7.8-15.7,12.3-22.9,13.6
		c-5,0.9-9.7,1-14,0.3c-1.4,2.6-3.7,3.9-6.6,3.9c-2.2,0-4.2-0.7-6.1-2.1c-1.8-1.4-3-3.1-3.5-5.1c-1.1-3.8-1.2-6.2-0.4-6.9
		c0.1-1.3,0.7-1.9,1.7-1.9c0.3,0,0.5,0.1,0.7,0.3c2.8,3.4,6.3,5.9,10.7,7.6c0.1-1.2-0.1-2.6-0.6-4.5c-0.4-1.3-0.8-2.4-1.4-3.5
		c-0.5-1.1-1.1-2.1-1.8-3c-3.7-5-5.2-10.1-4.8-15.2c0.9-10.2,7.7-17.7,20.5-22.4c4.2-1.5,8.3-2.1,12.1-1.6c4.3,0.6,6.5,2.9,6.5,7.1
		c0,3.1-1,6.1-3,8.9c-0.9,1.2-1.6,1.9-2.3,2.2c-0.7,0.1-1-0.2-1-0.9c0-0.4,0.2-1.1,0.7-2c1.1-1.9,1.6-3.6,1.6-4.9
		c0-2.4-1.6-3.6-4.8-3.6c-0.4,0-0.8,0-1.2,0.1c-0.4,0-0.9,0.1-1.4,0.2c-10.5,1.9-17.5,8-21.1,18.2c-0.5,1.7-0.7,3.2-0.7,4.5
		c0,2.7,1.2,6,3.5,9.8c2.4,3.9,3.7,7.1,3.8,9.4c0,0.5,0,0.9,0,1.3c0,0.4,0,0.8-0.1,1.2C544.9,560.6,549.4,560.4,554,559.3L554,559.3
		z M637.4,548.4c0.6-0.6,0.9-1.3,0.9-2c0-0.7-0.2-1-0.7-1c-0.7,0-1.3,0.4-2,1.3c-8.9,9.5-16.4,14.3-22.4,14.3c-5.7,0-8.5-3.7-8.5-11
		c0-5.9,1.8-12,5.3-18.5c0-0.1,0.2-0.2,0.6-0.4c0.4-0.2,0.8-0.4,1.2-0.5c0.4-0.1,0.8-0.3,1.2-0.6c0.3-0.2,0.5-0.5,0.5-0.8
		c0-0.8-0.3-1.4-0.8-2c-0.5-0.6-1.2-1.1-2-1.5c-0.8-0.4-1.7-0.8-2.6-1c-0.9-0.2-1.8-0.4-2.5-0.4c-2.9,0-6,0.8-9.4,2.3
		c-7.8,3.7-14.8,10.2-21.1,19.8c-2.7,4.1-4,8.1-4,12c0,4.5,1.8,6.8,5.3,6.8c2.5,0,5.7-1.5,9.5-4.6c2.1-1.7,4.1-3.6,6-5.7
		c1.9-2.1,3.7-4.4,5.6-6.9c0.5,4.9,1.8,9,4,12.3c2.2,2.9,4.6,4.5,7.2,4.8C616.6,565.9,626.2,560.4,637.4,548.4L637.4,548.4z
		 M601.5,529.4c-1.8,3.7-3.1,7.9-3.8,12.7c-1.5,4.2-4.8,8.5-9.8,12.7c-2.8,2.3-5.1,3.5-6.8,3.5c-1.8,0-2.7-1.3-2.7-3.9
		c0-2.4,0.8-5.1,2.5-8.2C586.6,534.8,593.5,529.2,601.5,529.4L601.5,529.4z M689.8,531.6c2.2-2.8,3.3-5.2,3.3-7.4
		c0-4.4-3.8-6.6-11.5-6.6c-9.9,0-19.7,3.8-29.4,11.4c-11.9,9.2-17.9,17.9-17.9,26c0,5.6,2.1,8.4,6.3,8.4c3.6,0,7.6-1.8,12.1-5.3
		c1.1-0.9,2.5-2.1,4.2-3.7c1.7-1.6,3.8-3.6,6.2-6l3.5-3.5c-0.9,4.2-1.6,7.8-2.2,10.7c-0.6,2.9-1.1,5.3-1.5,7.1
		c-22.7,5.8-41.1,11.8-55.3,18.2c-14.2,6.3-25,13.4-32.4,21.2c-6.7,7-10.1,13.9-10.1,20.6c0,5.8,2.1,10.5,6.3,14.1
		c4.2,3.6,10,5.4,17.2,5.4c9.5,0,19.3-2.5,29.3-7.5c9.2-4.4,17.5-10.3,24.7-17.7c13.1-13.1,22.5-30.4,28.1-51.9
		c2-0.3,3.8-0.5,5.3-0.6c1.5-0.1,2.8-0.3,3.9-0.4c6.3,0,9.5,1.6,9.5,4.8c0,1.6-1,3.4-3,5.2c-0.4,0.4-0.6,0.8-0.6,1.2
		c0,0.5,0.3,0.7,0.9,0.7c0.4,0,0.8-0.2,1.2-0.6c2.9-2.7,4.3-5.2,4.3-7.6c0-3.9-3.6-6.3-10.8-7.2c-2.6-0.4-5.8-0.3-9.5,0.3
		c2.2-8.9,3.9-16.3,5-22c1.2-5.7,1.8-9.8,2-12.3c0.2-1.6-1.2-2.5-4.2-2.5c-3.2,0-5,0.9-5.3,2.7c-0.2,2.5-0.7,5.3-1.4,8.4
		c-1.2,4-2.5,7-3.9,8.9c-3.8,4.6-8.4,8.1-14,10.5c-2.3,1.1-4.1,1.6-5.3,1.6c-2,0-3-1-3-3c0-5.1,4-11.5,12.1-19.3
		c9.1-8.6,18-12.8,26.7-12.8c6.7,0,10.1,1.5,10.1,4.6c0,1.4-0.8,3.1-2.3,4.9c-0.3,0.5-0.4,0.8-0.4,1c0,0.6,0.3,0.9,0.9,0.9
		C688.9,532.3,689.3,532,689.8,531.6L689.8,531.6z M662,566.8c-5.5,23.3-15.6,41.5-30.3,54.5c-12.4,11-25.1,16.4-38.1,16.4
		c-6.1,0-10.9-1.4-14.6-4.1c-3.7-2.7-5.5-6.6-5.5-11.5c0-6,2.7-12.2,8.1-18.6c3.1-3.7,6.9-7,11.4-10.2c4.5-3.1,9.7-6,15.6-8.7
		c4.1-1.9,8.7-3.8,13.6-5.6c4.9-1.8,10.2-3.6,16-5.4C643.6,572,651.6,569.7,662,566.8L662,566.8z M748,548.4
		c-3.5,4.2-8.9,8.3-16.4,12.1c-8.3,4.3-15.5,6.5-21.6,6.5c-8.9,0-13.4-4.9-13.4-14.7c0-3.6,1.2-7.8,3.6-12.7c2.4-5.2,5.4-9.5,9.1-13
		c4.1-3.9,8-5.9,11.7-5.9c4.8,0,7.2,2.4,7.2,7.1c0,2.9-1.3,6-3.8,9.2c-4.4,5.5-10.9,9.3-19.3,11.4c-0.4,1.6-0.6,3.4-0.6,5.2
		c0,6.5,3,9.8,9.1,9.8c4.8,0,10.8-2,17.9-5.9c3.3-1.8,6.1-3.6,8.5-5.4c2.4-1.8,4.4-3.6,6.1-5.4c1.8-1.9,2.7-2,2.7-0.3
		C748.7,547,748.4,547.7,748,548.4L748,548.4z M721.4,534.9c1.8-3.1,2.7-5.7,2.7-7.9c0-1.7-0.6-2.6-1.7-2.6c-2,0-4.8,2.4-8.4,7.1
		c-3.5,4.8-6.2,9.6-8.2,14.4C713.4,543.4,718.6,539.8,721.4,534.9L721.4,534.9z M746.7,525.1c-2.3,0-3.3,0.7-3,2.2
		c0.2,1.6,1.4,2.6,3.6,2.9c-0.4-0.1-0.1-0.1,0.8-0.1s2.4,0,4.5-0.1c-3.3,7.4-4.9,14-4.9,19.9c0,1,0,1.9,0.1,2.9
		c0.1,1,0.2,1.9,0.4,2.9c1.3,6.2,5,9.3,11.1,9.5c7.8,0.3,17.1-5.3,28-16.7c0.5-0.7,0.7-1.3,0.7-1.9c0-0.7-0.2-1-0.7-1
		c-0.6-0.1-1.3,0.3-2.3,1.3c-2.5,2.7-4.9,5-7.1,6.9c-2.3,1.9-4.4,3.4-6.6,4.7c-3.1,1.7-6,2.6-8.7,2.6c-5.4,0-8.1-3.1-8.1-9.4
		c0-5.6,2.4-12.8,7.1-21.6c6.9-0.1,12.2-0.1,15.9-0.1c3.7,0,5.8,0,6.3-0.1c3.5-0.4,5.2-1.3,5.2-2.7c0-0.8-0.7-1.4-2.2-1.9h-22.5
		c4.1-6.4,7.7-11.9,10.8-16.4c3.1-4.5,5.6-8.2,7.6-11c0.3-0.4,0.4-0.7,0.4-1c0-1.4-1.4-2.2-4.2-2.2c-3.3,0-5.9,1-7.8,2.9
		c-1.8,2.7-3.5,5.1-4.9,7.4c-1.4,2.2-2.7,4.3-3.8,6.2c-1.9,3.5-3.5,6.3-4.8,8.7c-1.3,2.3-2.2,4.1-2.9,5.3c-0.8,0-1.5,0-2.2,0
		c-0.7,0-1.3,0-1.8,0.1c-0.8,0.1-1.5,0.1-2.2,0.1C748,525.1,747.3,525.1,746.7,525.1L746.7,525.1z M810.3,563c0,1.7-0.7,3.2-2,4.5
		c-1.3,1.3-3,1.9-4.9,1.9c-1.9,0-3.6-0.6-4.9-1.9c-1.3-1.3-2-2.7-2-4.5c0-1.8,0.7-3.4,2-4.7c1.3-1.3,3-1.9,4.9-1.9
		c1.9,0,3.6,0.6,4.9,1.9C809.6,559.6,810.3,561.2,810.3,563L810.3,563z M870,479.8c1.2-2.7,1.7-5,1.7-6.9c0-2.4-0.8-3.6-2.5-3.6
		c-2.6,0-5.6,2.8-8.9,8.5c-4.2,7.4-8.2,14.9-11.9,22.5c-3.7,7.6-7.2,15.4-10.5,23.5c3.1-3.1,6.1-6.3,9.2-9.7c3-3.4,6-7,8.9-10.9
		c3.4-4.5,6.2-8.7,8.6-12.6C867,486.7,868.8,483.1,870,479.8L870,479.8z M834.4,540.9c-0.8-2-1.3-3.9-1.7-5.6
		c-4.5,9.7-7.1,17.7-7.8,23.8C827.8,552.4,831,546.3,834.4,540.9L834.4,540.9z M839,525.8c0.1,1.1,0.2,2.1,0.4,3.2
		c0.2,1.1,0.4,2.2,0.7,3.3c1.6-2.2,3.3-4.4,5-6.5c1.7-2.1,3.4-4.1,5.3-6.1c4.6-4.8,9-7.2,13.1-7.2c2.1,0,3.8,0.7,5.2,2
		c1.3,1.3,2,3,2,4.9c0,1.2-0.3,2.4-0.9,3.6c-0.6,1.3-1.3,1.9-2.2,1.9c-1,0-1.5-0.8-1.7-2.5c-0.5-2.8-2.1-4.2-4.9-4.2
		c-3.9,0-8.4,2.9-13.4,8.7c-1.3,1.4-2.4,2.8-3.5,4.2c-1.1,1.3-2.1,2.7-3.1,4c1.9,6.4,4.9,12,8.9,16.6c4.5,5.1,9.4,7.6,14.7,7.6
		c2.8,0,5.6-0.7,8.4-2.2c4.1-2,8.5-5.5,13.1-10.5c1-1,1.7-1.4,2.3-1.4c0.5,0.2,0.7,0.5,0.7,1c0,0.6-0.2,1.2-0.7,1.9
		c-3.9,4-8.8,7.7-14.6,11c-6.5,3.7-12,5.5-16.3,5.5c-4.3,0-8.6-2.2-12.7-6.6c-3.8-3.9-6.9-8.8-9.4-14.4c-1.5,2.5-3.2,5.7-4.8,9.5
		c-1.7,3.8-3.5,8.2-5.4,13.3c-1.3,0.8-2.5,1.2-3.6,1.2c-2.9,0-4.3-2.1-4.3-6.2c0-1.2,0.2-2.3,0.6-3.2c1.4-4.6,3.4-10.1,5.8-16.4
		c2.5-6.3,5.4-13.5,8.7-21.6c8.8-20.8,16-35.4,21.8-43.7c4.8-7.1,10-10.7,15.6-10.7c4.1,0,6.2,2.5,6.2,7.4c0,2.1-0.4,4.5-1.3,7.2
		C870.6,493.3,858.6,508.5,839,525.8L839,525.8z M949.8,575.3c-0.4,0.4-0.8,0.6-1.2,0.6c-0.5,0-0.7-0.2-0.7-0.7
		c0-0.4,0.2-0.8,0.6-1.2c1.9-1.9,2.9-3.7,2.9-5.2c0-3.2-3.1-4.8-9.4-4.8c-1.2,0.1-2.5,0.2-4.1,0.4c-1.6,0.1-3.3,0.4-5.3,0.6
		c-1.5,19-8.6,35.4-21.2,49.2c-13.2,14.4-29.1,21.6-47.6,21.6c-7.9,0-14.2-1.7-19-5.1c-5.2-3.5-7.8-8.3-7.8-14.4
		c0-6.3,2.6-12.4,7.8-18.3c6.1-6.7,15.1-12.8,27.1-18.2c14.7-6.4,32.2-12.1,52.5-17c0-3.2-0.6-5.9-1.7-8.2c-1.5-3-3.9-4.5-7.2-4.5
		c-1.1,0-2.1,0.1-3,0.4c-1.1,0.5-2.3,1-3.8,1.6c-1.5,0.6-3.2,1.2-5.1,1.9c-1.3,0.3-2.3,0.1-3.2-0.4c-0.9-0.6-1.3-1.3-1.3-2.3
		c0-3.5,4.4-5.9,13.3-7.4c2.1-1.1,4-2.1,5.6-3.2c1.6-1.1,3-2.1,4-3.2c3.3-3,4.9-6,4.9-9.1c0-3.8-2.2-5.8-6.6-5.8
		c-4.2,0-8.8,2.3-13.9,6.8c-1.9,1.9-3.8,3.9-5.6,5.9c-1.8,2-3.7,4-5.5,5.9c-6,6.3-9.6,9.4-11,9.4c-0.6,0-0.9-0.2-0.9-0.6
		c0-0.6,0.6-1.4,1.9-2.6c1.9-2.2,4.4-5.1,7.4-8.5c3-3.5,6.7-7.6,11-12.3c6.2-6.4,12.3-9.7,18.5-9.7c3.2,0,5.7,0.9,7.7,2.7
		c2,1.8,3,4,3,6.7c0,4.3-2.3,8.4-6.9,12.3c-0.8,0.7-1.8,1.5-3,2.5c-1.2,1-2.7,2.1-4.3,3.5c2.4-0.1,5,0.9,7.8,3
		c4.1,3.1,6.3,7.6,6.3,13.4c2.6-0.4,4.8-0.6,6.6-0.7c1.8-0.1,3.2-0.1,4.1,0c7.1,0.9,10.7,3.3,10.7,7.2
		C954.2,570,952.7,572.6,949.8,575.3L949.8,575.3z M924.4,566.6c-7.3,1.9-13.3,3.5-18,4.8c-4.7,1.3-8.1,2.2-10.2,2.9
		c-3.4,1.1-6.9,2.4-10.6,4c-3.7,1.6-7.7,3.4-12,5.4c-19.1,9-28.7,19.5-28.7,31.3c0,5.3,2.2,9.5,6.5,12.6c4.3,3.1,9.9,4.6,16.6,4.6
		c16.4,0,30-6.9,40.7-20.8C918.4,598.8,923.7,583.9,924.4,566.6L924.4,566.6z M242.1,509.1c12.3-27.6,18.6-54.5,18.9-80.6
		c0-10.1-1.9-18.1-5.7-23.9c-3.6-5.3-8-7.9-13.3-7.9c-6.7,0-12.5,3.9-17.3,11.6c-5.5,8.9-8.2,20.6-8.2,35.2c0,3.5,0.2,7,0.5,10.4
		c0.8,9.7,3.3,19.5,7.6,29.5C229.1,494.4,235,503,242.1,509.1L242.1,509.1z M292.6,503.9c0.2-0.7,0-1.1-0.7-1.2
		c-0.6-0.2-1-0.1-1.2,0.5c-1.5,4.3-5.2,7.9-11.3,10.8c-5.7,2.6-11.1,3.8-16,3.7c2.9-5.3,5.3-10.7,7.2-16.2
		c3.5-9.8,7.2-19.3,11.1-28.6c3.9-9.3,8.1-18.6,12.6-27.8c12.5-25.2,21.9-37.9,28.4-37.9c6.6,0,9.7,14,9.3,41.9
		c-0.3,14.7-3.1,35.3-8.2,61.8c-0.1,0.6-0.2,1.1-0.3,1.7c-0.1,0.6-0.1,1.1-0.1,1.7c0,2.9,0.9,4.4,2.7,4.4c2.9,0,5.7-3.4,8.4-10.3
		c5.4-14.4,14.7-30.4,27.9-48.1c11.4-15.5,23.2-29.2,35.3-41.2c11.9-11.6,19.7-17.3,23.6-17.3c1.1,0,1.7,0.7,1.7,2.2
		c0,1.5-0.7,3.8-2,6.9c-1.1,2.2-3.3,6.2-6.6,12c-3.3,5.7-7.6,13.2-13.1,22.6c-6.1,10.2-11.3,19.3-15.8,27.3
		c-4.5,8-8.2,14.9-11.1,20.9c-9.7,18.9-15.5,34.1-17.7,45.6c-0.4,1.9-0.8,3.8-0.9,5.6c-0.2,1.9-0.3,3.6-0.3,5.3
		c0,10.1,3.4,15.1,10.1,15.1c6.6,0,13.2-3.2,19.9-9.6c1.6-1.6,2.4-2.8,2.4-3.7c0-0.6-0.3-0.8-1-0.8c-0.9,0-1.7,0.5-2.5,1.5
		c-4.4,4.7-8.4,7.1-12,7.1c-3.8,0-5.7-3.8-5.6-11.3c0.1-7.1,1.5-15,4-23.6c2.6-8.7,6.6-18.4,12-29.2c8.5-17.8,19-34.8,31.3-51
		c16-21.3,24.1-36.4,24.1-45.1c0-4-2.1-6.1-6.2-6.1c-3.6,0-9,1.6-16.2,4.9c-14.5,6.6-31.2,23.1-50.2,49.5
		c-14.8,20.5-26.3,39.6-34.5,57.1c0.1-0.9,0.6-3.3,1.3-7.2c0.8-3.9,1.9-9.5,3.4-16.7c1.5-6.8,2.6-12.9,3.5-18.1
		c0.8-5.2,1.5-9.7,1.9-13.6c0.2-2.5,0.4-4.8,0.5-7.1c0.1-2.2,0.2-4.5,0.2-6.7c0-10.3-1.2-18.6-3.5-24.9c-2.5-6.8-6.1-10.3-10.8-10.3
		c-8.4,0-19.3,10.9-32.7,32.7c-2.1,3.3-4.4,7.4-6.8,12.5c-2.4,5.1-5.1,11.2-8,18.3c0.8-4.3,1.3-8.4,1.7-12.4c0.3-4,0.5-7.9,0.5-11.7
		c0-25.7-7.1-44-21.2-55c-6.5-4.9-13.2-7.4-20-7.4c-10.4,0-19.6,4.9-27.4,14.6c-7.7,9.7-11.6,20.6-11.6,32.8
		c0,6.3,1.2,12.2,3.5,17.7c0.8,2.1,1.9,3.2,3.2,3.2c1,0,1.5-0.7,1.5-2.2c0-0.8-0.3-2-0.8-3.7c-1.5-3.4-2.2-7.4-2.2-12
		c0-10.9,3.5-21.3,10.4-31.3c7.3-10.3,15.4-15.5,24.2-15.5c5.8,0,11.2,2.4,16.2,7.2c10.4,10,15.7,24.6,15.7,43.8
		c0,15.8-3.6,34.7-10.8,56.6c-3.3,10.2-6.8,19.2-10.6,27.1c-1.5-0.6-2.9-1.2-4.3-2c-1.4-0.8-2.7-1.7-4-2.7
		c13.8-30.1,20.8-57.8,21-83.3c0-10.7-2.2-18.9-6.7-24.7c-4-5.5-9.2-8.2-15.5-8.2c-8.2,0-15.2,4.3-21,12.8
		c-6.7,9.7-10.1,22.4-10.1,38.2c0,3.1,0.2,6.4,0.5,9.8c0.9,10.2,3.8,20.4,8.6,30.6c5.4,11.3,12,19.9,19.9,25.8
		c-1.3,2.7-2.6,5.3-3.8,7.7c0.2,0.3,0.5,0.5,0.7,0.8c0.3,0.4,0.7,0.8,1,1.2c1.6-2.9,3-5.7,4.3-8.3c2.8,1.9,5.6,3.4,8.4,4.4
		c-1.2,2.3-4.4,9.4-7.6,14.6c1.5,7-0.8,13.9-8.2,18.7c3.4-1.9,7.1-5,11.1-9.3c2.8-2.9,5.5-6.2,8-9.8c2.5-3.6,5-7.6,7.5-11.9
		c5.6,0.1,11.7-1.3,18.2-4.2C286.6,512.7,290.7,508.8,292.6,503.9L292.6,503.9z M221,547.2c1.1,0.4,2.2,0.6,3,0.6
		c2.7,0,7-0.5,10-3.3c0.6-0.5,1.5-1.5,2.5-2.7c-0.6,2.8-1.7,4.9-3.2,6.3c-1.8,1.8-4.3,2.7-7.3,2.7c-1.3,0-2.4-0.6-3.5-1.7
		C222,548.7,221.5,548,221,547.2L221,547.2z M234.7,528.4c-1.4,2.3-2.9,4.8-4.6,7.2c-0.3,0.4-0.7,0.5-1.2,0.2
		c-0.6-0.3-0.7-0.7-0.3-1.2c1.6-2.5,3.2-5.2,4.8-8.2C233.9,527.1,234.3,527.8,234.7,528.4L234.7,528.4z M237.8,520.2
		c-43.3-52.4-120.2,41.4-191.5-15.9c-0.3,0.3,58.6,66.1,96.6,23.5c11.2,52.5,46.8,30.3,52.1,20.3c-53.4,8.1-1.7-62.1,36-24.4
		c4.8,4.8,6.8,10.3,5.9,16.5c-0.6,3.6-1.7,6.3-3.5,8.1c-1.8,1.8-4.3,2.7-7.3,2.7c-1.3,0-2.4-0.6-3.5-1.7c-1-1-1.9-2.4-2.6-4.3
		c-0.7-1.8-0.5-3.4,0.8-4.7c1-1,2.9-1.8,5.5-2.4c-3.3-3.3-6.3-4.1-9-2.3c-3,1.8-7.7,1.8-14.2,0c1.7,7,1.7,11.8,0,14.5
		c-1.7,2.7-0.8,5.7,2.4,8.9c0.8-3,1.9-5.2,3.1-6.4c6.7-6.6,14.3,4.9,24.7-0.4C247.6,544.9,246.9,531,237.8,520.2z"/>
	<path fill-rule="evenodd" clip-rule="evenodd" fill="#FFFFFF" d="M276.7,652.6c29.3,0,56.7-8.3,79.9-22.6
		c-22.8,13.8-49.6,21.7-78.2,21.7c-69.4,0-127.9-46.6-146-110.1c-0.7,0.4-1.5,0.8-2.3,1.1C148.6,606.2,207.2,652.6,276.7,652.6
		L276.7,652.6z M126.6,504.2c0-1.4-0.1-2.9-0.1-4.3c0-83.8,68-151.8,151.8-151.8c32.4,0,62.5,10.2,87.1,27.5
		c-25-17.9-55.7-28.4-88.8-28.4c-84.3,0-152.7,68.4-152.7,152.7c0,1.4,0,2.7,0.1,4.1C124.9,504,125.8,504.1,126.6,504.2z"/>
</g>
</svg>
