<?xml version="1.0" encoding="UTF-8" standalone="no"?>
<svg width="24px" height="24px" viewBox="0 0 24 24" version="1.1" xmlns="http://www.w3.org/2000/svg" xmlns:xlink="http://www.w3.org/1999/xlink">
    <!-- Generator: Sketch 3.8.2 (29753) - http://www.bohemiancoding.com/sketch -->
    <title>dollar</title>
    <desc>Created with Sketch.</desc>
    <defs></defs>
    <g id="Page-1" stroke="none" stroke-width="1" fill="none" fill-rule="evenodd">
        <g id="index" transform="translate(-473.000000, -951.000000)" fill="#FFFFFF">
            <g id="about" transform="translate(183.000000, 494.000000)">
                <g id="place" transform="translate(290.000000, 457.000000)">
                    <g id="dollar">
                        <g id="Group">
                            <path d="M11.9927027,0 C5.36140541,0 0,5.36140541 0,11.9927027 C0,18.624 5.36140541,23.9854054 11.9927027,23.9854054 C18.624,23.9854054 23.9854054,18.624 23.9854054,11.9927027 C23.9854054,5.36140541 18.624,0 11.9927027,0 L11.9927027,0 Z M11.9927027,22.5745135 C6.20797297,22.5745135 1.41089189,17.7774324 1.41089189,11.9927027 C1.41089189,6.20797297 6.20797297,1.41089189 11.9927027,1.41089189 C17.7774324,1.41089189 22.5745135,6.20797297 22.5745135,11.9927027 C22.5745135,17.7774324 17.7774324,22.5745135 11.9927027,22.5745135 L11.9927027,22.5745135 Z" id="Shape"></path>
                            <path d="M14.9556486,9.45308108 C14.9556486,9.87632432 15.2378108,10.1585676 15.6611351,10.1585676 C16.0843784,10.1585676 16.3666216,9.87640541 16.3666216,9.45308108 C16.3666216,7.80372973 14.7651892,6.5057027 12.6982703,6.26018919 L12.6982703,5.64356757 C12.6982703,5.22032432 12.4161081,4.93808108 11.9927838,4.93808108 C11.5695405,4.93808108 11.2872973,5.22024324 11.2872973,5.64356757 L11.2872973,6.26018919 C9.2202973,6.50708108 7.61894595,7.80372973 7.61894595,9.45308108 C7.61894595,11.1024324 9.22037838,12.4004595 11.2872973,12.645973 L11.2872973,16.3016757 C10.040027,16.0942703 9.02983784,15.3662432 9.02983784,14.5324054 C9.02983784,14.1091622 8.74767568,13.8269189 8.32435135,13.8269189 C7.90110811,13.8269189 7.61886486,14.1090811 7.61886486,14.5324054 C7.61886486,16.1817568 9.2202973,17.4797838 11.2872162,17.7252973 L11.2872162,18.3418378 C11.2872162,18.7650811 11.5693784,19.0473243 11.9927027,19.0473243 C12.4159459,19.0473243 12.6981892,18.7651622 12.6981892,18.3418378 L12.6981892,17.7252162 C14.7651892,17.4783243 16.3665405,16.1816757 16.3665405,14.5323243 C16.3665405,12.882973 14.7651081,11.5849459 12.6981892,11.3394324 L12.6981892,7.68381081 C13.9454595,7.89121622 14.9556486,8.61924324 14.9556486,9.45308108 L14.9556486,9.45308108 Z M9.02983784,9.45308108 C9.02983784,8.61924324 10.040027,7.89121622 11.2872973,7.68381081 L11.2872973,11.2223514 C10.040027,11.0149459 9.02983784,10.2869189 9.02983784,9.45308108 L9.02983784,9.45308108 Z M14.9556486,14.5323243 C14.9556486,15.3661622 13.9454595,16.0941892 12.6981892,16.3015946 L12.6981892,12.7630541 C13.9454595,12.9704595 14.9556486,13.6985676 14.9556486,14.5323243 L14.9556486,14.5323243 Z" id="Shape"></path>
                        </g>
                    </g>
                </g>
            </g>
        </g>
    </g>
</svg>