<?xml version="1.0" encoding="UTF-8" standalone="no"?>
<svg width="20px" height="28px" viewBox="0 0 20 28" version="1.1" xmlns="http://www.w3.org/2000/svg" xmlns:xlink="http://www.w3.org/1999/xlink">
    <!-- Generator: Sketch 3.8.2 (29753) - http://www.bohemiancoding.com/sketch -->
    <title>Group</title>
    <desc>Created with Sketch.</desc>
    <defs></defs>
    <g id="Page-1" stroke="none" stroke-width="1" fill="none" fill-rule="evenodd">
        <g id="index" transform="translate(-475.000000, -903.000000)" fill="#FFFFFF">
            <g id="about" transform="translate(183.000000, 494.000000)">
                <g id="place" transform="translate(292.000000, 409.000000)">
                    <g id="placeholder-(1)">
                        <g id="Group">
                            <path d="M18.6297778,5.10435556 C16.9283556,1.85608889 13.5254222,0 9.96782222,0 C8.11164444,0 6.25555556,0.618666667 4.7088,1.54675556 C0.0685333333,4.33093333 -1.32355556,10.6727111 1.46062222,15.4677333 L7.95706667,26.7592 C8.42106667,27.5326222 9.19448889,27.9966222 9.96782222,27.9966222 C10.7412444,27.9966222 11.5145778,27.5326222 11.9785778,26.7592 L18.6296889,15.1584 L18.6296889,15.0037333 C20.4858667,11.9101333 20.3312889,8.19786667 18.6297778,5.10435556 L18.6297778,5.10435556 Z M17.2376889,14.3849778 L17.2376889,14.5396444 L10.5865778,25.9857778 C10.4319111,26.4497778 10.1225778,26.4497778 9.96791111,26.4497778 C9.81324444,26.4497778 9.50391111,26.2951111 9.34924444,25.9857778 L2.85271111,14.6943111 C0.377866667,10.6727111 1.61528889,5.25902222 5.48222222,2.93884444 C6.87431111,2.16542222 8.42106667,1.70142222 9.96782222,1.70142222 C13.0613333,1.70142222 15.8455111,3.40284444 17.2376889,5.87768889 C18.7844444,8.5072 18.7844444,11.7554667 17.2376889,14.3849778 L17.2376889,14.3849778 Z" id="Shape"></path>
                            <path d="M9.96782222,6.34177778 C7.80231111,6.34177778 6.10088889,8.0432 6.10088889,10.2087111 C6.10088889,12.3742222 7.80231111,14.0756444 9.96782222,14.0756444 C12.1333333,14.0756444 13.8347556,12.3742222 13.8347556,10.2087111 C13.8347556,8.0432 12.1333333,6.34177778 9.96782222,6.34177778 L9.96782222,6.34177778 Z M9.96782222,12.5288 C8.7304,12.5288 7.64764444,11.4460444 7.64764444,10.2086222 C7.64764444,8.9712 8.7304,7.88844444 9.96782222,7.88844444 C11.2052444,7.88844444 12.288,8.9712 12.288,10.2086222 C12.288,11.4460444 11.2052444,12.5288 9.96782222,12.5288 L9.96782222,12.5288 Z" id="Shape"></path>
                        </g>
                    </g>
                </g>
            </g>
        </g>
    </g>
</svg>