<?xml version="1.0" encoding="utf-8"?>
<!-- Generator: Adobe Illustrator 21.0.2, SVG Export Plug-In . SVG Version: 6.00 Build 0)  -->
<svg version="1.1" id="Layer_1" xmlns="http://www.w3.org/2000/svg" xmlns:xlink="http://www.w3.org/1999/xlink" x="0px" y="0px"
	 viewBox="0 0 1000 1000" enable-background="new 0 0 1000 1000" xml:space="preserve">
<g>
	<g>
		<path fill="#FFFFFF" d="M144.3,645.4c-2.3-0.9-4.2-2.1-5.9-3.7c-1.7-1.6-3-3.5-3.9-5.7c-1-2.2-1.4-4.7-1.4-7.4
			c0-2.7,0.5-5.1,1.4-7.4c1-2.2,2.3-4.1,3.9-5.7c1.7-1.6,3.6-2.8,5.9-3.7c2.3-0.9,4.7-1.3,7.3-1.3c1.9,0,3.6,0.2,5.2,0.7
			c1.5,0.5,2.9,1.1,4.1,1.9c1.2,0.8,2.2,1.7,3.1,2.7c0.9,1,1.6,2.1,2.2,3.1l-6.4,3.1c-0.7-1.4-1.8-2.6-3.3-3.6
			c-1.5-1-3.1-1.5-4.9-1.5c-1.6,0-3,0.3-4.4,0.9c-1.3,0.6-2.5,1.4-3.5,2.4c-1,1-1.7,2.2-2.3,3.6c-0.5,1.4-0.8,2.9-0.8,4.6
			c0,1.6,0.3,3.2,0.8,4.6c0.5,1.4,1.3,2.6,2.3,3.6c1,1,2.1,1.8,3.5,2.4c1.3,0.6,2.8,0.9,4.4,0.9c1.8,0,3.5-0.5,4.9-1.5
			c1.5-1,2.5-2.2,3.3-3.6l6.4,3.1c-0.6,1.1-1.4,2.1-2.2,3.2c-0.9,1-1.9,1.9-3.1,2.7c-1.2,0.8-2.6,1.5-4.1,1.9
			c-1.5,0.5-3.3,0.7-5.2,0.7C149,646.7,146.6,646.3,144.3,645.4z"/>
		<path fill="#FFFFFF" d="M194,633.7h-5.4v12.4h-7.4v-34.9h16.3c1.8,0,3.4,0.3,4.9,0.8c1.4,0.6,2.7,1.4,3.7,2.4c1,1,1.8,2.2,2.3,3.6
			c0.5,1.4,0.8,2.9,0.8,4.5c0,1.5-0.2,2.9-0.7,4.1c-0.5,1.2-1,2.2-1.8,3.1c-0.7,0.8-1.6,1.6-2.5,2.1c-0.9,0.5-1.8,0.9-2.8,1.1
			l7.9,13.3h-8.5L194,633.7z M200.1,625.9c1-0.8,1.5-2,1.5-3.5c0-1.5-0.5-2.6-1.5-3.4c-1-0.8-2.2-1.3-3.7-1.3h-7.8v9.4h7.8
			C197.9,627.2,199.1,626.7,200.1,625.9z"/>
		<path fill="#FFFFFF" d="M225.3,611.2H250v6.5h-17.3v7.4h16.9v6.5h-16.9v7.9H250v6.5h-24.7V611.2z"/>
		<path fill="#FFFFFF" d="M288.2,640.2h-15l-2.2,5.9h-8.5l13.5-34.9h9.3l13.4,34.9h-8.5L288.2,640.2z M275.3,633.7h10.9l-5.4-15
			L275.3,633.7z"/>
		<path fill="#FFFFFF" d="M317.3,617.7h-10.2v-6.5h27.8v6.5h-10.2v28.4h-7.5V617.7z"/>
		<path fill="#FFFFFF" d="M350.2,611.2h7.4v34.9h-7.4V611.2z"/>
		<path fill="#FFFFFF" d="M371.3,611.2h8.5l9.7,26.8l9.6-26.8h8.5l-13.5,34.9h-9.3L371.3,611.2z"/>
		<path fill="#FFFFFF" d="M421.3,611.2H446v6.5h-17.3v7.4h16.9v6.5h-16.9v7.9H446v6.5h-24.7V611.2z"/>
	</g>
	<g>
		<path fill="#FFFFFF" d="M156.7,707h-15l-2.2,5.9H131l13.5-34.9h9.3l13.4,34.9h-8.5L156.7,707z M143.7,700.4h10.9l-5.4-15
			L143.7,700.4z"/>
		<path fill="#FFFFFF" d="M188.9,712.3c-2.3-0.9-4.2-2.1-5.9-3.7c-1.7-1.6-3-3.4-4-5.7c-1-2.2-1.5-4.7-1.5-7.5
			c0-2.8,0.5-5.3,1.5-7.5c1-2.2,2.3-4.1,4-5.7c1.7-1.6,3.7-2.8,5.9-3.6c2.2-0.8,4.6-1.3,7.2-1.3c1.8,0,3.5,0.2,5,0.6
			c1.5,0.4,2.8,1,4,1.7c1.2,0.7,2.3,1.5,3.1,2.5c0.9,0.9,1.7,1.9,2.4,3l-6.2,3.4c-0.8-1.2-1.9-2.3-3.3-3.2c-1.4-0.9-3.1-1.4-5-1.4
			c-1.6,0-3,0.3-4.4,0.8c-1.3,0.6-2.5,1.4-3.5,2.4c-1,1-1.8,2.3-2.3,3.7c-0.5,1.4-0.8,2.9-0.8,4.6c0,1.6,0.3,3.1,0.8,4.6
			c0.5,1.4,1.3,2.6,2.3,3.6c1,1,2.1,1.8,3.5,2.4c1.4,0.6,2.8,0.9,4.4,0.9c1.6,0,3-0.3,4.4-0.8c1.3-0.6,2.4-1.2,3.1-1.8v-4.2h-9.2
			v-6.5H211V707c-1.8,2-3.9,3.6-6.4,4.8c-2.5,1.2-5.3,1.8-8.5,1.8C193.6,713.6,191.2,713.1,188.9,712.3z"/>
		<path fill="#FFFFFF" d="M227.4,678h24.7v6.5h-17.3v7.4h16.9v6.5h-16.9v7.9h17.3v6.5h-24.7V678z"/>
		<path fill="#FFFFFF" d="M275.8,690.1v22.8h-7.4V678h7.6l16.2,21.9V678h7.4v34.9h-7.2L275.8,690.1z"/>
		<path fill="#FFFFFF" d="M326.6,712.2c-2.3-0.9-4.2-2.1-5.9-3.7c-1.7-1.6-3-3.5-3.9-5.7c-1-2.2-1.4-4.7-1.4-7.3
			c0-2.7,0.5-5.1,1.4-7.4c1-2.2,2.3-4.1,3.9-5.7c1.6-1.6,3.6-2.8,5.9-3.7c2.3-0.9,4.7-1.3,7.3-1.3c1.9,0,3.7,0.2,5.2,0.7
			c1.5,0.5,2.9,1.1,4.1,1.9c1.2,0.8,2.2,1.7,3.1,2.7c0.9,1,1.6,2.1,2.3,3.2l-6.4,3.1c-0.7-1.4-1.8-2.6-3.3-3.6
			c-1.5-1-3.1-1.5-4.9-1.5c-1.6,0-3,0.3-4.4,0.8c-1.4,0.6-2.5,1.4-3.5,2.4c-1,1-1.7,2.3-2.3,3.7c-0.5,1.4-0.8,2.9-0.8,4.6
			c0,1.6,0.3,3.1,0.8,4.6c0.5,1.4,1.3,2.6,2.3,3.6c1,1,2.1,1.8,3.5,2.4c1.3,0.6,2.8,0.9,4.4,0.9c1.8,0,3.5-0.5,4.9-1.5
			c1.5-0.9,2.6-2.1,3.3-3.6l6.4,3.1c-0.6,1.1-1.4,2.1-2.3,3.2c-0.9,1-1.9,1.9-3.1,2.7c-1.2,0.8-2.5,1.5-4.1,1.9
			c-1.5,0.5-3.3,0.7-5.2,0.7C331.3,713.5,328.9,713.1,326.6,712.2z"/>
		<path fill="#FFFFFF" d="M372,698.6L358.6,678h8.5l8.7,14l8.6-14h8.5l-13.3,20.6v14.3H372V698.6z"/>
	</g>
	<g>
		<g>
			<path fill="#FFFFFF" d="M208.1,477.4h-32.6v74.3H131v-209h97.8c10.9,0,20.6,1.7,29.3,5c8.7,3.4,16,8,22.1,14.1
				c6.1,6.1,10.7,13.2,13.9,21.5c3.2,8.2,4.8,17.2,4.8,26.8c0,9.2-1.3,17.3-3.9,24.4c-2.6,7.1-6.1,13.2-10.5,18.3
				c-4.4,5.1-9.3,9.3-14.7,12.5c-5.4,3.2-11,5.5-16.6,6.7l47,79.6h-51.1L208.1,477.4z M244.6,430.7c6-5,8.9-11.9,8.9-20.7
				c0-8.8-3-15.7-8.9-20.7c-5.9-5-13.4-7.5-22.4-7.5h-46.7v56.4h46.7C231.2,438.2,238.7,435.7,244.6,430.7z"/>
			<path fill="#FFFFFF" d="M340.4,342.7h147.9v39.2H384.9V426h101.2v39.2H384.9v86.5h-44.5V342.7z"/>
		</g>
	</g>
	<g>
		<path fill="#EE4423" d="M746.2,429.6c-0.3,10.9-9.3,19.4-20.3,19c-10.8-0.4-19.3-9.5-18.8-20.4c0.3-10.8,9.5-19.2,20.3-18.9
			C738.3,409.6,746.7,418.8,746.2,429.6z"/>
		<path fill="#EE4423" d="M869,447.2c0.1-88.8-71.9-160.7-160.7-160.7c-88.8,0-160.8,72-160.8,160.8c0,88.8,72,160.8,160.7,160.8
			C797.1,607.9,869.1,536,869,447.2z M686.9,540.5c-6.6,1.2-6-2-3.8-4.8c0.8-1,1.7-1.9,2.8-3c13.9-15.6,19.2-22.6,1.2-24.4
			c-10.9-1.1-17.3-2.3-27.3-12.3c-0.1-0.1-0.1-0.1-0.1-0.1c0,0,0,0,0,0c0,0,0,0,0,0c7,33.1-33,40.5-50,50.9
			c-0.5,0.3-0.9,0.4-1.2,0.2c-0.1-0.3-0.1-0.6,0.2-1.1c10.4-17,17.8-56.9,50.9-50c0,0-0.1-0.1-0.1-0.1c-9.9-9.9-11.2-16.4-12.3-27.4
			c-1.7-18-8.6-12.8-24.4,1.1c-1.2,1.1-2.1,2-3.1,2.8c-2.8,2.1-5.9,2.8-4.6-3.8c2.2-11.3,12.7-40.1,25.7-48.6
			c19-12.6,40.8-8.2,46.8-12.7c41.7-30.1,102-55.6,110.3-49.3l0,0c0,0,0.1,0.1,0.1,0.1c0,0-0.1,0,0,0c0,0.1,0,0.1,0,0.1s0,0,0,0.1
			c0.1,0,0.1,0,0.2,0.1c0,0,0,0,0.1,0c0,0,0,0,0,0l0,0c0,0,0,0,0,0c0,0.1,0.1,0.1,0.1,0.2v0c6.2,8.3-19.6,68.5-49.9,110
			c-4.4,6.1-0.1,27.8-12.8,46.8C727,527.9,698.1,538.3,686.9,540.5z"/>
	</g>
</g>
</svg>
